EESchema Schematic File Version 2
LIBS:PLC_Complete-rescue
LIBS:power
LIBS:device
LIBS:transistors
LIBS:conn
LIBS:linear
LIBS:regul
LIBS:74xx
LIBS:cmos4000
LIBS:adc-dac
LIBS:memory
LIBS:xilinx
LIBS:microcontrollers
LIBS:dsp
LIBS:microchip
LIBS:analog_switches
LIBS:motorola
LIBS:texas
LIBS:intel
LIBS:audio
LIBS:interface
LIBS:digital-audio
LIBS:philips
LIBS:display
LIBS:cypress
LIBS:siliconi
LIBS:opto
LIBS:atmel
LIBS:contrib
LIBS:valves
LIBS:ADuM1201
LIBS:arduino_shields
LIBS:conn_Felix
LIBS:device_Felix
LIBS:Felix
LIBS:IC_Felix
LIBS:Relays_Felix
LIBS:PLC_Complete-cache
EELAYER 25 0
EELAYER END
$Descr A4 11693 8268
encoding utf-8
Sheet 2 3
Title ""
Date "22 may 2013"
Rev ""
Comp ""
Comment1 ""
Comment2 ""
Comment3 ""
Comment4 ""
$EndDescr
Text GLabel 4850 5450 2    60   Input ~ 0
S0_RXD
Text GLabel 4850 5550 2    60   Input ~ 0
S0_TXD
$Comp
L GND #PWR6
U 1 1 551E9DB3
P 3500 7550
F 0 "#PWR6" H 3500 7550 30  0001 C CNN
F 1 "GND" H 3500 7480 30  0001 C CNN
F 2 "" H 3500 7550 60  0000 C CNN
F 3 "" H 3500 7550 60  0000 C CNN
	1    3500 7550
	1    0    0    -1  
$EndComp
$Comp
L +5V #PWR3
U 1 1 551E9DB4
P 2500 550
F 0 "#PWR3" H 2500 640 20  0001 C CNN
F 1 "+5V" H 2500 640 30  0000 C CNN
F 2 "" H 2500 550 60  0000 C CNN
F 3 "" H 2500 550 60  0000 C CNN
	1    2500 550 
	1    0    0    -1  
$EndComp
$Comp
L C C8
U 1 1 551E9DB5
P 3300 950
F 0 "C8" H 3300 1050 40  0000 L CNN
F 1 "100N" H 3306 865 40  0000 L CNN
F 2 "SMD_Packages:SM0805" H 3338 800 30  0001 C CNN
F 3 "" H 3300 950 60  0000 C CNN
	1    3300 950 
	0    -1   -1   0   
$EndComp
$Comp
L C C9
U 1 1 551E9DB6
P 3300 1150
F 0 "C9" H 3300 1250 40  0000 L CNN
F 1 "100N" H 3306 1065 40  0000 L CNN
F 2 "SMD_Packages:SM0805" H 3338 1000 30  0001 C CNN
F 3 "" H 3300 1150 60  0000 C CNN
	1    3300 1150
	0    -1   -1   0   
$EndComp
$Comp
L C C10
U 1 1 551E9DB7
P 3300 1350
F 0 "C10" H 3300 1450 40  0000 L CNN
F 1 "100N" H 3306 1265 40  0000 L CNN
F 2 "SMD_Packages:SM0805" H 3338 1200 30  0001 C CNN
F 3 "" H 3300 1350 60  0000 C CNN
	1    3300 1350
	0    -1   -1   0   
$EndComp
$Comp
L GND #PWR5
U 1 1 551E9DB8
P 3450 1500
F 0 "#PWR5" H 3450 1500 30  0001 C CNN
F 1 "GND" H 3450 1430 30  0001 C CNN
F 2 "" H 3450 1500 60  0000 C CNN
F 3 "" H 3450 1500 60  0000 C CNN
	1    3450 1500
	1    0    0    -1  
$EndComp
Text Label 1400 1850 0    60   ~ 0
SPI_RESET
$Comp
L CRYSTAL X1
U 1 1 551E9DB9
P 1450 2300
F 0 "X1" H 1450 2450 60  0000 C CNN
F 1 "CRYSTAL" H 1450 2150 60  0000 C CNN
F 2 "Crystals:Crystal_HC49-SD_SMD_RevA_09Aug2010" H 1450 2300 60  0001 C CNN
F 3 "" H 1450 2300 60  0000 C CNN
	1    1450 2300
	0    -1   -1   0   
$EndComp
$Comp
L C C3
U 1 1 551E9DBA
P 1100 2600
F 0 "C3" H 1100 2700 40  0000 L CNN
F 1 "22p" H 1106 2515 40  0000 L CNN
F 2 "SMD_Packages:SM0805" H 1138 2450 30  0001 C CNN
F 3 "" H 1100 2600 60  0000 C CNN
	1    1100 2600
	0    -1   -1   0   
$EndComp
$Comp
L C C2
U 1 1 551E9DBB
P 1100 2000
F 0 "C2" H 1100 2100 40  0000 L CNN
F 1 "22p" H 1106 1915 40  0000 L CNN
F 2 "SMD_Packages:SM0805" H 1138 1850 30  0001 C CNN
F 3 "" H 1100 2000 60  0000 C CNN
	1    1100 2000
	0    -1   -1   0   
$EndComp
$Comp
L GND #PWR1
U 1 1 551E9DBC
P 750 2750
F 0 "#PWR1" H 750 2750 30  0001 C CNN
F 1 "GND" H 750 2680 30  0001 C CNN
F 2 "" H 750 2750 60  0000 C CNN
F 3 "" H 750 2750 60  0000 C CNN
	1    750  2750
	1    0    0    -1  
$EndComp
Text Label 6400 1100 0    60   ~ 0
SPI_MISO
Text Label 6400 1200 0    60   ~ 0
SPI_SCK
Text Label 8050 1200 2    60   ~ 0
SPI_MOSI
Text Label 6400 1300 0    60   ~ 0
SPI_RESET
$Comp
L GND #PWR7
U 1 1 551E9DBD
P 7800 1550
F 0 "#PWR7" H 7800 1550 30  0001 C CNN
F 1 "GND" H 7800 1480 30  0001 C CNN
F 2 "" H 7800 1550 60  0000 C CNN
F 3 "" H 7800 1550 60  0000 C CNN
	1    7800 1550
	1    0    0    -1  
$EndComp
Text Label 4950 3050 2    60   ~ 0
SPI_MISO
Text Label 4950 2850 2    60   ~ 0
SPI_SCK
Text Label 4950 2950 2    60   ~ 0
SPI_MOSI
Text Notes 7125 875  0    99   ~ 0
SPI
Text GLabel 4850 4750 2    60   Input ~ 0
S1_RXD
Text GLabel 4850 4850 2    60   Input ~ 0
S1_TXD
Text GLabel 1550 4650 0    60   Input ~ 0
S2_TXD
Text GLabel 1550 4550 0    60   Input ~ 0
S2_RXD
Text GLabel 1550 5450 0    60   Input ~ 0
S3_RXD
Text GLabel 1550 5550 0    60   Input ~ 0
S3_TXD
$Comp
L C C7
U 1 1 551E9DCA
P 3300 750
F 0 "C7" H 3300 850 40  0000 L CNN
F 1 "100N" H 3306 665 40  0000 L CNN
F 2 "SMD_Packages:SM0805" H 3338 600 30  0001 C CNN
F 3 "" H 3300 750 60  0000 C CNN
	1    3300 750 
	0    -1   -1   0   
$EndComp
Text GLabel 4850 5650 2    60   Input ~ 0
S0_CTS
Text GLabel 4850 4550 2    60   Input ~ 0
I2C_SCL
Text GLabel 4850 4650 2    60   Input ~ 0
I2C_SDA
Text Label 4700 6350 2    60   ~ 0
A0
Text GLabel 1550 5750 0    60   Input ~ 0
S3_CTS
Text GLabel 1550 5650 0    60   Input ~ 0
S3_RTS
Text GLabel 1550 5850 0    60   Input ~ 0
S3_DTR
Text GLabel 1550 4850 0    60   Input ~ 0
S2_CTS
Text GLabel 1550 4750 0    60   Input ~ 0
S2_RTS
Text GLabel 1550 4950 0    60   Input ~ 0
S2_DTR
Text GLabel 4850 5050 2    60   Input ~ 0
S1_CTS
Text GLabel 4850 4950 2    60   Input ~ 0
S1_RTS
Text GLabel 4850 5150 2    60   Input ~ 0
S1_DTR
Text Label 1650 4350 0    60   ~ 0
A15
Text Label 1650 4250 0    60   ~ 0
A14
Text Label 1650 4150 0    60   ~ 0
A13
Text Label 1650 4050 0    60   ~ 0
A12
Text Label 1650 3950 0    60   ~ 0
A11
Text Label 1650 3850 0    60   ~ 0
A10
Text Label 1650 3750 0    60   ~ 0
A9
Text Label 1650 3650 0    60   ~ 0
A8
Text Label 1650 3450 0    60   ~ 0
D42
Text Label 1650 3350 0    60   ~ 0
D43
Text Label 1650 3250 0    60   ~ 0
D44
Text Label 1650 3150 0    60   ~ 0
D45
Text Label 1650 5050 0    60   ~ 0
D73
Text Label 4750 5250 2    60   ~ 0
D38
Text Label 1650 6450 0    60   ~ 0
D40
Text Label 1650 6850 0    60   ~ 0
PWM4
$Comp
L R R1
U 1 1 551E9E06
P 1400 1700
F 0 "R1" V 1480 1700 40  0000 C CNN
F 1 "10k" V 1407 1701 40  0000 C CNN
F 2 "SMD_Packages:SM1206" V 1330 1700 30  0001 C CNN
F 3 "" H 1400 1700 30  0000 C CNN
	1    1400 1700
	-1   0    0    1   
$EndComp
$Comp
L SW_PUSH SW1
U 1 1 551E9E07
P 7250 1500
F 0 "SW1" H 7400 1610 50  0000 C CNN
F 1 "SW_PUSH" H 7250 1420 50  0000 C CNN
F 2 "Felix:SMD_PushButton" H 7250 1500 60  0001 C CNN
F 3 "" H 7250 1500 60  0000 C CNN
	1    7250 1500
	1    0    0    -1  
$EndComp
$Comp
L C C1
U 1 1 551E9E08
P 1100 1775
F 0 "C1" H 1100 1875 40  0000 L CNN
F 1 "100N" H 1106 1690 40  0000 L CNN
F 2 "SMD_Packages:SM0805" H 1138 1625 30  0001 C CNN
F 3 "" H 1100 1775 60  0000 C CNN
	1    1100 1775
	0    -1   -1   0   
$EndComp
$Comp
L CP C5
U 1 1 551E9E2C
P 3000 950
F 0 "C5" H 3050 1050 40  0000 L CNN
F 1 "220u" H 3050 850 40  0000 L CNN
F 2 "Capacitors_Elko_ThroughHole:Elko_vert_DM8_RM3-5" H 3100 800 30  0001 C CNN
F 3 "" H 3000 950 300 0000 C CNN
	1    3000 950 
	0    1    1    0   
$EndComp
$Comp
L GND #PWR4
U 1 1 551E9E2D
P 2850 1100
F 0 "#PWR4" H 2850 1100 30  0001 C CNN
F 1 "GND" H 2850 1030 30  0001 C CNN
F 2 "" H 2850 1100 60  0000 C CNN
F 3 "" H 2850 1100 60  0000 C CNN
	1    2850 1100
	1    0    0    -1  
$EndComp
$Comp
L ATMEGA2560-A-ArduPins IC1
U 1 1 551E9E63
P 3200 4450
F 0 "IC1" H 2100 7200 50  0000 L BNN
F 1 "ATMEGA2560-A-ArduPins" H 3700 1650 50  0000 L BNN
F 2 "SMD_Packages:TQFP_100" H 2250 1700 50  0001 C CNN
F 3 "" H 3200 4450 60  0000 C CNN
	1    3200 4450
	1    0    0    -1  
$EndComp
Text Label 1650 5150 0    60   ~ 0
D74
Text Label 1650 5250 0    60   ~ 0
D75
Text Label 1650 6350 0    60   ~ 0
D41
Text Label 1650 6550 0    60   ~ 0
D39
Text Label 1650 6650 0    60   ~ 0
D78
Text Label 1650 6750 0    60   ~ 0
D79
Text Label 4750 5950 2    60   ~ 0
PWM3
Text Label 4750 5850 2    60   ~ 0
PWM2
Text Label 4750 5750 2    60   ~ 0
PWM5
Text Label 4750 6050 2    60   ~ 0
D81
Text Label 4750 6150 2    60   ~ 0
D82
Text Label 4700 6450 2    60   ~ 0
A1
Text Label 4700 6550 2    60   ~ 0
A2
Text Label 4700 6650 2    60   ~ 0
A3
Text Label 4700 6750 2    60   ~ 0
A4
Text Label 4700 6850 2    60   ~ 0
A5
Text Label 4700 6950 2    60   ~ 0
A6
Text Label 4700 7050 2    60   ~ 0
A7
Text Label 4750 3650 2    60   ~ 0
D37
Text Label 4750 3750 2    60   ~ 0
D36
Text Label 4750 3850 2    60   ~ 0
D35
Text Label 4750 3950 2    60   ~ 0
D34
Text Label 4750 4050 2    60   ~ 0
D33
Text Label 4750 4150 2    60   ~ 0
D32
Text Label 4750 4250 2    60   ~ 0
D31
Text Label 4750 4350 2    60   ~ 0
D30
Text Label 1650 6150 0    60   ~ 0
D77
Text Label 1650 6050 0    60   ~ 0
PWM9
Text Label 1650 5950 0    60   ~ 0
PWM8
Text Label 4800 3150 2    60   ~ 0
PWM10
Text Label 4750 1850 2    60   ~ 0
D22
Text Label 4750 1950 2    60   ~ 0
D23
Text Label 4750 2050 2    60   ~ 0
D24
Text Label 4750 2150 2    60   ~ 0
D25
Text Label 4750 2250 2    60   ~ 0
D26
Text Label 4750 2350 2    60   ~ 0
D27
Text Label 4750 2450 2    60   ~ 0
D28
Text Label 4750 2550 2    60   ~ 0
D29
Text Label 1650 3050 0    60   ~ 0
D46
Text Label 1650 2950 0    60   ~ 0
D47
Text Label 1650 2850 0    60   ~ 0
D48
Text Label 1650 2750 0    60   ~ 0
D49
Text Label 4800 3250 2    60   ~ 0
PWM11
Text Label 4800 3350 2    60   ~ 0
PWM12
Text Label 4800 3450 2    60   ~ 0
PWM13
$Comp
L INDUCTOR_SMALL L1
U 1 1 551E9E65
P 2900 600
F 0 "L1" H 2900 700 50  0000 C CNN
F 1 "10uH" H 2900 550 50  0000 C CNN
F 2 "Felix:Inductor_09HCP_Fastron" H 2900 600 60  0001 C CNN
F 3 "" H 2900 600 60  0000 C CNN
	1    2900 600 
	1    0    0    -1  
$EndComp
$Comp
L C C4
U 1 1 551E9E6B
P 1800 7200
F 0 "C4" H 1800 7300 40  0000 L CNN
F 1 "100N" H 1806 7115 40  0000 L CNN
F 2 "SMD_Packages:SM0805" H 1838 7050 30  0001 C CNN
F 3 "" H 1800 7200 60  0000 C CNN
	1    1800 7200
	1    0    0    -1  
$EndComp
$Comp
L GND #PWR2
U 1 1 551E9E6C
P 1800 7550
F 0 "#PWR2" H 1800 7550 30  0001 C CNN
F 1 "GND" H 1800 7480 30  0001 C CNN
F 2 "" H 1800 7550 60  0000 C CNN
F 3 "" H 1800 7550 60  0000 C CNN
	1    1800 7550
	1    0    0    -1  
$EndComp
$Comp
L CONN_3X2 P1
U 1 1 551E9E7C
P 7250 1250
F 0 "P1" H 7250 1500 50  0000 C CNN
F 1 "CONN_3X2_SPI" H 7250 1575 40  0000 C CNN
F 2 "Pin_Headers:Pin_Header_Straight_2x03" H 7250 1250 60  0001 C CNN
F 3 "" H 7250 1250 60  0000 C CNN
	1    7250 1250
	1    0    0    -1  
$EndComp
Text Label 2525 750  0    60   ~ 0
5V_uC
Connection ~ 3450 950 
Wire Wire Line
	4500 2950 4950 2950
Wire Wire Line
	4500 2850 4950 2850
Wire Wire Line
	4950 3050 4500 3050
Wire Wire Line
	6850 1200 6400 1200
Wire Wire Line
	6850 1100 6400 1100
Connection ~ 750  2600
Wire Wire Line
	750  2600 950  2600
Wire Wire Line
	750  1775 750  2750
Wire Wire Line
	750  2000 950  2000
Connection ~ 1450 2600
Connection ~ 1450 2000
Wire Wire Line
	1900 2600 1900 2450
Wire Wire Line
	1250 2600 1900 2600
Wire Wire Line
	1900 2000 1900 2150
Wire Wire Line
	1250 2000 1900 2000
Wire Wire Line
	1250 1850 1900 1850
Connection ~ 3450 1350
Connection ~ 3450 1150
Wire Wire Line
	3450 550  3450 1500
Connection ~ 3150 1550
Connection ~ 3050 1550
Wire Wire Line
	3150 1550 3150 550 
Connection ~ 2950 1550
Wire Wire Line
	1400 1550 3350 1550
Connection ~ 3350 7350
Wire Wire Line
	3500 7350 3500 7550
Connection ~ 3250 7350
Connection ~ 3150 7350
Wire Wire Line
	2950 7350 3500 7350
Wire Wire Line
	1900 5450 1550 5450
Wire Wire Line
	1550 5550 1900 5550
Wire Wire Line
	1550 4550 1900 4550
Wire Wire Line
	1550 4650 1900 4650
Wire Wire Line
	4850 4750 4500 4750
Wire Wire Line
	4850 4850 4500 4850
Wire Wire Line
	4500 5550 4850 5550
Wire Wire Line
	4500 5450 4850 5450
Wire Wire Line
	4850 5650 4500 5650
Wire Wire Line
	4850 4650 4500 4650
Wire Wire Line
	4500 4550 4850 4550
Wire Wire Line
	4500 6350 4700 6350
Wire Wire Line
	4750 3650 4500 3650
Wire Wire Line
	1550 4750 1900 4750
Wire Wire Line
	1550 4850 1900 4850
Wire Wire Line
	1550 4950 1900 4950
Wire Wire Line
	1550 5650 1900 5650
Wire Wire Line
	1900 5750 1550 5750
Wire Wire Line
	1550 5850 1900 5850
Wire Wire Line
	4850 4950 4500 4950
Wire Wire Line
	4500 5050 4850 5050
Wire Wire Line
	4850 5150 4500 5150
Wire Wire Line
	3150 750  3150 1350
Connection ~ 3150 950 
Connection ~ 3150 750 
Connection ~ 3150 1150
Connection ~ 3150 1350
Wire Wire Line
	4750 2550 4500 2550
Wire Wire Line
	4750 2450 4500 2450
Wire Wire Line
	4750 2350 4500 2350
Wire Wire Line
	4750 2250 4500 2250
Wire Wire Line
	4750 2150 4500 2150
Wire Wire Line
	4750 2050 4500 2050
Wire Wire Line
	4750 1950 4500 1950
Wire Wire Line
	4750 1850 4500 1850
Wire Wire Line
	1900 4350 1650 4350
Wire Wire Line
	1900 4250 1650 4250
Wire Wire Line
	1900 4150 1650 4150
Wire Wire Line
	1900 4050 1650 4050
Wire Wire Line
	1900 3950 1650 3950
Wire Wire Line
	1900 3850 1650 3850
Wire Wire Line
	1900 3750 1650 3750
Wire Wire Line
	1900 3650 1650 3650
Wire Wire Line
	1900 3450 1650 3450
Wire Wire Line
	1900 3350 1650 3350
Wire Wire Line
	1900 3250 1650 3250
Wire Wire Line
	1900 3150 1650 3150
Wire Wire Line
	1900 5150 1650 5150
Wire Wire Line
	1900 5050 1650 5050
Wire Wire Line
	1900 5250 1650 5250
Wire Wire Line
	4750 6150 4500 6150
Wire Wire Line
	4750 6050 4500 6050
Wire Wire Line
	4750 5950 4500 5950
Wire Wire Line
	4750 5850 4500 5850
Wire Wire Line
	4750 5750 4500 5750
Wire Wire Line
	4750 5250 4500 5250
Wire Wire Line
	1900 6350 1650 6350
Wire Wire Line
	1900 6450 1650 6450
Wire Wire Line
	1650 6850 1900 6850
Connection ~ 1400 1850
Wire Wire Line
	2850 1100 2850 950 
Wire Wire Line
	1900 6550 1650 6550
Wire Wire Line
	1900 6650 1650 6650
Wire Wire Line
	1900 6750 1650 6750
Wire Wire Line
	4500 6450 4700 6450
Wire Wire Line
	4500 6550 4700 6550
Wire Wire Line
	4500 6650 4700 6650
Wire Wire Line
	4500 6750 4700 6750
Wire Wire Line
	4500 6850 4700 6850
Wire Wire Line
	4500 6950 4700 6950
Wire Wire Line
	4500 7050 4700 7050
Wire Wire Line
	4750 3750 4500 3750
Wire Wire Line
	4750 3850 4500 3850
Wire Wire Line
	4750 3950 4500 3950
Wire Wire Line
	4750 4050 4500 4050
Wire Wire Line
	4750 4150 4500 4150
Wire Wire Line
	4750 4250 4500 4250
Wire Wire Line
	4750 4350 4500 4350
Wire Wire Line
	1650 5950 1900 5950
Wire Wire Line
	1650 6050 1900 6050
Wire Wire Line
	1650 6150 1900 6150
Wire Wire Line
	1900 3050 1650 3050
Wire Wire Line
	1900 2950 1650 2950
Wire Wire Line
	1900 2850 1650 2850
Wire Wire Line
	1900 2750 1650 2750
Wire Wire Line
	4500 3150 4800 3150
Wire Wire Line
	4500 3250 4800 3250
Wire Wire Line
	4500 3350 4800 3350
Wire Wire Line
	4500 3450 4800 3450
Wire Wire Line
	2500 550  2500 600 
Wire Wire Line
	2500 600  2650 600 
Wire Wire Line
	1800 7050 1900 7050
Wire Wire Line
	1800 7350 1800 7550
Wire Wire Line
	7650 1100 8000 1100
Wire Wire Line
	8050 1200 7650 1200
Wire Wire Line
	6400 1300 6850 1300
Wire Wire Line
	6400 1500 6950 1500
Wire Wire Line
	6400 1300 6400 1500
Wire Wire Line
	7800 1550 7800 1300
Wire Wire Line
	7800 1300 7650 1300
Wire Wire Line
	7550 1500 7650 1500
Wire Wire Line
	7650 1500 7650 1300
Connection ~ 6400 1500
Connection ~ 7650 1500
Connection ~ 2850 1550
Text Label 8000 1100 2    60   ~ 0
5V_uC
Connection ~ 3050 7350
$Comp
L C C6
U 1 1 551E9E82
P 3300 550
F 0 "C6" H 3300 650 40  0000 L CNN
F 1 "100N" H 3306 465 40  0000 L CNN
F 2 "SMD_Packages:SM0805" H 3338 400 30  0001 C CNN
F 3 "" H 3300 550 60  0000 C CNN
	1    3300 550 
	0    -1   -1   0   
$EndComp
Connection ~ 3150 600 
Connection ~ 3450 750 
Wire Wire Line
	2525 750  3150 750 
Wire Wire Line
	1250 1775 1250 1850
Wire Wire Line
	950  1775 750  1775
Connection ~ 750  2000
$EndSCHEMATC
