EESchema Schematic File Version 2
LIBS:PLC_Complete-rescue
LIBS:power
LIBS:device
LIBS:transistors
LIBS:conn
LIBS:linear
LIBS:regul
LIBS:74xx
LIBS:cmos4000
LIBS:adc-dac
LIBS:memory
LIBS:xilinx
LIBS:microcontrollers
LIBS:dsp
LIBS:microchip
LIBS:analog_switches
LIBS:motorola
LIBS:texas
LIBS:intel
LIBS:audio
LIBS:interface
LIBS:digital-audio
LIBS:philips
LIBS:display
LIBS:cypress
LIBS:siliconi
LIBS:opto
LIBS:atmel
LIBS:contrib
LIBS:valves
LIBS:ADuM1201
LIBS:arduino_shields
LIBS:conn_Felix
LIBS:device_Felix
LIBS:Felix
LIBS:IC_Felix
LIBS:Relays_Felix
LIBS:PLC_Complete-cache
EELAYER 25 0
EELAYER END
$Descr User 20000 15000
encoding utf-8
Sheet 3 3
Title "OpenPLC BUS Board"
Date "19 oct 2013"
Rev "1"
Comp ""
Comment1 ""
Comment2 ""
Comment3 ""
Comment4 ""
$EndDescr
Text Label 4450 7400 0    60   ~ 0
GND
Text Label 4450 7000 0    60   ~ 0
GND_24
Text Label 4450 6600 0    60   ~ 0
24V
Text Label 4450 6200 0    60   ~ 0
5V
Text Label 8150 7450 0    60   ~ 0
GND
Text Label 8150 7050 0    60   ~ 0
GND_24
Text Label 8150 6650 0    60   ~ 0
24V
Text Label 8150 6250 0    60   ~ 0
5V
Text Label 11850 7500 0    60   ~ 0
GND
Text Label 11850 7100 0    60   ~ 0
GND_24
Text Label 11850 6700 0    60   ~ 0
24V
Text Label 11850 6300 0    60   ~ 0
5V
Text Label 16000 7600 0    60   ~ 0
GND
Text Label 16000 7200 0    60   ~ 0
GND_24
Text Label 16000 6800 0    60   ~ 0
24V
Text Label 16000 6400 0    60   ~ 0
5V
Text Label 15850 4000 0    60   ~ 0
GND
Text Label 15850 3600 0    60   ~ 0
GND_24
Text Label 15850 3200 0    60   ~ 0
24V
Text Label 15850 2800 0    60   ~ 0
5V
Text Label 11700 3900 0    60   ~ 0
GND
Text Label 11700 3500 0    60   ~ 0
GND_24
Text Label 11700 3100 0    60   ~ 0
24V
Text Label 11700 2700 0    60   ~ 0
5V
Text Label 8000 3850 0    60   ~ 0
GND
Text Label 8000 3450 0    60   ~ 0
GND_24
Text Label 8000 3050 0    60   ~ 0
24V
Text Label 8000 2650 0    60   ~ 0
5V
Text Label 4300 3800 0    60   ~ 0
GND
Text Label 4300 3400 0    60   ~ 0
GND_24
Text Label 4300 3000 0    60   ~ 0
24V
Text Label 4300 2600 0    60   ~ 0
5V
$Comp
L PWR_FLAG #FLG01
U 1 1 523B8729
P 15600 10850
F 0 "#FLG01" H 15600 10945 30  0001 C CNN
F 1 "PWR_FLAG" H 15600 11030 30  0000 C CNN
F 2 "" H 15600 10850 60  0001 C CNN
F 3 "" H 15600 10850 60  0001 C CNN
	1    15600 10850
	1    0    0    -1  
$EndComp
$Comp
L PWR_FLAG #FLG02
U 1 1 523B8725
P 17500 10200
F 0 "#FLG02" H 17500 10295 30  0001 C CNN
F 1 "PWR_FLAG" H 17500 10380 30  0000 C CNN
F 2 "" H 17500 10200 60  0001 C CNN
F 3 "" H 17500 10200 60  0001 C CNN
	1    17500 10200
	1    0    0    -1  
$EndComp
Text Notes 17400 8300 0    60   ~ 0
End-loop \ncircuit
$Comp
L C C2
U 1 1 523B82FD
P 17200 10700
F 0 "C2" H 17250 10800 50  0000 L CNN
F 1 "100nF" H 17250 10600 50  0000 L CNN
F 2 "" H 17200 10700 60  0001 C CNN
F 3 "" H 17200 10700 60  0001 C CNN
	1    17200 10700
	1    0    0    -1  
$EndComp
$Comp
L C C1
U 1 1 523B82CE
P 14100 10500
F 0 "C1" H 14150 10600 50  0000 L CNN
F 1 "100nF" H 14150 10400 50  0000 L CNN
F 2 "" H 14100 10500 60  0001 C CNN
F 3 "" H 14100 10500 60  0001 C CNN
	1    14100 10500
	1    0    0    -1  
$EndComp
$Comp
L R R14
U 1 1 523B80EF
P 17250 8300
F 0 "R14" V 17330 8300 50  0000 C CNN
F 1 "120R" V 17250 8300 50  0000 C CNN
F 2 "" H 17250 8300 60  0001 C CNN
F 3 "" H 17250 8300 60  0001 C CNN
	1    17250 8300
	-1   0    0    1   
$EndComp
$Comp
L PWR_FLAG #FLG03
U 1 1 52390B16
P 14600 10100
F 0 "#FLG03" H 14600 10195 30  0001 C CNN
F 1 "PWR_FLAG" H 14600 10280 30  0000 C CNN
F 2 "" H 14600 10100 60  0001 C CNN
F 3 "" H 14600 10100 60  0001 C CNN
	1    14600 10100
	1    0    0    -1  
$EndComp
$Comp
L +5V #PWR04
U 1 1 52390AA2
P 16300 7700
F 0 "#PWR04" H 16300 7790 20  0001 C CNN
F 1 "+5V" H 16300 7790 30  0000 C CNN
F 2 "" H 16300 7700 60  0001 C CNN
F 3 "" H 16300 7700 60  0001 C CNN
	1    16300 7700
	1    0    0    -1  
$EndComp
$Comp
L +5V #PWR05
U 1 1 52390A52
P 16450 2500
F 0 "#PWR05" H 16450 2590 20  0001 C CNN
F 1 "+5V" H 16450 2590 30  0000 C CNN
F 2 "" H 16450 2500 60  0001 C CNN
F 3 "" H 16450 2500 60  0001 C CNN
	1    16450 2500
	1    0    0    -1  
$EndComp
$Comp
L +5V #PWR06
U 1 1 52390A22
P 16150 3400
F 0 "#PWR06" H 16150 3490 20  0001 C CNN
F 1 "+5V" H 16150 3490 30  0000 C CNN
F 2 "" H 16150 3400 60  0001 C CNN
F 3 "" H 16150 3400 60  0001 C CNN
	1    16150 3400
	1    0    0    -1  
$EndComp
$Comp
L GND #PWR07
U 1 1 523909FF
P 16100 4200
F 0 "#PWR07" H 16100 4200 30  0001 C CNN
F 1 "GND" H 16100 4130 30  0001 C CNN
F 2 "" H 16100 4200 60  0001 C CNN
F 3 "" H 16100 4200 60  0001 C CNN
	1    16100 4200
	1    0    0    -1  
$EndComp
$Comp
L GND #PWR08
U 1 1 523909DA
P 4500 3650
F 0 "#PWR08" H 4500 3650 30  0001 C CNN
F 1 "GND" H 4500 3580 30  0001 C CNN
F 2 "" H 4500 3650 60  0001 C CNN
F 3 "" H 4500 3650 60  0001 C CNN
	1    4500 3650
	1    0    0    -1  
$EndComp
$Comp
L GND #PWR09
U 1 1 523909AB
P 11900 3400
F 0 "#PWR09" H 11900 3400 30  0001 C CNN
F 1 "GND" H 11900 3330 30  0001 C CNN
F 2 "" H 11900 3400 60  0001 C CNN
F 3 "" H 11900 3400 60  0001 C CNN
	1    11900 3400
	1    0    0    -1  
$EndComp
Text Notes 16100 6950 0    60   ~ 0
D0
Text Notes 16100 7350 0    60   ~ 0
D1
Text Notes 16100 7750 0    60   ~ 0
D2
Text Notes 11950 6850 0    60   ~ 0
D0
Text Notes 11950 7250 0    60   ~ 0
D1
Text Notes 11950 7650 0    60   ~ 0
D2
Text Notes 8250 6800 0    60   ~ 0
D0
Text Notes 8250 7200 0    60   ~ 0
D1
Text Notes 8250 7600 0    60   ~ 0
D2
Text Notes 4500 6750 0    60   ~ 0
D0
Text Notes 4500 7150 0    60   ~ 0
D1
Text Notes 4500 7550 0    60   ~ 0
D2
Text Notes 15850 3400 0    60   ~ 0
D0
Text Notes 15850 3800 0    60   ~ 0
D1
Text Notes 15850 4200 0    60   ~ 0
D2
Text Notes 11700 3250 0    60   ~ 0
D0
Text Notes 11700 3650 0    60   ~ 0
D1
Text Notes 11700 4050 0    60   ~ 0
D2
Text Notes 8000 3200 0    60   ~ 0
D0
Text Notes 8000 3600 0    60   ~ 0
D1
Text Notes 8000 4000 0    60   ~ 0
D2
Text Notes 4300 4000 0    60   ~ 0
D2
Text Notes 4300 3600 0    60   ~ 0
D1
Text Notes 4300 3200 0    60   ~ 0
D0
$Comp
L +5V #PWR010
U 1 1 5238F172
P 5050 5750
F 0 "#PWR010" H 5050 5840 20  0001 C CNN
F 1 "+5V" H 5050 5840 30  0000 C CNN
F 2 "" H 5050 5750 60  0001 C CNN
F 3 "" H 5050 5750 60  0001 C CNN
	1    5050 5750
	1    0    0    -1  
$EndComp
$Comp
L +5V #PWR011
U 1 1 5238F16F
P 8750 5800
F 0 "#PWR011" H 8750 5890 20  0001 C CNN
F 1 "+5V" H 8750 5890 30  0000 C CNN
F 2 "" H 8750 5800 60  0001 C CNN
F 3 "" H 8750 5800 60  0001 C CNN
	1    8750 5800
	1    0    0    -1  
$EndComp
$Comp
L +5V #PWR012
U 1 1 5238F167
P 12450 5850
F 0 "#PWR012" H 12450 5940 20  0001 C CNN
F 1 "+5V" H 12450 5940 30  0000 C CNN
F 2 "" H 12450 5850 60  0001 C CNN
F 3 "" H 12450 5850 60  0001 C CNN
	1    12450 5850
	1    0    0    -1  
$EndComp
$Comp
L +5V #PWR013
U 1 1 5238F164
P 16600 5950
F 0 "#PWR013" H 16600 6040 20  0001 C CNN
F 1 "+5V" H 16600 6040 30  0000 C CNN
F 2 "" H 16600 5950 60  0001 C CNN
F 3 "" H 16600 5950 60  0001 C CNN
	1    16600 5950
	1    0    0    -1  
$EndComp
$Comp
L +5V #PWR014
U 1 1 5238F156
P 12300 2250
F 0 "#PWR014" H 12300 2340 20  0001 C CNN
F 1 "+5V" H 12300 2340 30  0000 C CNN
F 2 "" H 12300 2250 60  0001 C CNN
F 3 "" H 12300 2250 60  0001 C CNN
	1    12300 2250
	1    0    0    -1  
$EndComp
$Comp
L +5V #PWR015
U 1 1 5238F152
P 8600 2200
F 0 "#PWR015" H 8600 2290 20  0001 C CNN
F 1 "+5V" H 8600 2290 30  0000 C CNN
F 2 "" H 8600 2200 60  0001 C CNN
F 3 "" H 8600 2200 60  0001 C CNN
	1    8600 2200
	1    0    0    -1  
$EndComp
$Comp
L +5V #PWR016
U 1 1 5238F13F
P 4900 2200
F 0 "#PWR016" H 4900 2290 20  0001 C CNN
F 1 "+5V" H 4900 2290 30  0000 C CNN
F 2 "" H 4900 2200 60  0001 C CNN
F 3 "" H 4900 2200 60  0001 C CNN
	1    4900 2200
	1    0    0    -1  
$EndComp
$Comp
L TRANSORB T1
U 1 1 5238F02B
P 11150 10800
F 0 "T1" V 11150 10900 40  0000 C CNN
F 1 "TRANSORB" V 11050 10550 40  0000 C CNN
F 2 "" H 11150 10800 60  0001 C CNN
F 3 "" H 11150 10800 60  0001 C CNN
	1    11150 10800
	0    -1   -1   0   
$EndComp
$Comp
L FUSIVEL_RESETAVEL PTC1
U 1 1 5238F028
P 10400 10300
F 0 "PTC1" H 10400 10450 60  0000 C CNN
F 1 "FUSIVEL_RESETAVEL" H 10450 10050 60  0000 C CNN
F 2 "" H 10400 10300 60  0001 C CNN
F 3 "" H 10400 10300 60  0001 C CNN
	1    10400 10300
	1    0    0    -1  
$EndComp
Text Label 11600 11050 0    60   ~ 0
GND_24
Text Label 11600 10300 0    60   ~ 0
24V
$Comp
L R R12
U 1 1 5238E6BC
P 15650 8000
F 0 "R12" V 15730 8000 50  0000 C CNN
F 1 "100R" V 15650 8000 50  0000 C CNN
F 2 "" H 15650 8000 60  0001 C CNN
F 3 "" H 15650 8000 60  0001 C CNN
	1    15650 8000
	0    -1   -1   0   
$EndComp
$Comp
L R R9
U 1 1 5238E69C
P 11500 7900
F 0 "R9" V 11580 7900 50  0000 C CNN
F 1 "100R" V 11500 7900 50  0000 C CNN
F 2 "" H 11500 7900 60  0001 C CNN
F 3 "" H 11500 7900 60  0001 C CNN
	1    11500 7900
	0    -1   -1   0   
$EndComp
$Comp
L R R7
U 1 1 5238E64D
P 7800 7850
F 0 "R7" V 7880 7850 50  0000 C CNN
F 1 "100R" V 7800 7850 50  0000 C CNN
F 2 "" H 7800 7850 60  0001 C CNN
F 3 "" H 7800 7850 60  0001 C CNN
	1    7800 7850
	0    -1   -1   0   
$EndComp
$Comp
L R R11
U 1 1 5238E613
P 15500 4400
F 0 "R11" V 15580 4400 50  0000 C CNN
F 1 "100R" V 15500 4400 50  0000 C CNN
F 2 "" H 15500 4400 60  0001 C CNN
F 3 "" H 15500 4400 60  0001 C CNN
	1    15500 4400
	0    -1   -1   0   
$EndComp
$Comp
L R R8
U 1 1 5238E5DD
P 11350 4300
F 0 "R8" V 11430 4300 50  0000 C CNN
F 1 "100R" V 11350 4300 50  0000 C CNN
F 2 "" H 11350 4300 60  0001 C CNN
F 3 "" H 11350 4300 60  0001 C CNN
	1    11350 4300
	0    -1   -1   0   
$EndComp
$Comp
L R R6
U 1 1 5238E5B8
P 7650 4250
F 0 "R6" V 7730 4250 50  0000 C CNN
F 1 "100R" V 7650 4250 50  0000 C CNN
F 2 "" H 7650 4250 60  0001 C CNN
F 3 "" H 7650 4250 60  0001 C CNN
	1    7650 4250
	0    -1   -1   0   
$EndComp
Text Label 4450 5800 0    60   ~ 0
GND_24
Text Label 4300 2200 0    60   ~ 0
GND_24
$Comp
L R R1
U 1 1 5238E53F
P 3950 4200
F 0 "R1" V 4030 4200 50  0000 C CNN
F 1 "100R" V 3950 4200 50  0000 C CNN
F 2 "" H 3950 4200 60  0001 C CNN
F 3 "" H 3950 4200 60  0001 C CNN
	1    3950 4200
	0    -1   -1   0   
$EndComp
Text Label 4650 10250 0    60   ~ 0
485_A
Text Label 4650 10500 0    60   ~ 0
485_B
$Comp
L R R2
U 1 1 5238E3CA
P 4100 7800
F 0 "R2" V 4180 7800 50  0000 C CNN
F 1 "100R" V 4100 7800 50  0000 C CNN
F 2 "" H 4100 7800 60  0001 C CNN
F 3 "" H 4100 7800 60  0001 C CNN
	1    4100 7800
	0    -1   -1   0   
$EndComp
Text Notes 4350 9450 0    150  ~ 0
Comunication Line \nProtection at CN1
$Comp
L GND #PWR017
U 1 1 5238DEFB
P 5150 10750
F 0 "#PWR017" H 5150 10750 30  0001 C CNN
F 1 "GND" H 5150 10680 30  0001 C CNN
F 2 "" H 5150 10750 60  0001 C CNN
F 3 "" H 5150 10750 60  0001 C CNN
	1    5150 10750
	1    0    0    -1  
$EndComp
$Comp
L +5V #PWR018
U 1 1 5238DED9
P 5100 10050
F 0 "#PWR018" H 5100 10140 20  0001 C CNN
F 1 "+5V" H 5100 10140 30  0000 C CNN
F 2 "" H 5100 10050 60  0001 C CNN
F 3 "" H 5100 10050 60  0001 C CNN
	1    5100 10050
	1    0    0    -1  
$EndComp
$Comp
L R R5
U 1 1 5238DEA1
P 5450 10650
F 0 "R5" V 5530 10650 50  0000 C CNN
F 1 "560R" V 5450 10650 50  0000 C CNN
F 2 "" H 5450 10650 60  0001 C CNN
F 3 "" H 5450 10650 60  0001 C CNN
	1    5450 10650
	0    -1   -1   0   
$EndComp
$Comp
L R R3
U 1 1 5238DE9D
P 5450 10100
F 0 "R3" V 5530 10100 50  0000 C CNN
F 1 "560R" V 5450 10100 50  0000 C CNN
F 2 "" H 5450 10100 60  0001 C CNN
F 3 "" H 5450 10100 60  0001 C CNN
	1    5450 10100
	0    -1   -1   0   
$EndComp
$Comp
L R R4
U 1 1 5238DE8E
P 5450 10400
F 0 "R4" V 5530 10400 50  0000 C CNN
F 1 "120R" V 5450 10400 50  0000 C CNN
F 2 "" H 5450 10400 60  0001 C CNN
F 3 "" H 5450 10400 60  0001 C CNN
	1    5450 10400
	0    -1   -1   0   
$EndComp
$Comp
L GND #PWR019
U 1 1 52311889
P 15350 11100
F 0 "#PWR019" H 15350 11100 30  0001 C CNN
F 1 "GND" H 15350 11030 30  0001 C CNN
F 2 "" H 15350 11100 60  0001 C CNN
F 3 "" H 15350 11100 60  0001 C CNN
	1    15350 11100
	1    0    0    -1  
$EndComp
$Comp
L R R13
U 1 1 5231177C
P 13750 10900
F 0 "R13" V 13830 10900 50  0000 C CNN
F 1 "0R" V 13750 10900 50  0000 C CNN
F 2 "" H 13750 10900 60  0001 C CNN
F 3 "" H 13750 10900 60  0001 C CNN
	1    13750 10900
	0    1    1    0   
$EndComp
$Comp
L +5V #PWR020
U 1 1 5231009E
P 4800 7550
F 0 "#PWR020" H 4800 7640 20  0001 C CNN
F 1 "+5V" H 4800 7640 30  0000 C CNN
F 2 "" H 4800 7550 60  0001 C CNN
F 3 "" H 4800 7550 60  0001 C CNN
	1    4800 7550
	1    0    0    -1  
$EndComp
$Comp
L +5V #PWR021
U 1 1 5231007B
P 8450 7600
F 0 "#PWR021" H 8450 7690 20  0001 C CNN
F 1 "+5V" H 8450 7690 30  0000 C CNN
F 2 "" H 8450 7600 60  0001 C CNN
F 3 "" H 8450 7600 60  0001 C CNN
	1    8450 7600
	1    0    0    -1  
$EndComp
$Comp
L +5V #PWR022
U 1 1 52310065
P 12150 7650
F 0 "#PWR022" H 12150 7740 20  0001 C CNN
F 1 "+5V" H 12150 7740 30  0000 C CNN
F 2 "" H 12150 7650 60  0001 C CNN
F 3 "" H 12150 7650 60  0001 C CNN
	1    12150 7650
	1    0    0    -1  
$EndComp
Text Label 4450 7800 0    60   ~ 0
GND_485
Text Label 4450 8400 0    60   ~ 0
GND
Text Label 4450 8000 0    60   ~ 0
485_B
Text Label 4450 8200 0    60   ~ 0
485_A
Text Label 4450 6400 0    60   ~ 0
CPU_RESET
Text Label 4550 6000 0    60   ~ 0
5V
Text Label 4450 5600 0    60   ~ 0
24V
Text Notes 2350 5500 0    150  ~ 0
CN5
$Comp
L GND #PWR023
U 1 1 52310027
P 4650 6900
F 0 "#PWR023" H 4650 6900 30  0001 C CNN
F 1 "GND" H 4650 6830 30  0001 C CNN
F 2 "" H 4650 6900 60  0001 C CNN
F 3 "" H 4650 6900 60  0001 C CNN
	1    4650 6900
	1    0    0    -1  
$EndComp
$Comp
L GND #PWR024
U 1 1 52310026
P 4650 7250
F 0 "#PWR024" H 4650 7250 30  0001 C CNN
F 1 "GND" H 4650 7180 30  0001 C CNN
F 2 "" H 4650 7250 60  0001 C CNN
F 3 "" H 4650 7250 60  0001 C CNN
	1    4650 7250
	1    0    0    -1  
$EndComp
$Comp
L GND #PWR025
U 1 1 52310023
P 8350 7300
F 0 "#PWR025" H 8350 7300 30  0001 C CNN
F 1 "GND" H 8350 7230 30  0001 C CNN
F 2 "" H 8350 7300 60  0001 C CNN
F 3 "" H 8350 7300 60  0001 C CNN
	1    8350 7300
	1    0    0    -1  
$EndComp
Text Notes 6050 5550 0    150  ~ 0
CN6
Text Label 8150 5650 0    60   ~ 0
24V
Text Label 8250 6050 0    60   ~ 0
5V
Text Label 8150 6450 0    60   ~ 0
CPU_RESET
Text Label 8150 8250 0    60   ~ 0
485_A
Text Label 8150 8050 0    60   ~ 0
485_B
Text Label 8150 8450 0    60   ~ 0
GND
Text Label 8150 7850 0    60   ~ 0
GND_485
Text Label 8150 5850 0    60   ~ 0
GND_24
$Comp
L +5V #PWR026
U 1 1 52310020
P 8450 6800
F 0 "#PWR026" H 8450 6890 20  0001 C CNN
F 1 "+5V" H 8450 6890 30  0000 C CNN
F 2 "" H 8450 6800 60  0001 C CNN
F 3 "" H 8450 6800 60  0001 C CNN
	1    8450 6800
	1    0    0    -1  
$EndComp
$Comp
L GND #PWR027
U 1 1 5231001E
P 12050 7000
F 0 "#PWR027" H 12050 7000 30  0001 C CNN
F 1 "GND" H 12050 6930 30  0001 C CNN
F 2 "" H 12050 7000 60  0001 C CNN
F 3 "" H 12050 7000 60  0001 C CNN
	1    12050 7000
	1    0    0    -1  
$EndComp
Text Notes 9750 5600 0    150  ~ 0
CN7
Text Label 11850 5700 0    60   ~ 0
24V
Text Label 11950 6100 0    60   ~ 0
5V
Text Label 11850 6500 0    60   ~ 0
CPU_RESET
Text Label 11850 8300 0    60   ~ 0
485_A
Text Label 11850 8100 0    60   ~ 0
485_B
Text Label 11850 8500 0    60   ~ 0
GND
Text Label 11850 7900 0    60   ~ 0
GND_485
Text Label 11850 5900 0    60   ~ 0
GND_24
$Comp
L +5V #PWR028
U 1 1 5231001B
P 12150 7250
F 0 "#PWR028" H 12150 7340 20  0001 C CNN
F 1 "+5V" H 12150 7340 30  0000 C CNN
F 2 "" H 12150 7250 60  0001 C CNN
F 3 "" H 12150 7250 60  0001 C CNN
	1    12150 7250
	1    0    0    -1  
$EndComp
$Comp
L +5V #PWR029
U 1 1 5231001A
P 16300 7350
F 0 "#PWR029" H 16300 7440 20  0001 C CNN
F 1 "+5V" H 16300 7440 30  0000 C CNN
F 2 "" H 16300 7350 60  0001 C CNN
F 3 "" H 16300 7350 60  0001 C CNN
	1    16300 7350
	1    0    0    -1  
$EndComp
Text Label 16000 6000 0    60   ~ 0
GND_24
Text Label 16000 8000 0    60   ~ 0
GND_485
Text Label 16000 8600 0    60   ~ 0
GND
Text Label 16000 8200 0    60   ~ 0
485_B
Text Label 16000 8400 0    60   ~ 0
485_A
Text Label 16000 6600 0    60   ~ 0
CPU_RESET
Text Label 16100 6200 0    60   ~ 0
5V
Text Label 16000 5800 0    60   ~ 0
24V
Text Notes 13900 5700 0    150  ~ 0
CN8
$Comp
L +5V #PWR030
U 1 1 52310016
P 16300 7050
F 0 "#PWR030" H 16300 7140 20  0001 C CNN
F 1 "+5V" H 16300 7140 30  0000 C CNN
F 2 "" H 16300 7050 60  0001 C CNN
F 3 "" H 16300 7050 60  0001 C CNN
	1    16300 7050
	1    0    0    -1  
$EndComp
Text Notes 13750 2100 0    150  ~ 0
CN4
Text Label 15850 2200 0    60   ~ 0
24V
Text Label 15950 2600 0    60   ~ 0
5V
Text Label 15850 3000 0    60   ~ 0
CPU_RESET
Text Label 15850 4800 0    60   ~ 0
485_A
Text Label 15850 4600 0    60   ~ 0
485_B
Text Label 15850 5000 0    60   ~ 0
GND
Text Label 15850 4400 0    60   ~ 0
GND_485
Text Label 15850 2400 0    60   ~ 0
GND_24
$Comp
L +5V #PWR031
U 1 1 5230FD63
P 16150 3750
F 0 "#PWR031" H 16150 3840 20  0001 C CNN
F 1 "+5V" H 16150 3840 30  0000 C CNN
F 2 "" H 16150 3750 60  0001 C CNN
F 3 "" H 16150 3750 60  0001 C CNN
	1    16150 3750
	1    0    0    -1  
$EndComp
$Comp
L +5V #PWR032
U 1 1 5230FC9D
P 12000 3650
F 0 "#PWR032" H 12000 3740 20  0001 C CNN
F 1 "+5V" H 12000 3740 30  0000 C CNN
F 2 "" H 12000 3650 60  0001 C CNN
F 3 "" H 12000 3650 60  0001 C CNN
	1    12000 3650
	1    0    0    -1  
$EndComp
Text Label 11700 2300 0    60   ~ 0
GND_24
Text Label 11700 4300 0    60   ~ 0
GND_485
Text Label 11700 4900 0    60   ~ 0
GND
Text Label 11700 4500 0    60   ~ 0
485_B
Text Label 11700 4700 0    60   ~ 0
485_A
Text Label 11700 2900 0    60   ~ 0
CPU_RESET
Text Label 11800 2500 0    60   ~ 0
5V
Text Label 11700 2100 0    60   ~ 0
24V
Text Notes 9600 2000 0    150  ~ 0
CN3
$Comp
L GND #PWR033
U 1 1 5230FC94
P 11950 4050
F 0 "#PWR033" H 11950 4050 30  0001 C CNN
F 1 "GND" H 11950 3980 30  0001 C CNN
F 2 "" H 11950 4050 60  0001 C CNN
F 3 "" H 11950 4050 60  0001 C CNN
	1    11950 4050
	1    0    0    -1  
$EndComp
$Comp
L +5V #PWR034
U 1 1 5230FC67
P 8300 3200
F 0 "#PWR034" H 8300 3290 20  0001 C CNN
F 1 "+5V" H 8300 3290 30  0000 C CNN
F 2 "" H 8300 3200 60  0001 C CNN
F 3 "" H 8300 3200 60  0001 C CNN
	1    8300 3200
	1    0    0    -1  
$EndComp
Text Label 8000 2250 0    60   ~ 0
GND_24
Text Label 8000 4250 0    60   ~ 0
GND_485
Text Label 8000 4850 0    60   ~ 0
GND
Text Label 8000 4450 0    60   ~ 0
485_B
Text Label 8000 4650 0    60   ~ 0
485_A
Text Label 8000 2850 0    60   ~ 0
CPU_RESET
Text Label 8100 2450 0    60   ~ 0
5V
Text Label 8000 2050 0    60   ~ 0
24V
Text Notes 5900 1950 0    150  ~ 0
CN2
$Comp
L GND #PWR035
U 1 1 5230FC5E
P 8200 3700
F 0 "#PWR035" H 8200 3700 30  0001 C CNN
F 1 "GND" H 8200 3630 30  0001 C CNN
F 2 "" H 8200 3700 60  0001 C CNN
F 3 "" H 8200 3700 60  0001 C CNN
	1    8200 3700
	1    0    0    -1  
$EndComp
$Comp
L GND #PWR036
U 1 1 5230FC5D
P 8250 4000
F 0 "#PWR036" H 8250 4000 30  0001 C CNN
F 1 "GND" H 8250 3930 30  0001 C CNN
F 2 "" H 8250 4000 60  0001 C CNN
F 3 "" H 8250 4000 60  0001 C CNN
	1    8250 4000
	1    0    0    -1  
$EndComp
$Comp
L GND #PWR037
U 1 1 5230FC16
P 4550 3950
F 0 "#PWR037" H 4550 3950 30  0001 C CNN
F 1 "GND" H 4550 3880 30  0001 C CNN
F 2 "" H 4550 3950 60  0001 C CNN
F 3 "" H 4550 3950 60  0001 C CNN
	1    4550 3950
	1    0    0    -1  
$EndComp
$Comp
L GND #PWR038
U 1 1 5230FC09
P 4500 3300
F 0 "#PWR038" H 4500 3300 30  0001 C CNN
F 1 "GND" H 4500 3230 30  0001 C CNN
F 2 "" H 4500 3300 60  0001 C CNN
F 3 "" H 4500 3300 60  0001 C CNN
	1    4500 3300
	1    0    0    -1  
$EndComp
Text Notes 2200 1900 0    150  ~ 0
CN1
$Comp
L +5V #PWR039
U 1 1 5230FAA0
P 17200 10000
F 0 "#PWR039" H 17200 10090 20  0001 C CNN
F 1 "+5V" H 17200 10090 30  0000 C CNN
F 2 "" H 17200 10000 60  0001 C CNN
F 3 "" H 17200 10000 60  0001 C CNN
	1    17200 10000
	1    0    0    -1  
$EndComp
$Comp
L CONN_2 P1
U 1 1 5230FA9F
P 8250 10400
F 0 "P1" V 8200 10400 40  0000 C CNN
F 1 "PWR_24V" V 8300 10400 40  0000 C CNN
F 2 "" H 8250 10400 60  0001 C CNN
F 3 "" H 8250 10400 60  0001 C CNN
	1    8250 10400
	-1   0    0    1   
$EndComp
$Comp
L C C5
U 1 1 5230FA9E
P 14600 10450
F 0 "C5" H 14650 10550 50  0000 L CNN
F 1 "100uF" H 14650 10350 50  0000 L CNN
F 2 "" H 14600 10450 60  0001 C CNN
F 3 "" H 14600 10450 60  0001 C CNN
	1    14600 10450
	-1   0    0    1   
$EndComp
$Comp
L C C6
U 1 1 5230FA9D
P 16650 10700
F 0 "C6" H 16700 10800 50  0000 L CNN
F 1 "1000uF" H 16350 10600 50  0000 L CNN
F 2 "" H 16650 10700 60  0001 C CNN
F 3 "" H 16650 10700 60  0001 C CNN
	1    16650 10700
	-1   0    0    1   
$EndComp
Text Notes 15650 9750 2    150  ~ 0
Power Source
$Comp
L LM2576 U1
U 1 1 5230FA9B
P 15350 10350
F 0 "U1" H 15600 10100 60  0000 C CNN
F 1 "S-5.0" H 15550 10600 60  0000 C CNN
F 2 "" H 15350 10350 60  0001 C CNN
F 3 "" H 15350 10350 60  0001 C CNN
	1    15350 10350
	1    0    0    -1  
$EndComp
$Comp
L DIODESCH D3
U 1 1 5230FA9A
P 16000 10700
F 0 "D3" H 16000 10800 40  0000 C CNN
F 1 "1N5822" H 16000 10600 40  0000 C CNN
F 2 "" H 16000 10700 60  0001 C CNN
F 3 "" H 16000 10700 60  0001 C CNN
	1    16000 10700
	0    1    -1   0   
$EndComp
$Comp
L INDUCTOR L1
U 1 1 5230FA99
P 16350 10500
F 0 "L1" V 16300 10500 40  0000 C CNN
F 1 "100uH" V 16450 10500 40  0000 C CNN
F 2 "" H 16350 10500 60  0001 C CNN
F 3 "" H 16350 10500 60  0001 C CNN
	1    16350 10500
	0    -1   -1   0   
$EndComp
$Comp
L PWR_FLAG #FLG040
U 1 1 5230FA97
P 8800 10300
F 0 "#FLG040" H 8800 10395 30  0001 C CNN
F 1 "PWR_FLAG" H 8800 10480 30  0000 C CNN
F 2 "" H 8800 10300 60  0001 C CNN
F 3 "" H 8800 10300 60  0001 C CNN
	1    8800 10300
	1    0    0    -1  
$EndComp
$Comp
L PWR_FLAG #FLG041
U 1 1 5230FA96
P 8800 11050
F 0 "#FLG041" H 8800 11145 30  0001 C CNN
F 1 "PWR_FLAG" H 8800 11230 30  0000 C CNN
F 2 "" H 8800 11050 60  0001 C CNN
F 3 "" H 8800 11050 60  0001 C CNN
	1    8800 11050
	1    0    0    -1  
$EndComp
Text Label 13100 10200 0    60   ~ 0
24V
Text Label 13100 10900 0    60   ~ 0
GND_24
$Comp
L DIODE D1
U 1 1 5230FA90
P 9400 11050
F 0 "D1" H 9400 11150 40  0000 C CNN
F 1 "ES3J 600V 3A" H 9400 10950 40  0000 C CNN
F 2 "" H 9400 11050 60  0001 C CNN
F 3 "" H 9400 11050 60  0001 C CNN
	1    9400 11050
	-1   0    0    -1  
$EndComp
Text Notes 9500 9650 0    150  ~ 0
Overvoltage Protection
$Comp
L LED D2
U 1 1 5230FA8F
P 15550 11250
F 0 "D2" H 15550 11350 50  0000 C CNN
F 1 "PWR_LED" H 15550 11150 50  0000 C CNN
F 2 "" H 15550 11250 60  0001 C CNN
F 3 "" H 15550 11250 60  0001 C CNN
	1    15550 11250
	1    0    0    -1  
$EndComp
$Comp
L R R10
U 1 1 5230FA8E
P 15000 11250
F 0 "R10" V 15080 11250 50  0000 C CNN
F 1 "500R" V 15000 11250 50  0000 C CNN
F 2 "" H 15000 11250 60  0001 C CNN
F 3 "" H 15000 11250 60  0001 C CNN
	1    15000 11250
	0    1    1    0   
$EndComp
$Comp
L GND #PWR042
U 1 1 5230FA8D
P 15900 11300
F 0 "#PWR042" H 15900 11300 30  0001 C CNN
F 1 "GND" H 15900 11230 30  0001 C CNN
F 2 "" H 15900 11300 60  0001 C CNN
F 3 "" H 15900 11300 60  0001 C CNN
	1    15900 11300
	1    0    0    -1  
$EndComp
$Comp
L +5V #PWR043
U 1 1 5230FA8C
P 14600 11200
F 0 "#PWR043" H 14600 11290 20  0001 C CNN
F 1 "+5V" H 14600 11290 30  0000 C CNN
F 2 "" H 14600 11200 60  0001 C CNN
F 3 "" H 14600 11200 60  0001 C CNN
	1    14600 11200
	1    0    0    -1  
$EndComp
Text Label 4300 2000 0    60   ~ 0
24V
Text Label 4400 2400 0    60   ~ 0
5V
Text Label 4300 2800 0    60   ~ 0
CPU_RESET
Text Label 4300 4600 0    60   ~ 0
485_A
Text Label 4300 4400 0    60   ~ 0
485_B
Text Label 4300 4800 0    60   ~ 0
GND
Text Label 4300 4200 0    60   ~ 0
GND_485
Text Notes 3500 1250 0    300  ~ 0
CARD Connectors - DB15
$Comp
L DB25 J1
U 1 1 525977EF
P 2550 3900
F 0 "J1" H 2600 5250 70  0000 C CNN
F 1 "DB25" H 2500 2550 70  0000 C CNN
F 2 "" H 2550 3900 60  0000 C CNN
F 3 "" H 2550 3900 60  0000 C CNN
	1    2550 3900
	-1   0    0    1   
$EndComp
NoConn ~ 3000 4200
NoConn ~ 3000 4300
NoConn ~ 3000 4400
NoConn ~ 3000 4500
NoConn ~ 3000 4600
NoConn ~ 3000 4700
NoConn ~ 3000 4800
NoConn ~ 3000 4900
NoConn ~ 3000 5000
NoConn ~ 3000 5100
$Comp
L DB25 J3
U 1 1 525991B9
P 6250 3950
F 0 "J3" H 6300 5300 70  0000 C CNN
F 1 "DB25" H 6200 2600 70  0000 C CNN
F 2 "" H 6250 3950 60  0000 C CNN
F 3 "" H 6250 3950 60  0000 C CNN
	1    6250 3950
	-1   0    0    1   
$EndComp
NoConn ~ 6700 4250
NoConn ~ 6700 4350
NoConn ~ 6700 4450
NoConn ~ 6700 4550
NoConn ~ 6700 4650
NoConn ~ 6700 4750
NoConn ~ 6700 4850
NoConn ~ 6700 4950
NoConn ~ 6700 5050
NoConn ~ 6700 5150
$Comp
L DB25 J5
U 1 1 5259AB90
P 9950 4000
F 0 "J5" H 10000 5350 70  0000 C CNN
F 1 "DB25" H 9900 2650 70  0000 C CNN
F 2 "" H 9950 4000 60  0000 C CNN
F 3 "" H 9950 4000 60  0000 C CNN
	1    9950 4000
	-1   0    0    1   
$EndComp
NoConn ~ 10400 5200
NoConn ~ 10400 5100
NoConn ~ 10400 5000
NoConn ~ 10400 4900
NoConn ~ 10400 4800
NoConn ~ 10400 4700
NoConn ~ 10400 4600
NoConn ~ 10400 4500
NoConn ~ 10400 4400
NoConn ~ 10400 4300
Connection ~ 17200 10300
Wire Wire Line
	17200 10300 17500 10300
Wire Wire Line
	17500 10300 17500 10200
Wire Wire Line
	16550 8400 15000 8400
Wire Wire Line
	16550 8400 16550 8600
Wire Wire Line
	16550 8600 17250 8600
Wire Wire Line
	17250 8600 17250 8550
Wire Wire Line
	14800 10200 13100 10200
Connection ~ 14750 10900
Connection ~ 16650 10900
Connection ~ 14100 10900
Wire Wire Line
	14100 10900 14100 10700
Wire Wire Line
	16300 7800 15400 7800
Wire Wire Line
	3700 7400 3700 7800
Wire Wire Line
	11100 7500 11100 7900
Wire Wire Line
	15100 4000 15100 4400
Wire Wire Line
	7250 3850 7250 4250
Wire Wire Line
	16300 7800 16300 7700
Wire Wire Line
	16150 3500 16150 3400
Wire Wire Line
	4500 3650 4500 3600
Wire Wire Line
	4500 3600 3950 3600
Wire Wire Line
	4650 10250 5700 10250
Connection ~ 11150 11050
Wire Wire Line
	9600 11050 11600 11050
Connection ~ 11150 10300
Wire Wire Line
	11600 10300 10750 10300
Wire Wire Line
	15900 8000 16000 8000
Wire Wire Line
	8050 7850 8150 7850
Wire Wire Line
	11600 4300 11700 4300
Wire Wire Line
	4200 4200 4300 4200
Wire Wire Line
	5700 10250 5700 10100
Wire Wire Line
	5700 10400 5700 10650
Wire Wire Line
	5200 10650 5150 10650
Wire Wire Line
	5100 10050 5100 10100
Wire Wire Line
	4800 7550 4800 7600
Wire Wire Line
	7550 7650 8450 7650
Wire Wire Line
	12150 7650 12150 7700
Wire Wire Line
	11950 4050 11950 4000
Wire Wire Line
	12300 2250 12300 2500
Wire Wire Line
	12300 2500 10800 2500
Wire Wire Line
	11700 2100 10500 2100
Wire Wire Line
	10500 2100 10500 2800
Wire Wire Line
	11700 2300 10700 2300
Wire Wire Line
	10700 2300 10700 2900
Wire Wire Line
	10700 2900 10400 2900
Wire Wire Line
	11700 4500 10800 4500
Wire Wire Line
	10800 4500 10800 4000
Wire Wire Line
	10800 4000 10400 4000
Wire Wire Line
	11100 3800 11100 4100
Wire Wire Line
	10400 3800 11100 3800
Wire Wire Line
	11350 3600 11350 3700
Wire Wire Line
	10400 3600 11350 3600
Wire Wire Line
	11350 3400 11350 3300
Wire Wire Line
	10400 3400 11350 3400
Wire Wire Line
	11700 3100 11250 3100
Wire Wire Line
	11250 3100 11250 3300
Wire Wire Line
	11250 3300 10400 3300
Wire Wire Line
	11700 2700 10950 2700
Wire Wire Line
	10950 2700 10950 3100
Wire Wire Line
	10950 3100 10400 3100
Wire Wire Line
	10400 3200 11100 3200
Wire Wire Line
	11100 3200 11100 2900
Wire Wire Line
	11100 2900 11700 2900
Wire Wire Line
	10400 3500 11700 3500
Wire Wire Line
	10400 3700 11250 3700
Wire Wire Line
	11250 3700 11250 3900
Wire Wire Line
	11250 3900 11700 3900
Wire Wire Line
	10400 3900 10950 3900
Wire Wire Line
	11100 4300 10950 4300
Wire Wire Line
	10400 3000 10800 3000
Wire Wire Line
	10800 3000 10800 2500
Wire Wire Line
	10400 4100 10700 4100
Wire Wire Line
	10700 4100 10700 4700
Wire Wire Line
	10700 4700 11700 4700
Wire Wire Line
	10500 4200 10500 4900
Wire Wire Line
	10500 4900 11700 4900
Wire Wire Line
	11100 4100 11850 4100
Wire Wire Line
	11850 4100 11850 4000
Wire Wire Line
	11850 4000 11950 4000
Wire Wire Line
	8300 3250 7650 3250
Wire Wire Line
	8300 3250 8300 3200
Wire Wire Line
	4450 3900 4550 3900
Wire Wire Line
	4450 3900 4450 4000
Wire Wire Line
	4450 4000 3700 4000
Wire Wire Line
	4300 4800 3100 4800
Wire Wire Line
	3100 4800 3100 4100
Wire Wire Line
	4300 4600 3300 4600
Wire Wire Line
	3300 4600 3300 4000
Wire Wire Line
	3300 4000 3000 4000
Wire Wire Line
	3400 2900 3400 2400
Wire Wire Line
	3000 2900 3400 2900
Wire Wire Line
	3700 4200 3550 4200
Wire Wire Line
	3000 3800 3550 3800
Wire Wire Line
	4300 3800 3850 3800
Wire Wire Line
	3850 3800 3850 3600
Wire Wire Line
	3850 3600 3000 3600
Wire Wire Line
	3000 3400 4300 3400
Wire Wire Line
	4300 2800 3700 2800
Wire Wire Line
	3700 2800 3700 3100
Wire Wire Line
	3700 3100 3000 3100
Wire Wire Line
	3000 3000 3550 3000
Wire Wire Line
	3550 3000 3550 2600
Wire Wire Line
	3550 2600 4300 2600
Wire Wire Line
	3000 3200 3850 3200
Wire Wire Line
	3850 3200 3850 3000
Wire Wire Line
	3850 3000 4300 3000
Wire Wire Line
	3000 3300 3950 3300
Wire Wire Line
	3950 3300 3950 3200
Wire Wire Line
	3000 3500 3950 3500
Wire Wire Line
	3950 3500 3950 3600
Wire Wire Line
	3000 3700 3700 3700
Wire Wire Line
	3700 3700 3700 4000
Wire Wire Line
	3000 3900 3400 3900
Wire Wire Line
	3400 3900 3400 4400
Wire Wire Line
	3400 4400 4300 4400
Wire Wire Line
	3000 2800 3300 2800
Wire Wire Line
	3300 2800 3300 2200
Wire Wire Line
	3300 2200 4300 2200
Wire Wire Line
	3100 2700 3100 2000
Wire Wire Line
	3100 2000 4300 2000
Wire Wire Line
	3400 2400 4900 2400
Wire Wire Line
	14750 11250 14600 11250
Wire Wire Line
	14600 11250 14600 11200
Wire Wire Line
	15750 11250 15900 11250
Wire Wire Line
	15900 11250 15900 11300
Wire Wire Line
	8600 10500 8600 11050
Connection ~ 15350 10900
Wire Wire Line
	14600 10900 14600 10650
Connection ~ 14600 10900
Wire Wire Line
	17200 10000 17200 10500
Connection ~ 16650 10500
Wire Wire Line
	15900 10200 16650 10200
Wire Wire Line
	16650 10200 16650 10500
Wire Wire Line
	15350 11100 15350 10750
Wire Wire Line
	15900 10500 16050 10500
Connection ~ 16000 10500
Connection ~ 16000 10900
Connection ~ 14600 10200
Wire Wire Line
	8600 11050 9200 11050
Wire Wire Line
	15350 11250 15250 11250
Wire Wire Line
	4550 3900 4550 3950
Wire Wire Line
	3950 3200 4500 3200
Wire Wire Line
	4500 3200 4500 3300
Wire Wire Line
	8250 4000 8250 3950
Wire Wire Line
	8600 2200 8600 2450
Wire Wire Line
	8600 2450 7100 2450
Wire Wire Line
	8000 2050 6800 2050
Wire Wire Line
	6800 2050 6800 2750
Wire Wire Line
	8000 2250 7000 2250
Wire Wire Line
	7000 2250 7000 2850
Wire Wire Line
	7000 2850 6700 2850
Wire Wire Line
	8000 4450 7100 4450
Wire Wire Line
	7100 4450 7100 3950
Wire Wire Line
	7100 3950 6700 3950
Wire Wire Line
	7400 3750 7400 4050
Wire Wire Line
	6700 3750 7400 3750
Wire Wire Line
	7650 3550 7650 3650
Wire Wire Line
	6700 3550 7650 3550
Wire Wire Line
	7650 3250 7650 3350
Wire Wire Line
	7650 3350 6700 3350
Wire Wire Line
	8000 3050 7550 3050
Wire Wire Line
	7550 3050 7550 3250
Wire Wire Line
	7550 3250 6700 3250
Wire Wire Line
	8000 2650 7250 2650
Wire Wire Line
	7250 2650 7250 3050
Wire Wire Line
	7250 3050 6700 3050
Wire Wire Line
	6700 3150 7400 3150
Wire Wire Line
	7400 3150 7400 2850
Wire Wire Line
	7400 2850 8000 2850
Wire Wire Line
	6700 3450 8000 3450
Wire Wire Line
	6700 3650 7550 3650
Wire Wire Line
	7550 3650 7550 3850
Wire Wire Line
	7550 3850 8000 3850
Wire Wire Line
	6700 3850 7250 3850
Wire Wire Line
	6700 2950 7100 2950
Wire Wire Line
	7100 2950 7100 2450
Wire Wire Line
	6700 4050 7000 4050
Wire Wire Line
	7000 4050 7000 4650
Wire Wire Line
	7000 4650 8000 4650
Wire Wire Line
	6800 4150 6800 4850
Wire Wire Line
	6800 4850 8000 4850
Wire Wire Line
	7400 4050 8150 4050
Wire Wire Line
	8150 4050 8150 3950
Wire Wire Line
	8150 3950 8250 3950
Wire Wire Line
	7650 3650 8200 3650
Wire Wire Line
	8200 3650 8200 3700
Wire Wire Line
	12000 3650 12000 3700
Wire Wire Line
	12000 3700 11350 3700
Wire Wire Line
	16150 3800 15500 3800
Wire Wire Line
	16150 3800 16150 3750
Wire Wire Line
	15250 4200 16000 4200
Wire Wire Line
	15850 5000 14650 5000
Wire Wire Line
	14650 5000 14650 4300
Wire Wire Line
	15850 4800 14850 4800
Wire Wire Line
	14850 4800 14850 4200
Wire Wire Line
	14850 4200 14550 4200
Wire Wire Line
	14950 3100 14950 2600
Wire Wire Line
	14550 3100 14950 3100
Wire Wire Line
	15100 4400 15250 4400
Wire Wire Line
	14550 4000 15100 4000
Wire Wire Line
	15850 4000 15400 4000
Wire Wire Line
	15400 4000 15400 3800
Wire Wire Line
	15400 3800 14550 3800
Wire Wire Line
	14550 3600 15850 3600
Wire Wire Line
	15850 3000 15250 3000
Wire Wire Line
	15250 3000 15250 3300
Wire Wire Line
	15250 3300 14550 3300
Wire Wire Line
	14550 3200 15100 3200
Wire Wire Line
	15100 3200 15100 2800
Wire Wire Line
	15100 2800 15850 2800
Wire Wire Line
	14550 3400 15400 3400
Wire Wire Line
	15400 3400 15400 3200
Wire Wire Line
	15400 3200 15850 3200
Wire Wire Line
	14550 3500 16150 3500
Wire Wire Line
	14550 3700 15500 3700
Wire Wire Line
	15500 3700 15500 3800
Wire Wire Line
	14550 3900 15250 3900
Wire Wire Line
	15250 3900 15250 4200
Wire Wire Line
	14550 4100 14950 4100
Wire Wire Line
	14950 4100 14950 4600
Wire Wire Line
	14950 4600 15850 4600
Wire Wire Line
	14550 3000 14850 3000
Wire Wire Line
	14850 3000 14850 2400
Wire Wire Line
	14850 2400 15850 2400
Wire Wire Line
	14650 2900 14650 2200
Wire Wire Line
	14650 2200 15850 2200
Wire Wire Line
	14950 2600 16450 2600
Wire Wire Line
	14700 7100 16300 7100
Wire Wire Line
	16300 7100 16300 7050
Wire Wire Line
	16600 5950 16600 6200
Wire Wire Line
	16600 6200 15100 6200
Wire Wire Line
	16000 5800 14800 5800
Wire Wire Line
	14800 5800 14800 6500
Wire Wire Line
	16000 6000 15000 6000
Wire Wire Line
	15000 6000 15000 6600
Wire Wire Line
	15000 6600 14700 6600
Wire Wire Line
	15100 7700 15100 8200
Wire Wire Line
	14700 7700 15100 7700
Wire Wire Line
	15400 7800 15400 7500
Wire Wire Line
	15400 7500 14700 7500
Wire Wire Line
	15650 7300 15650 7400
Wire Wire Line
	14700 7300 15650 7300
Wire Wire Line
	16000 6800 15550 6800
Wire Wire Line
	15550 6800 15550 7000
Wire Wire Line
	15550 7000 14700 7000
Wire Wire Line
	16000 6400 15250 6400
Wire Wire Line
	15250 6400 15250 6800
Wire Wire Line
	15250 6800 14700 6800
Wire Wire Line
	14700 6900 15400 6900
Wire Wire Line
	15400 6900 15400 6600
Wire Wire Line
	15400 6600 16000 6600
Wire Wire Line
	14700 7200 16000 7200
Wire Wire Line
	14700 7400 15550 7400
Wire Wire Line
	15550 7400 15550 7600
Wire Wire Line
	15550 7600 16000 7600
Wire Wire Line
	14700 7600 15250 7600
Wire Wire Line
	15400 8000 15250 8000
Wire Wire Line
	14700 6700 15100 6700
Wire Wire Line
	15100 6700 15100 6200
Wire Wire Line
	14700 7800 15000 7800
Wire Wire Line
	15000 7800 15000 8400
Wire Wire Line
	14800 7900 14800 8600
Wire Wire Line
	14800 8600 16000 8600
Wire Wire Line
	16300 7350 16300 7400
Wire Wire Line
	16300 7400 15650 7400
Wire Wire Line
	12150 7300 11500 7300
Wire Wire Line
	12150 7300 12150 7250
Wire Wire Line
	8350 7300 8350 7250
Wire Wire Line
	8350 7250 7800 7250
Wire Wire Line
	8150 8450 6950 8450
Wire Wire Line
	6950 8450 6950 7750
Wire Wire Line
	8150 8250 7150 8250
Wire Wire Line
	7150 8250 7150 7650
Wire Wire Line
	7150 7650 6850 7650
Wire Wire Line
	7250 6550 7250 6050
Wire Wire Line
	6850 6550 7250 6550
Wire Wire Line
	7550 7850 7400 7850
Wire Wire Line
	6850 7450 7400 7450
Wire Wire Line
	8150 7450 7700 7450
Wire Wire Line
	7700 7450 7700 7250
Wire Wire Line
	7700 7250 6850 7250
Wire Wire Line
	6850 7050 8150 7050
Wire Wire Line
	8150 6450 7550 6450
Wire Wire Line
	7550 6450 7550 6750
Wire Wire Line
	7550 6750 6850 6750
Wire Wire Line
	6850 6650 7400 6650
Wire Wire Line
	7400 6650 7400 6250
Wire Wire Line
	7400 6250 8150 6250
Wire Wire Line
	6850 6850 7700 6850
Wire Wire Line
	7700 6850 7700 6650
Wire Wire Line
	7700 6650 8150 6650
Wire Wire Line
	6850 6950 7800 6950
Wire Wire Line
	7800 6950 7800 6850
Wire Wire Line
	6850 7150 7800 7150
Wire Wire Line
	7800 7150 7800 7250
Wire Wire Line
	6850 7350 7550 7350
Wire Wire Line
	7550 7350 7550 7650
Wire Wire Line
	6850 7550 7250 7550
Wire Wire Line
	7250 7550 7250 8050
Wire Wire Line
	7250 8050 8150 8050
Wire Wire Line
	6850 6450 7150 6450
Wire Wire Line
	7150 6450 7150 5850
Wire Wire Line
	7150 5850 8150 5850
Wire Wire Line
	6950 6350 6950 5650
Wire Wire Line
	6950 5650 8150 5650
Wire Wire Line
	7250 6050 8750 6050
Wire Wire Line
	4650 6900 4650 6800
Wire Wire Line
	4650 6800 4100 6800
Wire Wire Line
	5050 5750 5050 6000
Wire Wire Line
	5050 6000 3550 6000
Wire Wire Line
	4450 5600 3250 5600
Wire Wire Line
	3250 5600 3250 6300
Wire Wire Line
	4450 5800 3450 5800
Wire Wire Line
	3450 5800 3450 6400
Wire Wire Line
	3450 6400 3150 6400
Wire Wire Line
	4450 8000 3550 8000
Wire Wire Line
	3550 8000 3550 7500
Wire Wire Line
	3550 7500 3150 7500
Wire Wire Line
	3850 7300 3850 7600
Wire Wire Line
	3150 7300 3850 7300
Wire Wire Line
	4100 7100 4100 7200
Wire Wire Line
	3150 7100 4100 7100
Wire Wire Line
	4100 6800 4100 6900
Wire Wire Line
	4100 6900 3150 6900
Wire Wire Line
	4450 6600 4000 6600
Wire Wire Line
	4000 6600 4000 6800
Wire Wire Line
	4000 6800 3150 6800
Wire Wire Line
	4450 6200 3700 6200
Wire Wire Line
	3700 6200 3700 6600
Wire Wire Line
	3700 6600 3150 6600
Wire Wire Line
	3150 6700 3850 6700
Wire Wire Line
	3850 6700 3850 6400
Wire Wire Line
	3850 6400 4450 6400
Wire Wire Line
	3150 7000 4450 7000
Wire Wire Line
	3150 7200 4000 7200
Wire Wire Line
	4000 7200 4000 7400
Wire Wire Line
	4000 7400 4450 7400
Wire Wire Line
	3150 7400 3700 7400
Wire Wire Line
	3700 7800 3850 7800
Wire Wire Line
	3150 6500 3550 6500
Wire Wire Line
	3550 6500 3550 6000
Wire Wire Line
	3150 7600 3450 7600
Wire Wire Line
	3450 7600 3450 8200
Wire Wire Line
	3450 8200 4450 8200
Wire Wire Line
	3250 7700 3250 8400
Wire Wire Line
	3250 8400 4450 8400
Wire Wire Line
	4100 7200 4650 7200
Wire Wire Line
	4650 7200 4650 7250
Wire Wire Line
	8450 6800 8450 6850
Wire Wire Line
	8450 6850 7800 6850
Wire Wire Line
	11850 8500 10650 8500
Wire Wire Line
	10650 8500 10650 7800
Wire Wire Line
	11850 8300 10850 8300
Wire Wire Line
	10850 8300 10850 7700
Wire Wire Line
	10850 7700 10550 7700
Wire Wire Line
	10950 6600 10950 6100
Wire Wire Line
	10550 6600 10950 6600
Wire Wire Line
	11100 7900 11250 7900
Wire Wire Line
	10550 7500 11100 7500
Wire Wire Line
	11850 7500 11400 7500
Wire Wire Line
	11400 7500 11400 7300
Wire Wire Line
	11400 7300 10550 7300
Wire Wire Line
	10550 7100 11850 7100
Wire Wire Line
	11850 6500 11250 6500
Wire Wire Line
	11250 6500 11250 6800
Wire Wire Line
	11250 6800 10550 6800
Wire Wire Line
	10550 6700 11100 6700
Wire Wire Line
	11100 6700 11100 6300
Wire Wire Line
	11100 6300 11850 6300
Wire Wire Line
	10550 6900 11400 6900
Wire Wire Line
	11400 6900 11400 6700
Wire Wire Line
	11400 6700 11850 6700
Wire Wire Line
	10550 7000 11500 7000
Wire Wire Line
	11500 7000 11500 6900
Wire Wire Line
	10550 7200 11500 7200
Wire Wire Line
	11500 7200 11500 7300
Wire Wire Line
	10550 7400 11250 7400
Wire Wire Line
	11250 7400 11250 7700
Wire Wire Line
	10550 7600 10950 7600
Wire Wire Line
	10950 7600 10950 8100
Wire Wire Line
	10950 8100 11850 8100
Wire Wire Line
	10550 6500 10850 6500
Wire Wire Line
	10850 6500 10850 5900
Wire Wire Line
	10850 5900 11850 5900
Wire Wire Line
	10650 6400 10650 5700
Wire Wire Line
	10650 5700 11850 5700
Wire Wire Line
	10950 6100 12450 6100
Wire Wire Line
	12450 6100 12450 5850
Wire Wire Line
	12050 7000 12050 6900
Wire Wire Line
	11250 7700 12150 7700
Wire Wire Line
	8450 7650 8450 7600
Wire Wire Line
	3850 7600 4800 7600
Connection ~ 16350 10900
Wire Wire Line
	5150 10650 5150 10750
Connection ~ 5700 10500
Wire Wire Line
	5200 10400 5200 10250
Connection ~ 5200 10250
Wire Wire Line
	5100 10100 5200 10100
Wire Wire Line
	4350 7800 4450 7800
Wire Wire Line
	7900 4250 8000 4250
Wire Wire Line
	15750 4400 15850 4400
Wire Wire Line
	11750 7900 11850 7900
Wire Wire Line
	11150 10550 11150 10300
Wire Wire Line
	11150 11000 11150 11050
Wire Wire Line
	4900 2400 4900 2200
Wire Wire Line
	7250 4250 7400 4250
Connection ~ 8800 11050
Connection ~ 8800 10300
Wire Wire Line
	4650 10500 5700 10500
Wire Wire Line
	8750 6050 8750 5800
Wire Wire Line
	11350 3300 11900 3300
Wire Wire Line
	11900 3300 11900 3400
Wire Wire Line
	16000 4200 16000 4100
Wire Wire Line
	16000 4100 16100 4100
Wire Wire Line
	16100 4100 16100 4200
Wire Wire Line
	16450 2600 16450 2500
Wire Wire Line
	14600 10250 14600 10100
Wire Wire Line
	3550 3800 3550 4200
Wire Wire Line
	10950 4300 10950 3900
Wire Wire Line
	15250 8000 15250 7600
Wire Wire Line
	7400 7450 7400 7850
Wire Wire Line
	12050 6900 11500 6900
Wire Wire Line
	8600 10300 10100 10300
Wire Wire Line
	14100 10200 14100 10300
Connection ~ 14100 10200
Wire Wire Line
	16650 10500 17200 10500
Wire Wire Line
	14800 10500 14750 10500
Wire Wire Line
	14750 10500 14750 10900
Wire Wire Line
	17200 10900 14000 10900
Wire Wire Line
	13100 10900 13500 10900
Wire Wire Line
	15100 8200 16550 8200
Wire Wire Line
	16550 8200 16550 8000
Wire Wire Line
	16550 8000 17250 8000
Wire Wire Line
	17250 8000 17250 8050
Wire Wire Line
	15600 10850 15600 10900
Connection ~ 15600 10900
Wire Wire Line
	3100 2700 3000 2700
Wire Wire Line
	3100 4100 3000 4100
Wire Wire Line
	6800 2750 6700 2750
Wire Wire Line
	6800 4150 6700 4150
Wire Wire Line
	10500 2800 10400 2800
Wire Wire Line
	10500 4200 10400 4200
$Comp
L DB25 J7
U 1 1 5259CAA9
P 14100 4100
F 0 "J7" H 14150 5450 70  0000 C CNN
F 1 "DB25" H 14050 2750 70  0000 C CNN
F 2 "" H 14100 4100 60  0000 C CNN
F 3 "" H 14100 4100 60  0000 C CNN
	1    14100 4100
	-1   0    0    1   
$EndComp
Wire Wire Line
	14550 2900 14650 2900
Wire Wire Line
	14650 4300 14550 4300
NoConn ~ 14550 4400
NoConn ~ 14550 4500
NoConn ~ 14550 4600
NoConn ~ 14550 4700
NoConn ~ 14550 4800
NoConn ~ 14550 4900
NoConn ~ 14550 5000
NoConn ~ 14550 5100
NoConn ~ 14550 5200
NoConn ~ 14550 5300
$Comp
L DB25 J8
U 1 1 5259E4B3
P 14250 7700
F 0 "J8" H 14300 9050 70  0000 C CNN
F 1 "DB25" H 14200 6350 70  0000 C CNN
F 2 "" H 14250 7700 60  0000 C CNN
F 3 "" H 14250 7700 60  0000 C CNN
	1    14250 7700
	-1   0    0    1   
$EndComp
Wire Wire Line
	14800 6500 14700 6500
Wire Wire Line
	14700 7900 14800 7900
NoConn ~ 14700 8000
NoConn ~ 14700 8100
NoConn ~ 14700 8200
NoConn ~ 14700 8300
NoConn ~ 14700 8400
NoConn ~ 14700 8500
NoConn ~ 14700 8600
NoConn ~ 14700 8700
NoConn ~ 14700 8800
NoConn ~ 14700 8900
$Comp
L DB25 J6
U 1 1 5259FEDA
P 10100 7600
F 0 "J6" H 10150 8950 70  0000 C CNN
F 1 "DB25" H 10050 6250 70  0000 C CNN
F 2 "" H 10100 7600 60  0000 C CNN
F 3 "" H 10100 7600 60  0000 C CNN
	1    10100 7600
	-1   0    0    1   
$EndComp
Wire Wire Line
	10650 6400 10550 6400
Wire Wire Line
	10650 7800 10550 7800
NoConn ~ 10550 7900
NoConn ~ 10550 8000
NoConn ~ 10550 8100
NoConn ~ 10550 8200
NoConn ~ 10550 8300
NoConn ~ 10550 8400
NoConn ~ 10550 8500
NoConn ~ 10550 8600
NoConn ~ 10550 8700
NoConn ~ 10550 8800
$Comp
L DB25 J4
U 1 1 525A1929
P 6400 7550
F 0 "J4" H 6450 8900 70  0000 C CNN
F 1 "DB25" H 6350 6200 70  0000 C CNN
F 2 "" H 6400 7550 60  0000 C CNN
F 3 "" H 6400 7550 60  0000 C CNN
	1    6400 7550
	-1   0    0    1   
$EndComp
$Comp
L DB25 J2
U 1 1 525A192F
P 2700 7500
F 0 "J2" H 2750 8850 70  0000 C CNN
F 1 "DB25" H 2650 6150 70  0000 C CNN
F 2 "" H 2700 7500 60  0000 C CNN
F 3 "" H 2700 7500 60  0000 C CNN
	1    2700 7500
	-1   0    0    1   
$EndComp
Wire Wire Line
	6850 6350 6950 6350
Wire Wire Line
	6950 7750 6850 7750
NoConn ~ 6850 7850
NoConn ~ 6850 7950
NoConn ~ 6850 8050
NoConn ~ 6850 8150
NoConn ~ 6850 8250
NoConn ~ 6850 8350
NoConn ~ 6850 8450
NoConn ~ 6850 8550
NoConn ~ 6850 8650
NoConn ~ 6850 8750
NoConn ~ 3150 7800
NoConn ~ 3150 7900
NoConn ~ 3150 8000
NoConn ~ 3150 8100
NoConn ~ 3150 8200
NoConn ~ 3150 8300
NoConn ~ 3150 8400
NoConn ~ 3150 8500
NoConn ~ 3150 8600
NoConn ~ 3150 8700
Wire Wire Line
	3150 7700 3250 7700
Wire Wire Line
	3250 6300 3150 6300
Text Label 3300 12700 0    60   ~ 0
GND
Text Label 3300 12300 0    60   ~ 0
GND_24
Text Label 3300 11900 0    60   ~ 0
24V
Text Label 3300 11500 0    60   ~ 0
5V
Text Notes 3300 12900 0    60   ~ 0
D2
Text Notes 3300 12500 0    60   ~ 0
D1
Text Notes 3300 12100 0    60   ~ 0
D0
$Comp
L +5V #PWR044
U 1 1 5262A77B
P 3900 11100
F 0 "#PWR044" H 3900 11190 20  0001 C CNN
F 1 "+5V" H 3900 11190 30  0000 C CNN
F 2 "" H 3900 11100 60  0001 C CNN
F 3 "" H 3900 11100 60  0001 C CNN
	1    3900 11100
	1    0    0    -1  
$EndComp
Text Label 3300 11100 0    60   ~ 0
GND_24
$Comp
L R R15
U 1 1 5262A782
P 2950 13100
F 0 "R15" V 3030 13100 50  0000 C CNN
F 1 "100R" V 2950 13100 50  0000 C CNN
F 2 "" H 2950 13100 60  0001 C CNN
F 3 "" H 2950 13100 60  0001 C CNN
	1    2950 13100
	0    -1   -1   0   
$EndComp
Text Notes 1200 10650 0    150  ~ 0
CPU Connector
Text Label 3300 10900 0    60   ~ 0
24V
Text Label 3400 11300 0    60   ~ 0
5V
Text Label 3300 11700 0    60   ~ 0
CPU_RESET
Text Label 3300 13500 0    60   ~ 0
485_A
Text Label 3300 13300 0    60   ~ 0
485_B
Text Label 3300 13700 0    60   ~ 0
GND
Text Label 3300 13100 0    60   ~ 0
GND_485
$Comp
L DB25 J9
U 1 1 5262A79C
P 1550 12800
F 0 "J9" H 1600 14150 70  0000 C CNN
F 1 "DB25" H 1500 11450 70  0000 C CNN
F 2 "" H 1550 12800 60  0000 C CNN
F 3 "" H 1550 12800 60  0000 C CNN
	1    1550 12800
	-1   0    0    1   
$EndComp
NoConn ~ 2000 13100
NoConn ~ 2000 13200
NoConn ~ 2000 13300
NoConn ~ 2000 13400
NoConn ~ 2000 13500
NoConn ~ 2000 13600
NoConn ~ 2000 13700
NoConn ~ 2000 13800
NoConn ~ 2000 13900
NoConn ~ 2000 14000
Wire Wire Line
	3200 13100 3300 13100
Wire Wire Line
	3450 12900 2700 12900
Wire Wire Line
	3300 13700 2100 13700
Wire Wire Line
	2100 13700 2100 13000
Wire Wire Line
	3300 13500 2300 13500
Wire Wire Line
	2300 13500 2300 12900
Wire Wire Line
	2300 12900 2000 12900
Wire Wire Line
	2400 11800 2400 11300
Wire Wire Line
	2000 11800 2400 11800
Wire Wire Line
	2700 13100 2550 13100
Wire Wire Line
	2000 12700 2550 12700
Wire Wire Line
	3300 12700 2850 12700
Wire Wire Line
	2850 12700 2850 12500
Wire Wire Line
	2850 12500 2000 12500
Wire Wire Line
	2000 12300 3300 12300
Wire Wire Line
	3300 11700 2700 11700
Wire Wire Line
	2700 11700 2700 12000
Wire Wire Line
	2700 12000 2000 12000
Wire Wire Line
	2000 11900 2550 11900
Wire Wire Line
	2550 11900 2550 11500
Wire Wire Line
	2550 11500 3300 11500
Wire Wire Line
	2000 12100 2850 12100
Wire Wire Line
	2850 12100 2850 11900
Wire Wire Line
	2850 11900 3300 11900
Wire Wire Line
	2000 12200 2950 12200
Wire Wire Line
	2950 12200 2950 12100
Wire Wire Line
	2000 12400 2950 12400
Wire Wire Line
	2950 12400 2950 12500
Wire Wire Line
	2000 12600 2700 12600
Wire Wire Line
	2700 12600 2700 12900
Wire Wire Line
	2000 12800 2400 12800
Wire Wire Line
	2400 12800 2400 13300
Wire Wire Line
	2400 13300 3300 13300
Wire Wire Line
	2000 11700 2300 11700
Wire Wire Line
	2300 11700 2300 11100
Wire Wire Line
	2300 11100 3300 11100
Wire Wire Line
	2100 11600 2100 10900
Wire Wire Line
	2100 10900 3300 10900
Wire Wire Line
	2400 11300 3900 11300
Wire Wire Line
	2950 12100 3500 12100
Wire Wire Line
	3900 11300 3900 11100
Wire Wire Line
	2550 12700 2550 13100
Wire Wire Line
	2100 11600 2000 11600
Wire Wire Line
	2100 13000 2000 13000
NoConn ~ 3500 12100
NoConn ~ 3500 12500
NoConn ~ 3450 12900
Wire Wire Line
	2950 12500 3500 12500
$EndSCHEMATC
