EESchema Schematic File Version 2
LIBS:PLC_Complete-rescue
LIBS:arduino_shields
LIBS:conn_Felix
LIBS:device_Felix
LIBS:IC_Felix
LIBS:Potentiometers_Felix
LIBS:Relays_Felix
LIBS:power
LIBS:transistors
LIBS:linear
LIBS:regul
LIBS:74xx
LIBS:cmos4000
LIBS:adc-dac
LIBS:memory
LIBS:xilinx
LIBS:microcontrollers
LIBS:dsp
LIBS:microchip
LIBS:analog_switches
LIBS:motorola
LIBS:texas
LIBS:intel
LIBS:audio
LIBS:interface
LIBS:digital-audio
LIBS:philips
LIBS:display
LIBS:cypress
LIBS:siliconi
LIBS:opto
LIBS:atmel
LIBS:contrib
LIBS:valves
LIBS:PLC_Complete-cache
EELAYER 25 0
EELAYER END
$Descr A2 23386 16535
encoding utf-8
Sheet 1 1
Title "CPU Board - OpenPLC"
Date "18 jun 2014"
Rev "1"
Comp ""
Comment1 ""
Comment2 ""
Comment3 ""
Comment4 ""
$EndDescr
$Comp
L PWR_FLAG #FLG01
U 1 1 52423DB1
P 21050 9450
F 0 "#FLG01" H 21050 9545 30  0001 C CNN
F 1 "PWR_FLAG" H 21050 9630 30  0000 C CNN
F 2 "" H 21050 9450 60  0001 C CNN
F 3 "" H 21050 9450 60  0001 C CNN
	1    21050 9450
	1    0    0    -1  
$EndComp
Text Label 19550 4500 0    60   ~ 0
GND_485
Text Label 19600 3900 0    60   ~ 0
GND_485
Text Label 19150 3600 0    60   ~ 0
GND_485
$Comp
L +5V #PWR02
U 1 1 523B7B4D
P 19600 3100
F 0 "#PWR02" H 19600 3190 20  0001 C CNN
F 1 "+5V" H 19600 3190 30  0000 C CNN
F 2 "" H 19600 3100 60  0001 C CNN
F 3 "" H 19600 3100 60  0001 C CNN
	1    19600 3100
	1    0    0    -1  
$EndComp
$Comp
L GND #PWR03
U 1 1 523B7B38
P 18900 4925
F 0 "#PWR03" H 18900 4925 30  0001 C CNN
F 1 "GND" H 18900 4855 30  0001 C CNN
F 2 "" H 18900 4925 60  0001 C CNN
F 3 "" H 18900 4925 60  0001 C CNN
	1    18900 4925
	1    0    0    -1  
$EndComp
$Comp
L GND #PWR04
U 1 1 523B7ACC
P 11550 4350
F 0 "#PWR04" H 11550 4350 30  0001 C CNN
F 1 "GND" H 11550 4280 30  0001 C CNN
F 2 "" H 11550 4350 60  0001 C CNN
F 3 "" H 11550 4350 60  0001 C CNN
	1    11550 4350
	1    0    0    -1  
$EndComp
$Comp
L GND #PWR05
U 1 1 523B7AC9
P 11100 4350
F 0 "#PWR05" H 11100 4350 30  0001 C CNN
F 1 "GND" H 11100 4280 30  0001 C CNN
F 2 "" H 11100 4350 60  0001 C CNN
F 3 "" H 11100 4350 60  0001 C CNN
	1    11100 4350
	1    0    0    -1  
$EndComp
$Comp
L +5V #PWR06
U 1 1 523B7AC6
P 11100 3850
F 0 "#PWR06" H 11100 3940 20  0001 C CNN
F 1 "+5V" H 11100 3940 30  0000 C CNN
F 2 "" H 11100 3850 60  0001 C CNN
F 3 "" H 11100 3850 60  0001 C CNN
	1    11100 3850
	1    0    0    -1  
$EndComp
$Comp
L +5V #PWR07
U 1 1 523B7AC3
P 11550 3850
F 0 "#PWR07" H 11550 3940 20  0001 C CNN
F 1 "+5V" H 11550 3940 30  0000 C CNN
F 2 "" H 11550 3850 60  0001 C CNN
F 3 "" H 11550 3850 60  0001 C CNN
	1    11550 3850
	1    0    0    -1  
$EndComp
NoConn ~ 15850 8300
NoConn ~ 15850 8200
NoConn ~ 2150 12350
Text Label 2400 11700 0    60   ~ 0
3V3A
Text Notes 1800 10300 0    300  ~ 0
RJ45 Connections
Text Label 4500 13150 0    60   ~ 0
LINKLED
Text Label 4500 12975 0    60   ~ 0
SPDLED
$Comp
L +3.3V #PWR08
U 1 1 5227EEEA
P 2650 12750
F 0 "#PWR08" H 2650 12710 30  0001 C CNN
F 1 "+3.3V" H 2650 12860 30  0000 C CNN
F 2 "" H 2650 12750 60  0001 C CNN
F 3 "" H 2650 12750 60  0001 C CNN
	1    2650 12750
	1    0    0    -1  
$EndComp
$Comp
L GND #PWR09
U 1 1 5227EEA1
P 1925 13450
F 0 "#PWR09" H 1925 13450 30  0001 C CNN
F 1 "GND" H 1925 13380 30  0001 C CNN
F 2 "" H 1925 13450 60  0001 C CNN
F 3 "" H 1925 13450 60  0001 C CNN
	1    1925 13450
	1    0    0    -1  
$EndComp
$Comp
L INDUCTOR L4
U 1 1 5227EE56
P 2250 13400
F 0 "L4" H 2250 13570 40  0000 C CNN
F 1 "BLM21PG300 - 250mA 1uH" H 2250 13492 40  0000 C CNN
F 2 "Capacitors_SMD:C_0805_HandSoldering" H 2250 13400 60  0001 C CNN
F 3 "" H 2250 13400 60  0001 C CNN
	1    2250 13400
	1    0    0    -1  
$EndComp
$Comp
L GND #PWR010
U 1 1 5227EE34
P 2550 12500
F 0 "#PWR010" H 2550 12500 30  0001 C CNN
F 1 "GND" H 2550 12430 30  0001 C CNN
F 2 "" H 2550 12500 60  0001 C CNN
F 3 "" H 2550 12500 60  0001 C CNN
	1    2550 12500
	1    0    0    -1  
$EndComp
Text Label 4500 12775 0    60   ~ 0
RXIN
Text Label 4500 12250 0    60   ~ 0
RXIP
$Comp
L GND #PWR011
U 1 1 5227ECFD
P 3450 12650
F 0 "#PWR011" H 3450 12650 30  0001 C CNN
F 1 "GND" H 3450 12580 30  0001 C CNN
F 2 "" H 3450 12650 60  0001 C CNN
F 3 "" H 3450 12650 60  0001 C CNN
	1    3450 12650
	1    0    0    -1  
$EndComp
Text Label 4500 11950 0    60   ~ 0
TXON
$Comp
L GND #PWR012
U 1 1 5227DFED
P 3650 11650
F 0 "#PWR012" H 3650 11650 30  0001 C CNN
F 1 "GND" H 3650 11580 30  0001 C CNN
F 2 "" H 3650 11650 60  0001 C CNN
F 3 "" H 3650 11650 60  0001 C CNN
	1    3650 11650
	1    0    0    -1  
$EndComp
Text Label 4500 10800 0    60   ~ 0
TXOP
$Comp
L GND #PWR013
U 1 1 5227DF36
P 2500 11400
F 0 "#PWR013" H 2500 11400 30  0001 C CNN
F 1 "GND" H 2500 11330 30  0001 C CNN
F 2 "" H 2500 11400 60  0001 C CNN
F 3 "" H 2500 11400 60  0001 C CNN
	1    2500 11400
	1    0    0    -1  
$EndComp
Text Notes 19200 8250 0    60   ~ 0
for the digital
Text Label 16100 9700 0    60   ~ 0
INT
$Comp
L GND #PWR014
U 1 1 5227AF94
P 11250 11100
F 0 "#PWR014" H 11250 11100 30  0001 C CNN
F 1 "GND" H 11250 11030 30  0001 C CNN
F 2 "" H 11250 11100 60  0001 C CNN
F 3 "" H 11250 11100 60  0001 C CNN
	1    11250 11100
	1    0    0    -1  
$EndComp
$Comp
L +3.3V #PWR015
U 1 1 5227AF89
P 11250 10650
F 0 "#PWR015" H 11250 10610 30  0001 C CNN
F 1 "+3.3V" H 11250 10760 30  0000 C CNN
F 2 "" H 11250 10650 60  0001 C CNN
F 3 "" H 11250 10650 60  0001 C CNN
	1    11250 10650
	1    0    0    -1  
$EndComp
$Comp
L GND #PWR016
U 1 1 5227AF45
P 11700 11250
F 0 "#PWR016" H 11700 11250 30  0001 C CNN
F 1 "GND" H 11700 11180 30  0001 C CNN
F 2 "" H 11700 11250 60  0001 C CNN
F 3 "" H 11700 11250 60  0001 C CNN
	1    11700 11250
	1    0    0    -1  
$EndComp
Text Label 5775 4400 0    60   ~ 0
SS
Text Notes 14625 12075 0    60   ~ 0
Wiznet Reset
Text Notes 19850 6800 0    60   ~ 0
3V3 Regulator
Text Notes 13300 5900 0    300  ~ 0
Wiznet Circuitry
Text Notes 17100 2000 0    300  ~ 0
RS-485 Circuitry and \nProtections
Text Notes 11350 1700 0    300  ~ 0
USB Circuitry
Text Notes 5750 1600 0    300  ~ 0
CPU stuff
Text Notes 12500 2150 0    60   ~ 0
FTDI 232RL
Text Notes 7750 4200 0    60   ~ 0
ICSP Programming
$Comp
L Wiznet_W5100 U3
U 1 1 521E8A63
P 14900 9350
F 0 "U3" H 14950 9350 70  0000 C CNN
F 1 "WIZNET_W5100" H 14900 9100 70  0000 C CNN
F 2 "" H 14900 9350 60  0001 C CNN
F 3 "" H 14900 9350 60  0001 C CNN
	1    14900 9350
	1    0    0    -1  
$EndComp
$Comp
L GND #PWR017
U 1 1 521E8A60
P 13200 7150
F 0 "#PWR017" H 13200 7150 30  0001 C CNN
F 1 "GND" H 13200 7080 30  0001 C CNN
F 2 "" H 13200 7150 60  0001 C CNN
F 3 "" H 13200 7150 60  0001 C CNN
	1    13200 7150
	1    0    0    -1  
$EndComp
Text Label 13550 7400 0    60   ~ 0
3V3A
NoConn ~ 13950 7500
$Comp
L GND #PWR018
U 1 1 521E8A5F
P 13800 11400
F 0 "#PWR018" H 13800 11400 30  0001 C CNN
F 1 "GND" H 13800 11330 30  0001 C CNN
F 2 "" H 13800 11400 60  0001 C CNN
F 3 "" H 13800 11400 60  0001 C CNN
	1    13800 11400
	1    0    0    -1  
$EndComp
Text Label 13550 7700 0    60   ~ 0
RXIP
Text Label 13550 7800 0    60   ~ 0
RXIN
$Comp
L INDUCTOR L2
U 1 1 521E8A5E
P 12775 8700
F 0 "L2" V 12725 8700 40  0000 C CNN
F 1 "BLM21PG300" V 12875 8700 40  0000 C CNN
F 2 "Capacitors_SMD:C_0805_HandSoldering" H 12775 8700 60  0001 C CNN
F 3 "" H 12775 8700 60  0001 C CNN
	1    12775 8700
	1    0    0    -1  
$EndComp
Text Label 13550 8000 0    60   ~ 0
TXOP
Text Label 13550 8100 0    60   ~ 0
TXON
$Comp
L +3.3V #PWR019
U 1 1 521E8A5D
P 13300 8200
F 0 "#PWR019" H 13300 8160 30  0001 C CNN
F 1 "+3.3V" H 13300 8310 30  0000 C CNN
F 2 "" H 13300 8200 60  0001 C CNN
F 3 "" H 13300 8200 60  0001 C CNN
	1    13300 8200
	1    0    0    -1  
$EndComp
Text Label 13550 9900 0    60   ~ 0
MISO
Text Label 13550 10000 0    60   ~ 0
MOSI
Text Label 13550 10100 0    60   ~ 0
SS
Text Label 13550 10200 0    60   ~ 0
SCK
NoConn ~ 15850 7300
NoConn ~ 15850 7400
NoConn ~ 15850 7500
$Comp
L +3.3V #PWR020
U 1 1 521E8A5A
P 16300 10800
F 0 "#PWR020" H 16300 10760 30  0001 C CNN
F 1 "+3.3V" H 16300 10910 30  0000 C CNN
F 2 "" H 16300 10800 60  0001 C CNN
F 3 "" H 16300 10800 60  0001 C CNN
	1    16300 10800
	1    0    0    -1  
$EndComp
$Comp
L Crystal X1
U 1 1 521E8A59
P 17300 7700
F 0 "X1" H 17300 7850 60  0000 C CNN
F 1 "25MHz" H 17300 7550 60  0000 C CNN
F 2 "" H 17300 7700 60  0001 C CNN
F 3 "" H 17300 7700 60  0001 C CNN
	1    17300 7700
	0    -1   -1   0   
$EndComp
$Comp
L C_SMD0805 C18
U 1 1 521E8A58
P 17950 7500
F 0 "C18" H 18000 7600 50  0000 L CNN
F 1 "22pF" H 18000 7400 50  0000 L CNN
F 2 "Capacitors_SMD:C_0805_HandSoldering" H 17950 7500 60  0001 C CNN
F 3 "" H 17950 7500 60  0001 C CNN
	1    17950 7500
	0    -1   -1   0   
$EndComp
$Comp
L GND #PWR021
U 1 1 521E8A55
P 18350 7750
F 0 "#PWR021" H 18350 7750 30  0001 C CNN
F 1 "GND" H 18350 7680 30  0001 C CNN
F 2 "" H 18350 7750 60  0001 C CNN
F 3 "" H 18350 7750 60  0001 C CNN
	1    18350 7750
	1    0    0    -1  
$EndComp
$Comp
L Led D5
U 1 1 521E8A54
P 17300 8250
F 0 "D5" H 17300 8350 50  0000 C CNN
F 1 "TX" H 17300 8150 50  0000 C CNN
F 2 "LEDs:LED-1206" H 17300 8250 60  0001 C CNN
F 3 "" H 17300 8250 60  0001 C CNN
	1    17300 8250
	-1   0    0    1   
$EndComp
$Comp
L +3.3V #PWR022
U 1 1 521E8A50
P 17900 8100
F 0 "#PWR022" H 17900 8060 30  0001 C CNN
F 1 "+3.3V" H 17900 8210 30  0000 C CNN
F 2 "" H 17900 8100 60  0001 C CNN
F 3 "" H 17900 8100 60  0001 C CNN
	1    17900 8100
	1    0    0    -1  
$EndComp
Text Label 17350 8800 2    60   ~ 0
SPDLED
Text Label 17300 9100 2    60   ~ 0
LINKLED
$Comp
L +3.3V #PWR023
U 1 1 521E8A4B
P 17900 8800
F 0 "#PWR023" H 17900 8760 30  0001 C CNN
F 1 "+3.3V" H 17900 8910 30  0000 C CNN
F 2 "" H 17900 8800 60  0001 C CNN
F 3 "" H 17900 8800 60  0001 C CNN
	1    17900 8800
	1    0    0    -1  
$EndComp
NoConn ~ 15850 9100
NoConn ~ 15850 9200
NoConn ~ 15850 9300
Text Label 16500 9400 2    60   ~ 0
RESET_W
$Comp
L +3.3V #PWR024
U 1 1 521E8A49
P 16550 9600
F 0 "#PWR024" H 16550 9560 30  0001 C CNN
F 1 "+3.3V" H 16550 9710 30  0000 C CNN
F 2 "" H 16550 9600 60  0001 C CNN
F 3 "" H 16550 9600 60  0001 C CNN
	1    16550 9600
	1    0    0    -1  
$EndComp
$Comp
L GND #PWR025
U 1 1 521E8A48
P 16050 11400
F 0 "#PWR025" H 16050 11400 30  0001 C CNN
F 1 "GND" H 16050 11330 30  0001 C CNN
F 2 "" H 16050 11400 60  0001 C CNN
F 3 "" H 16050 11400 60  0001 C CNN
	1    16050 11400
	1    0    0    -1  
$EndComp
$Comp
L +5V #PWR026
U 1 1 521E8A46
P 19250 7150
F 0 "#PWR026" H 19250 7240 20  0001 C CNN
F 1 "+5V" H 19250 7240 30  0000 C CNN
F 2 "" H 19250 7150 60  0001 C CNN
F 3 "" H 19250 7150 60  0001 C CNN
	1    19250 7150
	1    0    0    -1  
$EndComp
$Comp
L GND #PWR027
U 1 1 521E8A45
P 20200 7900
F 0 "#PWR027" H 20200 7900 30  0001 C CNN
F 1 "GND" H 20200 7830 30  0001 C CNN
F 2 "" H 20200 7900 60  0001 C CNN
F 3 "" H 20200 7900 60  0001 C CNN
	1    20200 7900
	1    0    0    -1  
$EndComp
$Comp
L +3.3V #PWR028
U 1 1 521E8A44
P 21200 7150
F 0 "#PWR028" H 21200 7110 30  0001 C CNN
F 1 "+3.3V" H 21200 7260 30  0000 C CNN
F 2 "" H 21200 7150 60  0001 C CNN
F 3 "" H 21200 7150 60  0001 C CNN
	1    21200 7150
	1    0    0    -1  
$EndComp
$Comp
L +3.3V #PWR029
U 1 1 521E8A41
P 19100 8600
F 0 "#PWR029" H 19100 8560 30  0001 C CNN
F 1 "+3.3V" H 19100 8710 30  0000 C CNN
F 2 "" H 19100 8600 60  0001 C CNN
F 3 "" H 19100 8600 60  0001 C CNN
	1    19100 8600
	1    0    0    -1  
$EndComp
$Comp
L INDUCTOR L3
U 1 1 521E8A38
P 20250 8700
F 0 "L3" V 20200 8700 40  0000 C CNN
F 1 "BLM21PG300" V 20350 8700 40  0000 C CNN
F 2 "Capacitors_SMD:C_0805_HandSoldering" H 20250 8700 60  0001 C CNN
F 3 "" H 20250 8700 60  0001 C CNN
	1    20250 8700
	1    0    0    -1  
$EndComp
Text Label 21700 8550 2    60   ~ 0
3V3A
$Comp
L GND #PWR030
U 1 1 521E8A37
P 19800 9300
F 0 "#PWR030" H 19800 9300 30  0001 C CNN
F 1 "GND" H 19800 9230 30  0001 C CNN
F 2 "" H 19800 9300 60  0001 C CNN
F 3 "" H 19800 9300 60  0001 C CNN
	1    19800 9300
	1    0    0    -1  
$EndComp
$Comp
L 74AHC1G14 U4
U 1 1 521E8A26
P 12250 10900
F 0 "U4" H 12445 11015 60  0000 C CNN
F 1 "74LVC1G14DBV" H 12550 10750 60  0000 C CNN
F 2 "" H 12250 10900 60  0001 C CNN
F 3 "" H 12250 10900 60  0001 C CNN
	1    12250 10900
	1    0    0    -1  
$EndComp
$Comp
L +3.3V #PWR031
U 1 1 521E8A25
P 12200 10600
F 0 "#PWR031" H 12200 10560 30  0001 C CNN
F 1 "+3.3V" H 12200 10710 30  0000 C CNN
F 2 "" H 12200 10600 60  0001 C CNN
F 3 "" H 12200 10600 60  0001 C CNN
	1    12200 10600
	1    0    0    -1  
$EndComp
$Comp
L GND #PWR032
U 1 1 521E8A24
P 12200 11250
F 0 "#PWR032" H 12200 11250 30  0001 C CNN
F 1 "GND" H 12200 11180 30  0001 C CNN
F 2 "" H 12200 11250 60  0001 C CNN
F 3 "" H 12200 11250 60  0001 C CNN
	1    12200 11250
	1    0    0    -1  
$EndComp
Text Label 11550 10900 0    60   ~ 0
SS
$Comp
L GNDA #PWR033
U 1 1 521E8A22
P 20700 9300
F 0 "#PWR033" H 20700 9300 40  0001 C CNN
F 1 "GNDA" H 20700 9230 40  0000 C CNN
F 2 "" H 20700 9300 60  0001 C CNN
F 3 "" H 20700 9300 60  0001 C CNN
	1    20700 9300
	1    0    0    -1  
$EndComp
$Comp
L GNDA #PWR034
U 1 1 521E8A20
P 13550 8500
F 0 "#PWR034" H 13550 8500 40  0001 C CNN
F 1 "GNDA" H 13550 8430 40  0000 C CNN
F 2 "" H 13550 8500 60  0001 C CNN
F 3 "" H 13550 8500 60  0001 C CNN
	1    13550 8500
	1    0    0    -1  
$EndComp
$Comp
L GNDA #PWR035
U 1 1 521E8A1F
P 16350 7600
F 0 "#PWR035" H 16350 7600 40  0001 C CNN
F 1 "GNDA" H 16350 7530 40  0000 C CNN
F 2 "" H 16350 7600 60  0001 C CNN
F 3 "" H 16350 7600 60  0001 C CNN
	1    16350 7600
	1    0    0    -1  
$EndComp
Text Notes 19200 8150 0    60   ~ 0
Filter caps
Text Notes 19200 8350 0    60   ~ 0
W5100 power
Text Notes 20750 8250 0    60   ~ 0
Filter caps
Text Notes 20750 8350 0    60   ~ 0
for the analog
Text Notes 20750 8450 0    60   ~ 0
W5100 power\n
$Comp
L CAT811 U5
U 1 1 521E8A1E
P 14900 12750
F 0 "U5" H 14725 12950 60  0000 C CNN
F 1 "CAT811TTBI-CT3" H 15000 12525 60  0000 C CNN
F 2 "" H 14900 12750 60  0001 C CNN
F 3 "" H 14900 12750 60  0001 C CNN
	1    14900 12750
	1    0    0    -1  
$EndComp
$Comp
L +5V #PWR036
U 1 1 521E8A1D
P 15450 12425
F 0 "#PWR036" H 15450 12515 20  0001 C CNN
F 1 "+5V" H 15450 12515 30  0000 C CNN
F 2 "" H 15450 12425 60  0001 C CNN
F 3 "" H 15450 12425 60  0001 C CNN
	1    15450 12425
	1    0    0    -1  
$EndComp
$Comp
L GND #PWR037
U 1 1 521E8A1C
P 14150 12700
F 0 "#PWR037" H 14150 12700 30  0001 C CNN
F 1 "GND" H 14150 12630 30  0001 C CNN
F 2 "" H 14150 12700 60  0001 C CNN
F 3 "" H 14150 12700 60  0001 C CNN
	1    14150 12700
	1    0    0    -1  
$EndComp
Text Label 13875 12825 0    60   ~ 0
RESET_W
Text Label 15900 12825 2    60   ~ 0
CPU_RESET
Text Label 5775 4300 0    60   ~ 0
MISO
Text Label 5775 4200 0    60   ~ 0
MOSI
Text Label 5775 4100 0    60   ~ 0
SCK
$Comp
L GND #PWR040
U 1 1 521E86CB
P 8750 4850
F 0 "#PWR040" H 8750 4850 30  0001 C CNN
F 1 "GND" H 8750 4780 30  0001 C CNN
F 2 "" H 8750 4850 60  0001 C CNN
F 3 "" H 8750 4850 60  0001 C CNN
	1    8750 4850
	1    0    0    -1  
$EndComp
Text Label 8900 4700 0    60   ~ 0
MOSI
$Comp
L +5V #PWR041
U 1 1 521E86B4
P 8750 4500
F 0 "#PWR041" H 8750 4590 20  0001 C CNN
F 1 "+5V" H 8750 4590 30  0000 C CNN
F 2 "" H 8750 4500 60  0001 C CNN
F 3 "" H 8750 4500 60  0001 C CNN
	1    8750 4500
	1    0    0    -1  
$EndComp
Text Label 7200 4850 0    60   ~ 0
CPU_RESET
Text Label 7200 4700 0    60   ~ 0
SCK
Text Label 7200 4550 0    60   ~ 0
MISO
$Comp
L CONN_3X2 P1
U 1 1 521E8684
P 8200 4750
F 0 "P1" H 8200 5000 50  0000 C CNN
F 1 "ICSP" V 8200 4800 40  0000 C CNN
F 2 "Pin_Headers:Pin_Header_Straight_2x06" H 8200 4750 60  0001 C CNN
F 3 "" H 8200 4750 60  0001 C CNN
	1    8200 4750
	1    0    0    -1  
$EndComp
Text Label 20800 4200 0    60   ~ 0
485_B
Text Label 20800 3700 0    60   ~ 0
485_A
$Comp
L D_Schottky D3
U 1 1 521E81E7
P 20100 3800
F 0 "D3" H 20100 3900 40  0000 C CNN
F 1 "Transorb" H 20100 3700 40  0000 C CNN
F 2 "" H 20100 3800 60  0001 C CNN
F 3 "" H 20100 3800 60  0001 C CNN
	1    20100 3800
	0    -1   -1   0   
$EndComp
Text Label 5775 6100 0    60   ~ 0
S1_485_TX
Text Label 5775 6000 0    60   ~ 0
S1_485_RX
Text Label 5775 6200 0    60   ~ 0
TX_EN
Text Label 18350 4525 0    60   ~ 0
GND_485
$Comp
L +5V #PWR042
U 1 1 521E7F6C
P 18900 3600
F 0 "#PWR042" H 18900 3690 20  0001 C CNN
F 1 "+5V" H 18900 3690 30  0000 C CNN
F 2 "" H 18900 3600 60  0001 C CNN
F 3 "" H 18900 3600 60  0001 C CNN
	1    18900 3600
	1    0    0    -1  
$EndComp
Text Label 17300 3900 0    60   ~ 0
TX_EN
Text Label 2425 3100 0    60   ~ 0
CPU_RESET
$Comp
L GND #PWR043
U 1 1 521E7CC1
P 11500 3250
F 0 "#PWR043" H 11500 3250 30  0001 C CNN
F 1 "GND" H 11500 3180 30  0001 C CNN
F 2 "" H 11500 3250 60  0001 C CNN
F 3 "" H 11500 3250 60  0001 C CNN
	1    11500 3250
	1    0    0    -1  
$EndComp
NoConn ~ 11350 2850
$Comp
L USB_2 J1
U 1 1 521E7C97
P 11150 3000
F 0 "J1" H 11075 3250 60  0000 C CNN
F 1 "USB_2" H 11200 2700 60  0001 C CNN
F 2 "" H 11150 3000 60  0001 C CNN
F 3 "" H 11150 3000 60  0001 C CNN
F 4 "VCC" H 11475 3150 50  0001 C CNN "VCC"
F 5 "D+" H 11450 3050 50  0001 C CNN "Data+"
F 6 "D-" H 11450 2950 50  0001 C CNN "Data-"
F 7 "GND" H 11475 2850 50  0001 C CNN "Ground"
	1    11150 3000
	1    0    0    -1  
$EndComp
$Comp
L +5V #PWR044
U 1 1 521E7C65
P 14800 3350
F 0 "#PWR044" H 14800 3440 20  0001 C CNN
F 1 "+5V" H 14800 3440 30  0000 C CNN
F 2 "" H 14800 3350 60  0001 C CNN
F 3 "" H 14800 3350 60  0001 C CNN
	1    14800 3350
	1    0    0    -1  
$EndComp
$Comp
L R_SMD0805 R3
U 1 1 521E7C44
P 14350 3650
F 0 "R3" V 14547 3650 50  0000 C CNN
F 1 "500R" V 14455 3650 50  0000 C CNN
F 2 "Resistors_SMD:R_0805_HandSoldering" H 14350 3650 60  0001 C CNN
F 3 "" H 14350 3650 60  0001 C CNN
	1    14350 3650
	0    -1   -1   0   
$EndComp
$Comp
L Led D1
U 1 1 521E7C03
P 14050 3350
F 0 "D1" H 14050 3450 50  0000 C CNN
F 1 "RX_Led" H 14050 3250 50  0000 C CNN
F 2 "LEDs:LED-1206" H 14050 3350 60  0001 C CNN
F 3 "" H 14050 3350 60  0001 C CNN
	1    14050 3350
	-1   0    0    1   
$EndComp
Text Label 14250 3050 0    60   ~ 0
CPU_RESET
NoConn ~ 13650 3750
NoConn ~ 13650 3850
NoConn ~ 13650 3650
NoConn ~ 13650 3350
NoConn ~ 13650 3250
NoConn ~ 13650 3150
NoConn ~ 13650 2950
NoConn ~ 13650 2850
Text Label 13800 2750 0    60   ~ 0
USB_TX
Text Label 13800 2650 0    60   ~ 0
USB_RX
$Comp
L GND #PWR045
U 1 1 521E7ADB
P 12750 4850
F 0 "#PWR045" H 12750 4850 30  0001 C CNN
F 1 "GND" H 12750 4780 30  0001 C CNN
F 2 "" H 12750 4850 60  0001 C CNN
F 3 "" H 12750 4850 60  0001 C CNN
	1    12750 4850
	1    0    0    -1  
$EndComp
NoConn ~ 11800 3850
NoConn ~ 11800 3650
NoConn ~ 11800 3550
$Comp
L +5V #PWR046
U 1 1 521E7AB6
P 11700 3200
F 0 "#PWR046" H 11700 3290 20  0001 C CNN
F 1 "+5V" H 11700 3290 30  0000 C CNN
F 2 "" H 11700 3200 60  0001 C CNN
F 3 "" H 11700 3200 60  0001 C CNN
	1    11700 3200
	1    0    0    -1  
$EndComp
$Comp
L +5V #PWR047
U 1 1 521E7A79
P 11700 2500
F 0 "#PWR047" H 11700 2590 20  0001 C CNN
F 1 "+5V" H 11700 2590 30  0000 C CNN
F 2 "" H 11700 2500 60  0001 C CNN
F 3 "" H 11700 2500 60  0001 C CNN
	1    11700 2500
	1    0    0    -1  
$EndComp
$Comp
L FT232RL U1
U 1 1 521E7A0E
P 12750 3350
F 0 "U1" H 12750 4250 60  0000 C CNN
F 1 "FT232RL" H 13150 2350 60  0000 L CNN
F 2 "" H 12750 3350 60  0001 C CNN
F 3 "" H 12750 3350 60  0001 C CNN
	1    12750 3350
	1    0    0    -1  
$EndComp
Text Label 5875 6800 0    60   ~ 0
USB_TX
Text Label 5875 6700 0    60   ~ 0
USB_RX
$Comp
L MAX485 U2
U 1 1 56B2679A
P 18450 3950
F 0 "U2" H 18150 4300 40  0000 L CNN
F 1 "MAX485" H 18400 4300 40  0000 L CNN
F 2 "" H 18450 3950 35  0001 C CIN
F 3 "" H 18450 3950 60  0000 C CNN
	1    18450 3950
	1    0    0    -1  
$EndComp
$Comp
L GND #PWR048
U 1 1 56B44887
P 4525 8800
F 0 "#PWR048" H 4525 8800 30  0001 C CNN
F 1 "GND" H 4525 8730 30  0001 C CNN
F 2 "" H 4525 8800 60  0000 C CNN
F 3 "" H 4525 8800 60  0000 C CNN
	1    4525 8800
	1    0    0    -1  
$EndComp
$Comp
L +5V #PWR049
U 1 1 56B4488D
P 2250 1525
F 0 "#PWR049" H 2250 1615 20  0001 C CNN
F 1 "+5V" H 2250 1615 30  0000 C CNN
F 2 "" H 2250 1525 60  0000 C CNN
F 3 "" H 2250 1525 60  0000 C CNN
	1    2250 1525
	1    0    0    -1  
$EndComp
$Comp
L GND #PWR050
U 1 1 56B448A8
P 3700 2475
F 0 "#PWR050" H 3700 2475 30  0001 C CNN
F 1 "GND" H 3700 2405 30  0001 C CNN
F 2 "" H 3700 2475 60  0000 C CNN
F 3 "" H 3700 2475 60  0000 C CNN
	1    3700 2475
	1    0    0    -1  
$EndComp
$Comp
L GND #PWR051
U 1 1 56B448C4
P 1875 3850
F 0 "#PWR051" H 1875 3850 30  0001 C CNN
F 1 "GND" H 1875 3780 30  0001 C CNN
F 2 "" H 1875 3850 60  0000 C CNN
F 3 "" H 1875 3850 60  0000 C CNN
	1    1875 3850
	1    0    0    -1  
$EndComp
Text Label 5725 7600 2    60   ~ 0
A0
Text Label 2675 5600 0    60   ~ 0
A15
Text Label 2675 5500 0    60   ~ 0
A14
Text Label 2675 5400 0    60   ~ 0
A13
Text Label 2675 5300 0    60   ~ 0
A12
Text Label 2675 5200 0    60   ~ 0
A11
Text Label 2675 5100 0    60   ~ 0
A10
Text Label 2675 5000 0    60   ~ 0
A9
Text Label 2675 4900 0    60   ~ 0
A8
Text Label 2675 4700 0    60   ~ 0
D42
Text Label 2675 4600 0    60   ~ 0
D43
Text Label 2675 4500 0    60   ~ 0
D44
Text Label 2675 4400 0    60   ~ 0
D45
Text Label 2675 6300 0    60   ~ 0
D73
Text Label 5775 6500 2    60   ~ 0
D38
Text Label 2675 7700 0    60   ~ 0
D40
Text Label 2675 8100 0    60   ~ 0
PWM4
$Comp
L CP C2
U 1 1 56B44905
P 3050 1750
F 0 "C2" H 3100 1850 40  0000 L CNN
F 1 "220u" H 3100 1650 40  0000 L CNN
F 2 "Capacitors_Elko_ThroughHole:Elko_vert_DM8_RM3-5" H 3150 1600 30  0001 C CNN
F 3 "" H 3050 1750 300 0000 C CNN
	1    3050 1750
	1    0    0    -1  
$EndComp
$Comp
L GND #PWR052
U 1 1 56B4490C
P 3050 2000
F 0 "#PWR052" H 3050 2000 30  0001 C CNN
F 1 "GND" H 3050 1930 30  0001 C CNN
F 2 "" H 3050 2000 60  0000 C CNN
F 3 "" H 3050 2000 60  0000 C CNN
	1    3050 2000
	1    0    0    -1  
$EndComp
$Comp
L ATMEGA2560-A-ArduPins IC1
U 1 1 56B44912
P 4225 5700
F 0 "IC1" H 3125 8450 50  0000 L BNN
F 1 "ATMEGA2560-A-ArduPins" H 4725 2900 50  0000 L BNN
F 2 "SMD_Packages:TQFP_100" H 3275 2950 50  0001 C CNN
F 3 "" H 4225 5700 60  0000 C CNN
	1    4225 5700
	1    0    0    -1  
$EndComp
Text Label 2675 6400 0    60   ~ 0
D74
Text Label 2675 6500 0    60   ~ 0
D75
Text Label 2675 7600 0    60   ~ 0
D41
Text Label 2675 7800 0    60   ~ 0
D39
Text Label 2675 7900 0    60   ~ 0
D78
Text Label 2675 8000 0    60   ~ 0
D79
Text Label 5775 7200 2    60   ~ 0
PWM3
Text Label 5775 7000 2    60   ~ 0
PWM5
Text Label 5775 7300 2    60   ~ 0
D81
Text Label 5775 7400 2    60   ~ 0
D82
Text Label 5725 7700 2    60   ~ 0
A1
Text Label 5725 7800 2    60   ~ 0
A2
Text Label 5725 7900 2    60   ~ 0
A3
Text Label 5725 8000 2    60   ~ 0
A4
Text Label 5725 8100 2    60   ~ 0
A5
Text Label 5725 8200 2    60   ~ 0
A6
Text Label 5725 8300 2    60   ~ 0
A7
Text Label 5775 4900 2    60   ~ 0
D37
Text Label 5775 5000 2    60   ~ 0
D36
Text Label 5775 5100 2    60   ~ 0
D35
Text Label 5775 5200 2    60   ~ 0
D34
Text Label 5775 5300 2    60   ~ 0
D33
Text Label 5775 5400 2    60   ~ 0
D32
Text Label 5775 5500 2    60   ~ 0
D31
Text Label 5775 5600 2    60   ~ 0
D30
Text Label 2675 7400 0    60   ~ 0
D77
Text Label 2675 7300 0    60   ~ 0
PWM9
Text Label 2675 7200 0    60   ~ 0
PWM8
Text Label 5775 3100 2    60   ~ 0
D22
Text Label 5775 3200 2    60   ~ 0
D23
Text Label 5775 3300 2    60   ~ 0
D24
Text Label 5775 3400 2    60   ~ 0
D25
Text Label 5775 3500 2    60   ~ 0
D26
Text Label 5775 3600 2    60   ~ 0
D27
Text Label 5775 3700 2    60   ~ 0
D28
Text Label 5775 3800 2    60   ~ 0
D29
Text Label 2675 4300 0    60   ~ 0
D46
Text Label 2675 4200 0    60   ~ 0
D47
Text Label 2675 4100 0    60   ~ 0
D48
Text Label 2675 4000 0    60   ~ 0
D49
Text Label 5825 4500 2    60   ~ 0
PWM11
Text Label 5825 4600 2    60   ~ 0
PWM12
Text Label 5825 4700 2    60   ~ 0
PWM13
$Comp
L INDUCTOR_SMALL L1
U 1 1 56B44946
P 2650 1575
F 0 "L1" H 2650 1675 50  0000 C CNN
F 1 "BLM21PG300" H 2650 1525 50  0000 C CNN
F 2 "Capacitors_SMD:C_0805_HandSoldering" H 2650 1575 60  0001 C CNN
F 3 "" H 2650 1575 60  0000 C CNN
	1    2650 1575
	1    0    0    -1  
$EndComp
$Comp
L GND #PWR053
U 1 1 56B44954
P 2825 8700
F 0 "#PWR053" H 2825 8700 30  0001 C CNN
F 1 "GND" H 2825 8630 30  0001 C CNN
F 2 "" H 2825 8700 60  0000 C CNN
F 3 "" H 2825 8700 60  0000 C CNN
	1    2825 8700
	1    0    0    -1  
$EndComp
Text Label 3500 1575 2    60   ~ 0
5V_uC
Text Label 2425 2475 0    60   ~ 0
5V_uC
Text Label 5875 7100 0    60   ~ 0
INT
Text Label 3500 1575 2    60   ~ 0
5V_uC
Text Label 4375 2600 0    60   ~ 0
5V_uC
$Comp
L PWR_FLAG #FLG054
U 1 1 56B4C145
P 19000 13100
F 0 "#FLG054" H 19000 13195 30  0001 C CNN
F 1 "PWR_FLAG" H 19000 13280 30  0000 C CNN
F 2 "" H 19000 13100 60  0001 C CNN
F 3 "" H 19000 13100 60  0001 C CNN
	1    19000 13100
	1    0    0    -1  
$EndComp
$Comp
L GND #PWR055
U 1 1 56B4C14B
P 19750 14100
F 0 "#PWR055" H 19750 14100 30  0001 C CNN
F 1 "GND" H 19750 14030 30  0001 C CNN
F 2 "" H 19750 14100 60  0001 C CNN
F 3 "" H 19750 14100 60  0001 C CNN
	1    19750 14100
	1    0    0    -1  
$EndComp
$Comp
L +5V #PWR056
U 1 1 56B4C158
P 21600 13000
F 0 "#PWR056" H 21600 13090 20  0001 C CNN
F 1 "+5V" H 21600 13090 30  0000 C CNN
F 2 "" H 21600 13000 60  0001 C CNN
F 3 "" H 21600 13000 60  0001 C CNN
	1    21600 13000
	1    0    0    -1  
$EndComp
Text Notes 20050 12750 2    150  ~ 0
Power Source
$Comp
L LM2576 U?
U 1 1 56B4C16D
P 19750 13350
AR Path="/56B4B1E4/56B4C16D" Ref="U?"  Part="1" 
AR Path="/56B4C16D" Ref="U6"  Part="1" 
F 0 "U6" H 20000 13100 60  0000 C CNN
F 1 "S-5.0" H 19950 13600 60  0000 C CNN
F 2 "" H 19750 13350 60  0001 C CNN
F 3 "" H 19750 13350 60  0001 C CNN
	1    19750 13350
	1    0    0    -1  
$EndComp
$Comp
L D_Schottky D9
U 1 1 56B4C174
P 20400 13700
F 0 "D9" H 20400 13800 40  0000 C CNN
F 1 "1N5822" H 20400 13600 40  0000 C CNN
F 2 "" H 20400 13700 60  0001 C CNN
F 3 "" H 20400 13700 60  0001 C CNN
	1    20400 13700
	0    1    -1   0   
$EndComp
$Comp
L INDUCTOR L5
U 1 1 56B4C17B
P 20725 13500
F 0 "L5" V 20675 13500 40  0000 C CNN
F 1 "100uH" V 20825 13500 40  0000 C CNN
F 2 "Inductors_Felix:Inductor_SMD_Fastron_PISR_15x19x7.5mm" H 20725 13500 60  0001 C CNN
F 3 "" H 20725 13500 60  0001 C CNN
	1    20725 13500
	1    0    0    -1  
$EndComp
Text Label 17500 13200 0    60   ~ 0
24V
Text Label 17700 13900 0    60   ~ 0
GND_24
$Comp
L Led D10
U 1 1 56B4C184
P 19900 14450
F 0 "D10" H 19900 14550 50  0000 C CNN
F 1 "PWR_LED" H 19900 14350 50  0000 C CNN
F 2 "LEDs:LED-1206" H 19900 14450 60  0001 C CNN
F 3 "" H 19900 14450 60  0001 C CNN
	1    19900 14450
	1    0    0    -1  
$EndComp
$Comp
L GND #PWR057
U 1 1 56B4C192
P 20150 14500
F 0 "#PWR057" H 20150 14500 30  0001 C CNN
F 1 "GND" H 20150 14430 30  0001 C CNN
F 2 "" H 20150 14500 60  0001 C CNN
F 3 "" H 20150 14500 60  0001 C CNN
	1    20150 14500
	1    0    0    -1  
$EndComp
$Comp
L +5V #PWR058
U 1 1 56B4C198
P 19350 14400
F 0 "#PWR058" H 19350 14490 20  0001 C CNN
F 1 "+5V" H 19350 14490 30  0000 C CNN
F 2 "" H 19350 14400 60  0001 C CNN
F 3 "" H 19350 14400 60  0001 C CNN
	1    19350 14400
	1    0    0    -1  
$EndComp
$Comp
L PWR_FLAG #FLG059
U 1 1 56B5134E
P 3050 1575
F 0 "#FLG059" H 3050 1670 50  0001 C CNN
F 1 "PWR_FLAG" H 3050 1755 50  0000 C CNN
F 2 "" H 3050 1575 60  0000 C CNN
F 3 "" H 3050 1575 60  0000 C CNN
	1    3050 1575
	1    0    0    -1  
$EndComp
$Comp
L CONN_14 P4
U 1 1 56B57170
P 1800 12400
F 0 "P4" V 1770 12400 60  0000 C CNN
F 1 "CONN_14" V 1880 12400 60  0000 C CNN
F 2 "" H 1800 12400 60  0001 C CNN
F 3 "" H 1800 12400 60  0000 C CNN
	1    1800 12400
	-1   0    0    -1  
$EndComp
$Comp
L CONN_2 P5
U 1 1 56B59EF5
P 16675 13600
F 0 "P5" V 16625 13600 40  0000 C CNN
F 1 "CONN_2" V 16725 13600 40  0000 C CNN
F 2 "Conn_PHOENIX_MKDS3:PHOENIX_MKDS3_2_5mm" H 16675 13600 60  0001 C CNN
F 3 "" H 16675 13600 60  0000 C CNN
	1    16675 13600
	-1   0    0    1   
$EndComp
Text Notes 16700 13100 0    60   ~ 0
add inverse polarity \nprotection here!
Text Label 7025 6300 0    60   ~ 0
PWM5
Text Label 8350 6300 2    60   ~ 0
PWM4
$Comp
L PWR_FLAG #FLG060
U 1 1 56B5EE32
P 21050 13100
F 0 "#FLG060" H 21050 13195 30  0001 C CNN
F 1 "PWR_FLAG" H 21050 13280 30  0000 C CNN
F 2 "" H 21050 13100 60  0001 C CNN
F 3 "" H 21050 13100 60  0001 C CNN
	1    21050 13100
	1    0    0    -1  
$EndComp
Text Label 6350 4400 2    60   ~ 0
PWM10
$Comp
L PWR_FLAG #FLG061
U 1 1 56B611BA
P 20750 7200
F 0 "#FLG061" H 20750 7295 30  0001 C CNN
F 1 "PWR_FLAG" H 20750 7380 30  0000 C CNN
F 2 "" H 20750 7200 60  0001 C CNN
F 3 "" H 20750 7200 60  0001 C CNN
	1    20750 7200
	1    0    0    -1  
$EndComp
Text Label 5775 4000 2    60   ~ 0
D53
Text Label 5775 7100 2    60   ~ 0
PWM2
$Comp
L GND #PWR062
U 1 1 56B3FB15
P 11775 6250
F 0 "#PWR062" H 11775 6250 30  0001 C CNN
F 1 "GND" H 11775 6180 30  0001 C CNN
F 2 "" H 11775 6250 60  0000 C CNN
F 3 "" H 11775 6250 60  0000 C CNN
	1    11775 6250
	1    0    0    -1  
$EndComp
$Comp
L +5V #PWR063
U 1 1 56B3FED6
P 10200 6050
F 0 "#PWR063" H 10200 6140 20  0001 C CNN
F 1 "+5V" H 10200 6140 30  0000 C CNN
F 2 "" H 10200 6050 60  0000 C CNN
F 3 "" H 10200 6050 60  0000 C CNN
	1    10200 6050
	1    0    0    -1  
$EndComp
Text Label 2675 7100 0    60   ~ 0
PWM7
Text Label 2675 7000 0    60   ~ 0
PWM6
Text Label 2675 6900 0    60   ~ 0
76
Text Label 2675 6000 0    60   ~ 0
D70
Text Label 2675 6100 0    60   ~ 0
D71
Text Label 2675 6200 0    60   ~ 0
D72
NoConn ~ 5525 6900
$Comp
L CONN_25X2 P3
U 1 1 56B36C03
P 10750 7350
F 0 "P3" H 10750 8786 60  0000 C CNN
F 1 "CONN_25X2" H 10750 8681 50  0000 C CNN
F 2 "Pin_Headers:Pin_Header_Straight_2x25" H 10750 7350 60  0001 C CNN
F 3 "" H 10750 7350 60  0000 C CNN
	1    10750 7350
	1    0    0    -1  
$EndComp
Text Label 10100 6250 0    60   ~ 0
24V
Text Label 11500 6250 2    60   ~ 0
GND_24
$Comp
L GND #PWR064
U 1 1 56D09FC2
P 11675 8650
F 0 "#PWR064" H 11675 8650 30  0001 C CNN
F 1 "GND" H 11675 8580 30  0001 C CNN
F 2 "" H 11675 8650 60  0000 C CNN
F 3 "" H 11675 8650 60  0000 C CNN
	1    11675 8650
	1    0    0    -1  
$EndComp
Text Label 2200 5800 0    60   ~ 0
S2_RXD
Text Label 2200 5900 0    60   ~ 0
S2_TXD
Text Label 2200 6000 0    60   ~ 0
S2_RTS
Text Label 2200 6100 0    60   ~ 0
S2_CTS
Text Label 2200 6200 0    60   ~ 0
S2_DTR
Text Label 2200 6700 0    60   ~ 0
S3_RXD
Text Label 2200 6800 0    60   ~ 0
S3_TXD
Text Label 2200 6900 0    60   ~ 0
S3_RTS
Text Label 2200 7000 0    60   ~ 0
S3_CTS
Text Label 2200 7100 0    60   ~ 0
S3_DTR
Text Label 6150 5800 2    39   ~ 0
I2C_SCL
Text Label 6150 5900 2    39   ~ 0
I2C_SDA
Text Label 5875 6300 2    60   ~ 0
S1_CTS
Text Label 5875 6400 2    60   ~ 0
S1_DTR
$Comp
L GND #PWR065
U 1 1 56D0C98A
P 8700 6200
F 0 "#PWR065" H 8700 6200 30  0001 C CNN
F 1 "GND" H 8700 6130 30  0001 C CNN
F 2 "" H 8700 6200 60  0000 C CNN
F 3 "" H 8700 6200 60  0000 C CNN
	1    8700 6200
	1    0    0    -1  
$EndComp
$Comp
L +5V #PWR066
U 1 1 56D0C990
P 7125 6000
F 0 "#PWR066" H 7125 6090 20  0001 C CNN
F 1 "+5V" H 7125 6090 30  0000 C CNN
F 2 "" H 7125 6000 60  0000 C CNN
F 3 "" H 7125 6000 60  0000 C CNN
	1    7125 6000
	1    0    0    -1  
$EndComp
$Comp
L CONN_25X2 P2
U 1 1 56D0C996
P 7675 7300
F 0 "P2" H 7675 8736 60  0000 C CNN
F 1 "CONN_25X2" H 7675 8631 50  0000 C CNN
F 2 "Pin_Headers:Pin_Header_Straight_2x25" H 7675 7300 60  0001 C CNN
F 3 "" H 7675 7300 60  0000 C CNN
	1    7675 7300
	1    0    0    -1  
$EndComp
Text Label 7025 6200 0    60   ~ 0
24V
Text Label 8350 6200 2    60   ~ 0
GND_24
$Comp
L +5V #PWR067
U 1 1 56D0C9A6
P 6925 8400
F 0 "#PWR067" H 6925 8490 20  0001 C CNN
F 1 "+5V" H 6925 8490 30  0000 C CNN
F 2 "" H 6925 8400 60  0000 C CNN
F 3 "" H 6925 8400 60  0000 C CNN
	1    6925 8400
	1    0    0    -1  
$EndComp
$Comp
L GND #PWR068
U 1 1 56D0C9AD
P 8600 8500
F 0 "#PWR068" H 8600 8500 30  0001 C CNN
F 1 "GND" H 8600 8430 30  0001 C CNN
F 2 "" H 8600 8500 60  0000 C CNN
F 3 "" H 8600 8500 60  0000 C CNN
	1    8600 8500
	1    0    0    -1  
$EndComp
Text Notes 7250 5725 0    60   ~ 0
atmega pins 1-50\n
Text Notes 10300 5725 0    60   ~ 0
atmega pins 51-100\n
Wire Wire Line
	8600 8400 8075 8400
Wire Wire Line
	8600 8500 8600 8400
Wire Wire Line
	6925 8400 7275 8400
Wire Wire Line
	7125 6100 7125 6000
Wire Wire Line
	8700 6100 8700 6200
Wire Wire Line
	8350 6200 8075 6200
Wire Wire Line
	7025 6200 7275 6200
Wire Wire Line
	7275 6100 7125 6100
Wire Wire Line
	8075 6100 8700 6100
Wire Wire Line
	11675 8550 11150 8550
Wire Wire Line
	11675 8650 11675 8550
Wire Wire Line
	10200 6150 10200 6050
Wire Wire Line
	11775 6150 11775 6250
Wire Wire Line
	11500 6250 11150 6250
Wire Wire Line
	10100 6250 10350 6250
Wire Wire Line
	10350 6150 10200 6150
Wire Wire Line
	11150 6150 11775 6150
Wire Wire Line
	5525 4400 6350 4400
Connection ~ 21050 13200
Wire Wire Line
	8075 6300 8350 6300
Wire Wire Line
	7275 6300 7025 6300
Wire Wire Line
	17050 13700 17050 13900
Wire Wire Line
	17025 13700 17050 13700
Wire Wire Line
	17025 13500 17025 13200
Connection ~ 3050 1575
Wire Wire Line
	3050 1650 3050 1575
Wire Wire Line
	20400 13600 20400 13500
Wire Wire Line
	20400 13900 20400 13800
Connection ~ 21600 13500
Wire Wire Line
	21600 13900 21600 13850
Wire Wire Line
	21050 13900 21050 13800
Wire Wire Line
	17050 13900 18200 13900
Wire Wire Line
	18400 13900 21600 13900
Wire Wire Line
	19150 13900 19150 13500
Wire Wire Line
	19150 13500 19200 13500
Wire Wire Line
	20875 13500 21600 13500
Connection ~ 18500 13200
Wire Wire Line
	18500 13200 18500 13450
Wire Wire Line
	19000 13100 19000 13450
Wire Wire Line
	19800 14450 19700 14450
Connection ~ 19000 13200
Connection ~ 20400 13900
Connection ~ 20400 13500
Wire Wire Line
	20300 13500 20575 13500
Wire Wire Line
	19750 13750 19750 14100
Wire Wire Line
	21050 13100 21050 13600
Wire Wire Line
	20300 13200 21050 13200
Connection ~ 21050 13500
Wire Wire Line
	21600 13000 21600 13650
Connection ~ 19000 13900
Wire Wire Line
	19000 13900 19000 13650
Connection ~ 19750 13900
Wire Wire Line
	20150 14450 20150 14500
Wire Wire Line
	20000 14450 20150 14450
Wire Wire Line
	19350 14450 19350 14400
Wire Wire Line
	19500 14450 19350 14450
Wire Wire Line
	18500 13900 18500 13650
Connection ~ 18500 13900
Connection ~ 21050 13900
Connection ~ 19150 13900
Wire Wire Line
	17025 13200 19200 13200
Wire Wire Line
	4375 2800 4375 2600
Wire Wire Line
	2425 2900 2425 3100
Wire Wire Line
	2425 2475 2425 2700
Connection ~ 1875 3400
Wire Wire Line
	2075 3025 1875 3025
Wire Wire Line
	2275 3025 2275 3100
Wire Wire Line
	2900 1575 3500 1575
Connection ~ 3700 1775
Connection ~ 3500 1575
Connection ~ 4475 8600
Connection ~ 3875 2800
Wire Wire Line
	2825 8500 2825 8700
Wire Wire Line
	2825 8300 2925 8300
Wire Wire Line
	2250 1575 2400 1575
Wire Wire Line
	2250 1525 2250 1575
Wire Wire Line
	5525 4700 5825 4700
Wire Wire Line
	5525 4600 5825 4600
Wire Wire Line
	5525 4500 5825 4500
Wire Wire Line
	2925 4000 2675 4000
Wire Wire Line
	2925 4100 2675 4100
Wire Wire Line
	2925 4200 2675 4200
Wire Wire Line
	2925 4300 2675 4300
Wire Wire Line
	2675 7400 2925 7400
Wire Wire Line
	2675 7300 2925 7300
Wire Wire Line
	2675 7200 2925 7200
Wire Wire Line
	5775 5600 5525 5600
Wire Wire Line
	5775 5500 5525 5500
Wire Wire Line
	5775 5400 5525 5400
Wire Wire Line
	5775 5300 5525 5300
Wire Wire Line
	5775 5200 5525 5200
Wire Wire Line
	5775 5100 5525 5100
Wire Wire Line
	5775 5000 5525 5000
Wire Wire Line
	5525 8300 5725 8300
Wire Wire Line
	5525 8200 5725 8200
Wire Wire Line
	5525 8100 5725 8100
Wire Wire Line
	5525 8000 5725 8000
Wire Wire Line
	5525 7900 5725 7900
Wire Wire Line
	5525 7800 5725 7800
Wire Wire Line
	5525 7700 5725 7700
Wire Wire Line
	2925 8000 2675 8000
Wire Wire Line
	2925 7900 2675 7900
Wire Wire Line
	2925 7800 2675 7800
Wire Wire Line
	3050 2000 3050 1850
Connection ~ 2425 3100
Wire Wire Line
	2675 8100 2925 8100
Wire Wire Line
	2925 7700 2675 7700
Wire Wire Line
	2925 7600 2675 7600
Wire Wire Line
	5775 6500 5525 6500
Wire Wire Line
	5775 7000 5525 7000
Wire Wire Line
	5525 7100 5875 7100
Wire Wire Line
	5775 7200 5525 7200
Wire Wire Line
	5775 7300 5525 7300
Wire Wire Line
	5775 7400 5525 7400
Wire Wire Line
	2925 6500 2675 6500
Wire Wire Line
	2925 6300 2675 6300
Wire Wire Line
	2925 6400 2675 6400
Wire Wire Line
	2925 4400 2675 4400
Wire Wire Line
	2925 4500 2675 4500
Wire Wire Line
	2925 4600 2675 4600
Wire Wire Line
	2925 4700 2675 4700
Wire Wire Line
	2925 4900 2675 4900
Wire Wire Line
	2925 5000 2675 5000
Wire Wire Line
	2925 5100 2675 5100
Wire Wire Line
	2925 5200 2675 5200
Wire Wire Line
	2925 5300 2675 5300
Wire Wire Line
	2925 5400 2675 5400
Wire Wire Line
	2925 5500 2675 5500
Wire Wire Line
	2925 5600 2675 5600
Wire Wire Line
	5775 3100 5525 3100
Wire Wire Line
	5775 3200 5525 3200
Wire Wire Line
	5775 3300 5525 3300
Wire Wire Line
	5775 3400 5525 3400
Wire Wire Line
	5775 3500 5525 3500
Wire Wire Line
	5775 3600 5525 3600
Wire Wire Line
	5775 3700 5525 3700
Wire Wire Line
	5775 3800 5525 3800
Connection ~ 3500 2375
Connection ~ 3500 2175
Connection ~ 3500 1775
Connection ~ 3500 1975
Wire Wire Line
	3500 1575 3500 2375
Wire Wire Line
	5875 6400 5525 6400
Wire Wire Line
	5525 6300 5875 6300
Wire Wire Line
	2200 7100 2925 7100
Wire Wire Line
	2925 7000 2200 7000
Wire Wire Line
	2200 6900 2925 6900
Wire Wire Line
	2200 6200 2925 6200
Wire Wire Line
	2200 6100 2925 6100
Wire Wire Line
	2200 6000 2925 6000
Wire Wire Line
	5775 4900 5525 4900
Wire Wire Line
	5525 7600 5725 7600
Wire Wire Line
	5525 5800 6150 5800
Wire Wire Line
	6150 5900 5525 5900
Wire Wire Line
	5525 6700 5875 6700
Wire Wire Line
	5525 6800 5875 6800
Wire Wire Line
	2200 5900 2925 5900
Wire Wire Line
	2200 5800 2925 5800
Wire Wire Line
	2200 6800 2925 6800
Wire Wire Line
	2925 6700 2200 6700
Wire Wire Line
	4075 8600 4525 8600
Connection ~ 4175 8600
Connection ~ 4275 8600
Wire Wire Line
	4525 8600 4525 8800
Connection ~ 4375 8600
Wire Wire Line
	3875 2800 4375 2800
Connection ~ 3975 2800
Wire Wire Line
	3500 1775 3500 1975
Connection ~ 4075 2800
Connection ~ 4175 2800
Wire Wire Line
	3700 1575 3700 2475
Connection ~ 3700 2175
Connection ~ 3700 2375
Wire Wire Line
	2275 3100 2925 3100
Wire Wire Line
	2275 3400 2925 3400
Wire Wire Line
	2275 3700 2925 3700
Connection ~ 2475 3400
Connection ~ 2475 3700
Wire Wire Line
	1875 3400 2075 3400
Wire Wire Line
	1875 3025 1875 3850
Wire Wire Line
	1875 3700 2075 3700
Connection ~ 1875 3700
Connection ~ 3700 1975
Wire Wire Line
	17300 7500 17300 7600
Wire Wire Line
	17300 7800 17300 7900
Wire Wire Line
	17750 4000 18000 4000
Wire Wire Line
	20700 4200 20800 4200
Wire Wire Line
	20375 9150 21400 9150
Wire Wire Line
	20100 4500 19550 4500
Wire Wire Line
	19600 3600 19150 3600
Wire Wire Line
	19600 3450 19600 3600
Wire Wire Line
	18900 4150 18900 4575
Wire Wire Line
	11550 4200 11550 4350
Wire Wire Line
	11100 3850 11100 4000
Wire Wire Line
	11700 3350 11800 3350
Connection ~ 21200 7250
Wire Wire Line
	21200 7150 21200 7375
Wire Wire Line
	11700 2700 11800 2700
Wire Wire Line
	2550 11700 2400 11700
Wire Wire Line
	3150 12975 4500 12975
Wire Wire Line
	2550 13150 2950 13150
Wire Wire Line
	2550 13050 2550 13150
Wire Wire Line
	2150 13050 2550 13050
Wire Wire Line
	2150 12750 2650 12750
Connection ~ 2400 12650
Wire Wire Line
	2400 12550 2400 13400
Wire Wire Line
	2150 12550 2400 12550
Wire Wire Line
	2550 12450 2550 12500
Wire Wire Line
	2150 12450 2550 12450
Wire Wire Line
	2850 12775 4500 12775
Connection ~ 2850 12250
Wire Wire Line
	2850 12250 2850 12775
Connection ~ 4150 12250
Wire Wire Line
	4150 12050 4150 12250
Wire Wire Line
	2150 12050 4150 12050
Wire Wire Line
	2150 12250 3100 12250
Wire Wire Line
	2500 11250 2500 11400
Wire Wire Line
	2800 11250 2500 11250
Connection ~ 4150 10800
Wire Wire Line
	2550 11850 2550 11700
Wire Wire Line
	2300 11750 2300 10800
Wire Wire Line
	4150 11050 4150 10800
Wire Wire Line
	4100 11050 4150 11050
Wire Wire Line
	3400 11050 3900 11050
Connection ~ 19250 7250
Wire Wire Line
	19250 7150 19250 7375
Connection ~ 20750 7250
Wire Wire Line
	20750 7200 20750 7375
Connection ~ 19450 9150
Wire Wire Line
	19100 9150 20175 9150
Wire Wire Line
	19100 9000 19100 9150
Wire Wire Line
	20600 7250 21200 7250
Wire Wire Line
	13400 10300 13950 10300
Wire Wire Line
	11250 10650 11250 10750
Connection ~ 11700 10900
Wire Wire Line
	11700 10950 11700 10900
Wire Wire Line
	5525 4300 5775 4300
Wire Wire Line
	5775 4100 5525 4100
Wire Wire Line
	7750 4600 7800 4600
Wire Wire Line
	7750 4550 7750 4600
Wire Wire Line
	7200 4550 7750 4550
Wire Wire Line
	8600 4700 8900 4700
Connection ~ 20100 3700
Wire Wire Line
	19150 4000 19150 4200
Wire Wire Line
	18900 4000 19150 4000
Wire Wire Line
	19150 3900 19150 3700
Wire Wire Line
	18900 3900 19150 3900
Wire Wire Line
	5775 6000 5525 6000
Wire Wire Line
	17300 3750 18000 3750
Connection ~ 17750 3900
Wire Wire Line
	17300 3900 18000 3900
Connection ~ 12450 4700
Wire Wire Line
	11500 3150 11350 3150
Wire Wire Line
	11500 3250 11500 3150
Wire Wire Line
	11350 2950 11800 2950
Wire Wire Line
	14550 3650 14450 3650
Wire Wire Line
	14550 3350 14550 3650
Wire Wire Line
	14450 3350 14550 3350
Wire Wire Line
	14150 3350 14250 3350
Wire Wire Line
	13850 3450 13650 3450
Wire Wire Line
	13850 3350 13850 3450
Wire Wire Line
	13950 3350 13850 3350
Wire Wire Line
	13950 3050 13650 3050
Wire Wire Line
	13800 2650 13650 2650
Connection ~ 12600 4700
Wire Wire Line
	12600 4700 12600 4550
Connection ~ 12900 4700
Wire Wire Line
	12900 4700 12900 4550
Wire Wire Line
	11700 3200 11700 3350
Wire Wire Line
	11800 2600 11700 2600
Wire Wire Line
	11700 2500 11700 2700
Connection ~ 11700 2600
Wire Wire Line
	12450 4700 12450 4550
Wire Wire Line
	13050 4700 13050 4550
Connection ~ 12750 4700
Wire Wire Line
	12750 4550 12750 4850
Wire Wire Line
	13650 2750 13800 2750
Wire Wire Line
	14250 3050 14150 3050
Wire Wire Line
	13850 3550 13650 3550
Wire Wire Line
	13850 3650 13850 3550
Wire Wire Line
	13950 3650 13850 3650
Wire Wire Line
	14150 3650 14250 3650
Wire Wire Line
	14800 3500 14800 3350
Wire Wire Line
	14550 3500 14800 3500
Connection ~ 14550 3500
Wire Wire Line
	11350 3050 11800 3050
Wire Wire Line
	17750 3900 17750 4000
Wire Wire Line
	17300 4150 18000 4150
Wire Wire Line
	18900 3600 18900 3750
Wire Wire Line
	5775 6200 5525 6200
Wire Wire Line
	5525 6100 5775 6100
Wire Wire Line
	19150 4200 20500 4200
Connection ~ 20100 4200
Wire Wire Line
	8750 4600 8600 4600
Wire Wire Line
	8750 4500 8750 4600
Wire Wire Line
	8750 4800 8750 4850
Wire Wire Line
	8600 4800 8750 4800
Wire Wire Line
	7200 4700 7800 4700
Wire Wire Line
	7750 4800 7800 4800
Wire Wire Line
	7750 4850 7750 4800
Wire Wire Line
	7200 4850 7750 4850
Wire Wire Line
	5775 4000 5525 4000
Wire Wire Line
	5525 4200 5775 4200
Wire Wire Line
	15450 12425 15450 12675
Wire Wire Line
	16000 7500 16000 7600
Wire Wire Line
	16350 7500 16000 7500
Wire Wire Line
	16350 7600 16350 7500
Wire Wire Line
	13800 7600 13800 8200
Wire Wire Line
	13950 7600 13800 7600
Wire Wire Line
	19800 9000 19800 9300
Wire Wire Line
	13400 10900 13400 10300
Wire Wire Line
	12700 10900 13400 10900
Wire Wire Line
	19250 7250 19800 7250
Connection ~ 21050 8700
Wire Wire Line
	20400 8700 21400 8700
Connection ~ 21050 9150
Wire Wire Line
	21400 9150 21400 9000
Connection ~ 19800 9150
Connection ~ 19800 8700
Wire Wire Line
	19100 8700 20100 8700
Connection ~ 19450 8700
Wire Wire Line
	19450 8700 19450 8800
Wire Wire Line
	20750 7750 20750 7575
Connection ~ 16050 11200
Wire Wire Line
	16550 9800 16450 9800
Wire Wire Line
	16550 9600 16550 9800
Wire Wire Line
	15850 9600 15950 9600
Wire Wire Line
	15950 9500 15850 9500
Connection ~ 13200 8300
Wire Wire Line
	12350 8300 13950 8300
Wire Wire Line
	12350 6700 12350 8300
Wire Wire Line
	16450 6700 12350 6700
Wire Wire Line
	16450 8400 16450 6700
Wire Wire Line
	15850 8400 16450 8400
Wire Wire Line
	16950 8600 15850 8600
Wire Wire Line
	16700 8250 17200 8250
Wire Wire Line
	16700 8000 16700 8250
Wire Wire Line
	15850 8000 16700 8000
Wire Wire Line
	17900 9250 17700 9250
Wire Wire Line
	17900 8800 17900 9250
Wire Wire Line
	17400 8950 17500 8950
Wire Wire Line
	17300 9100 16900 9100
Connection ~ 16900 9100
Wire Wire Line
	16900 8700 16900 9250
Connection ~ 17900 8250
Wire Wire Line
	17650 8250 17900 8250
Wire Wire Line
	17400 8550 17450 8550
Connection ~ 18200 7700
Wire Wire Line
	18350 7700 18200 7700
Wire Wire Line
	18350 7750 18350 7700
Connection ~ 17650 7900
Wire Wire Line
	16750 7900 17850 7900
Connection ~ 17300 7900
Wire Wire Line
	17650 7900 17650 7800
Wire Wire Line
	17650 7500 17650 7600
Wire Wire Line
	16750 7800 16750 7900
Wire Wire Line
	16300 10900 15850 10900
Wire Wire Line
	16300 10800 16300 10900
Connection ~ 16050 11000
Wire Wire Line
	16050 11000 15850 11000
Connection ~ 16050 10700
Wire Wire Line
	16050 10700 15850 10700
Connection ~ 16050 10500
Wire Wire Line
	16050 10500 15850 10500
Connection ~ 16050 10300
Wire Wire Line
	16050 10300 15850 10300
Connection ~ 16050 10100
Wire Wire Line
	16050 10100 15850 10100
Connection ~ 16050 9900
Wire Wire Line
	16050 9900 15850 9900
Connection ~ 16050 8900
Wire Wire Line
	16050 8900 15850 8900
Wire Wire Line
	16050 8500 15850 8500
Connection ~ 13200 8800
Wire Wire Line
	13200 8300 13200 10500
Wire Wire Line
	13200 10500 13950 10500
Wire Wire Line
	13950 10100 13550 10100
Connection ~ 13300 8400
Wire Wire Line
	13300 8200 13300 9000
Wire Wire Line
	13300 9000 13950 9000
Connection ~ 13200 8700
Wire Wire Line
	13950 8000 13550 8000
Wire Wire Line
	12450 6800 12450 8700
Wire Wire Line
	16200 7900 15850 7900
Wire Wire Line
	16200 6800 16200 7900
Wire Wire Line
	16200 6800 12450 6800
Wire Wire Line
	13550 7400 13950 7400
Connection ~ 13800 11200
Connection ~ 13800 11000
Wire Wire Line
	13800 11000 13950 11000
Connection ~ 13800 10800
Wire Wire Line
	13800 10800 13950 10800
Connection ~ 13800 10600
Wire Wire Line
	13800 10600 13950 10600
Connection ~ 13800 9800
Wire Wire Line
	13800 9800 13950 9800
Connection ~ 13800 9600
Wire Wire Line
	13800 9600 13950 9600
Connection ~ 13800 9400
Wire Wire Line
	13800 9400 13950 9400
Connection ~ 13800 9200
Wire Wire Line
	13800 9300 13950 9300
Connection ~ 13800 8900
Wire Wire Line
	13800 9100 13950 9100
Connection ~ 13800 8500
Wire Wire Line
	13950 8600 13800 8600
Wire Wire Line
	13950 7100 13950 7300
Wire Wire Line
	13200 7100 13300 7100
Wire Wire Line
	13600 7100 13500 7100
Wire Wire Line
	13200 7150 13200 7100
Wire Wire Line
	13800 7100 13950 7100
Wire Wire Line
	13800 8500 13950 8500
Connection ~ 13800 8200
Wire Wire Line
	13800 8900 13950 8900
Connection ~ 13800 8600
Wire Wire Line
	13800 9200 13950 9200
Connection ~ 13800 9100
Wire Wire Line
	13800 11200 13950 11200
Connection ~ 13800 9300
Wire Wire Line
	13800 9500 13950 9500
Connection ~ 13800 9500
Wire Wire Line
	13800 9700 13950 9700
Connection ~ 13800 9700
Wire Wire Line
	13800 10400 13950 10400
Connection ~ 13800 10400
Wire Wire Line
	13800 10700 13950 10700
Connection ~ 13800 10700
Wire Wire Line
	13800 10900 13950 10900
Connection ~ 13800 10900
Wire Wire Line
	13800 11100 13950 11100
Connection ~ 13800 11100
Wire Wire Line
	13950 7700 13550 7700
Wire Wire Line
	13550 7800 13950 7800
Wire Wire Line
	12450 8700 12625 8700
Wire Wire Line
	13950 7900 12450 7900
Connection ~ 12450 7900
Wire Wire Line
	12925 8700 13950 8700
Wire Wire Line
	13950 8100 13550 8100
Wire Wire Line
	13950 8400 13300 8400
Wire Wire Line
	13200 8800 13950 8800
Wire Wire Line
	13950 9900 13550 9900
Wire Wire Line
	13950 10000 13550 10000
Wire Wire Line
	13950 10200 13550 10200
Wire Wire Line
	16050 11200 15850 11200
Wire Wire Line
	15850 8800 16050 8800
Connection ~ 16050 8800
Wire Wire Line
	16050 9000 15850 9000
Connection ~ 16050 9000
Wire Wire Line
	16050 10000 15850 10000
Connection ~ 16050 10000
Wire Wire Line
	16050 10200 15850 10200
Connection ~ 16050 10200
Wire Wire Line
	16050 10400 15850 10400
Connection ~ 16050 10400
Wire Wire Line
	16050 10600 15850 10600
Connection ~ 16050 10600
Wire Wire Line
	16050 10800 15850 10800
Connection ~ 16050 10800
Wire Wire Line
	16050 11100 15850 11100
Connection ~ 16050 11100
Wire Wire Line
	16750 7700 16750 7500
Wire Wire Line
	15850 7700 16750 7700
Wire Wire Line
	15850 7800 16750 7800
Connection ~ 17300 7500
Wire Wire Line
	16750 7500 17850 7500
Connection ~ 17650 7500
Wire Wire Line
	18200 7500 18050 7500
Wire Wire Line
	18200 7500 18200 7900
Wire Wire Line
	18200 7900 18050 7900
Wire Wire Line
	17400 8250 17450 8250
Wire Wire Line
	17900 8100 17900 8550
Wire Wire Line
	17900 8550 17650 8550
Wire Wire Line
	16950 8600 16950 8950
Wire Wire Line
	16950 8950 17200 8950
Wire Wire Line
	16900 9250 17200 9250
Wire Wire Line
	17350 8800 16950 8800
Connection ~ 16950 8800
Wire Wire Line
	17500 9250 17400 9250
Wire Wire Line
	17700 8950 17900 8950
Connection ~ 17900 8950
Wire Wire Line
	16650 8550 17200 8550
Wire Wire Line
	16650 8100 16650 8550
Wire Wire Line
	15850 8100 16650 8100
Wire Wire Line
	15850 8700 16900 8700
Wire Wire Line
	16500 9400 15850 9400
Wire Wire Line
	15950 9500 15950 9800
Connection ~ 15950 9600
Wire Wire Line
	15850 9800 16250 9800
Connection ~ 15950 9800
Wire Wire Line
	20200 7550 20200 7900
Wire Wire Line
	19650 7575 19650 7750
Connection ~ 20200 7750
Wire Wire Line
	19650 7375 19650 7250
Connection ~ 19650 7250
Wire Wire Line
	19800 8700 19800 8800
Wire Wire Line
	20700 8700 20700 8800
Wire Wire Line
	19450 9000 19450 9150
Wire Wire Line
	21050 9150 21050 9000
Connection ~ 20700 9150
Wire Wire Line
	21050 8700 21050 8800
Connection ~ 20700 8700
Wire Wire Line
	21400 8550 21700 8550
Wire Wire Line
	21400 8550 21400 8800
Connection ~ 21400 8700
Wire Wire Line
	12200 11100 12200 11250
Wire Wire Line
	19250 7750 19250 7575
Connection ~ 19650 7750
Wire Wire Line
	11550 10900 11800 10900
Wire Wire Line
	20700 9000 20700 9300
Wire Wire Line
	13800 8500 13800 11400
Wire Wire Line
	13550 8200 13550 8500
Wire Wire Line
	13550 8200 13950 8200
Wire Wire Line
	16050 8500 16050 11400
Wire Wire Line
	16000 7600 15850 7600
Wire Wire Line
	15900 12825 15450 12825
Wire Wire Line
	11700 11250 11700 11150
Wire Wire Line
	11250 11100 11250 10950
Wire Wire Line
	16100 9700 15850 9700
Wire Wire Line
	21200 7750 21200 7575
Wire Wire Line
	19250 7750 21200 7750
Connection ~ 20750 7750
Wire Wire Line
	19100 8600 19100 8800
Connection ~ 19100 8700
Wire Wire Line
	2150 11750 2300 11750
Wire Wire Line
	3650 11300 3650 11050
Connection ~ 3650 11050
Wire Wire Line
	2300 10800 4500 10800
Wire Wire Line
	2150 11950 4500 11950
Wire Wire Line
	3200 11950 3200 11050
Connection ~ 3200 11950
Wire Wire Line
	2800 12150 2150 12150
Wire Wire Line
	2800 11450 2800 12150
Wire Wire Line
	3650 11500 3650 11650
Wire Wire Line
	2150 11850 2800 11850
Connection ~ 2800 11850
Connection ~ 2550 11850
Wire Wire Line
	3450 12600 3450 12650
Connection ~ 3450 12250
Wire Wire Line
	3450 12400 3450 12250
Wire Wire Line
	3300 12250 3725 12250
Wire Wire Line
	3925 12250 4500 12250
Wire Wire Line
	2400 12650 2150 12650
Wire Wire Line
	1925 13400 2100 13400
Wire Wire Line
	1925 13450 1925 13400
Wire Wire Line
	2300 12950 2150 12950
Wire Wire Line
	2300 12750 2300 12950
Connection ~ 2300 12750
Wire Wire Line
	2650 12850 2150 12850
Wire Wire Line
	2650 12975 2650 12850
Wire Wire Line
	2950 12975 2650 12975
Wire Wire Line
	3150 13150 4500 13150
Wire Wire Line
	12200 10600 12200 10700
Wire Wire Line
	12450 4700 13050 4700
Wire Wire Line
	11550 3850 11550 4000
Wire Wire Line
	11100 4200 11100 4350
Wire Wire Line
	18900 4775 18900 4925
Wire Wire Line
	18350 4525 18900 4525
Connection ~ 18900 4525
Wire Wire Line
	19600 3250 19600 3100
Wire Wire Line
	19600 3900 20100 3900
Wire Wire Line
	20100 4400 20100 4500
Wire Wire Line
	21050 9550 21050 9450
Wire Wire Line
	20850 9550 21050 9550
Wire Wire Line
	20850 9200 20850 9550
Wire Wire Line
	20700 9200 20850 9200
Connection ~ 20700 9200
Wire Wire Line
	19150 3700 20500 3700
Wire Wire Line
	20700 3700 20800 3700
Text Label 7025 6400 0    60   ~ 0
PWM3
Text Label 8350 6500 2    60   ~ 0
D81
Text Label 7025 6500 0    60   ~ 0
D82
Text Label 8425 6400 0    60   ~ 0
INT
Text Label 8350 6400 2    60   ~ 0
PWM2
Wire Wire Line
	8075 6400 8425 6400
Wire Wire Line
	7025 6400 7275 6400
Wire Wire Line
	8350 6500 8075 6500
Wire Wire Line
	7025 6500 7275 6500
Text Label 7025 6900 0    60   ~ 0
PWM9
Text Label 8350 6900 2    60   ~ 0
PWM8
Text Label 8500 6800 0    60   ~ 0
PWM7
Text Label 6625 6700 0    60   ~ 0
PWM6
Text Label 8500 6700 0    60   ~ 0
76
Text Label 8425 6600 2    60   ~ 0
S3_RXD
Text Label 6950 6600 0    60   ~ 0
S3_TXD
Text Label 8425 6700 2    60   ~ 0
S3_RTS
Text Label 6950 6700 0    60   ~ 0
S3_CTS
Text Label 8100 6800 0    60   ~ 0
S3_DTR
Wire Wire Line
	7025 6900 7275 6900
Wire Wire Line
	8075 6900 8350 6900
Wire Wire Line
	8075 6800 8500 6800
Wire Wire Line
	7275 6700 6625 6700
Wire Wire Line
	8075 6700 8500 6700
Wire Wire Line
	6950 6600 7275 6600
Wire Wire Line
	8075 6600 8425 6600
$Comp
L GND #PWR069
U 1 1 56F584BB
P 6950 6825
F 0 "#PWR069" H 6950 6825 30  0001 C CNN
F 1 "GND" H 6950 6755 30  0001 C CNN
F 2 "" H 6950 6825 60  0000 C CNN
F 3 "" H 6950 6825 60  0000 C CNN
	1    6950 6825
	1    0    0    -1  
$EndComp
Wire Wire Line
	6950 6825 6950 6800
Wire Wire Line
	6950 6800 7275 6800
Text Label 8225 7200 0    60   ~ 0
SS
Text Label 7025 7100 0    60   ~ 0
MISO
Text Label 8350 7100 2    60   ~ 0
MOSI
Text Label 7025 7000 0    60   ~ 0
SCK
Text Label 8375 7300 2    60   ~ 0
PWM11
Text Label 7025 7300 0    60   ~ 0
PWM12
Text Label 8375 7400 2    60   ~ 0
PWM13
Text Label 8500 7200 0    60   ~ 0
PWM10
Text Label 8350 7000 2    60   ~ 0
D53
Wire Wire Line
	8075 7200 8500 7200
Wire Wire Line
	8075 7400 8375 7400
Wire Wire Line
	7025 7300 7275 7300
Wire Wire Line
	8075 7300 8375 7300
Wire Wire Line
	7025 7100 7275 7100
Wire Wire Line
	7275 7000 7025 7000
Wire Wire Line
	8350 7000 8075 7000
Wire Wire Line
	8075 7100 8350 7100
$Comp
L GND #PWR070
U 1 1 56F59347
P 6850 7225
F 0 "#PWR070" H 6850 7225 30  0001 C CNN
F 1 "GND" H 6850 7155 30  0001 C CNN
F 2 "" H 6850 7225 60  0000 C CNN
F 3 "" H 6850 7225 60  0000 C CNN
	1    6850 7225
	1    0    0    -1  
$EndComp
Wire Wire Line
	6850 7225 6850 7200
Wire Wire Line
	6850 7200 7275 7200
Text Label 7025 7400 0    60   ~ 0
D77
Wire Wire Line
	7025 7400 7275 7400
Text Label 8375 7500 2    60   ~ 0
D78
Text Label 7025 7500 0    60   ~ 0
D79
Wire Wire Line
	7275 7500 7025 7500
Wire Wire Line
	8375 7500 8075 7500
Text Label 7025 7900 0    60   ~ 0
D42
Text Label 8375 7900 2    60   ~ 0
D43
Text Label 7025 7800 0    60   ~ 0
D44
Text Label 8375 7800 2    60   ~ 0
D45
Text Label 7025 7700 0    60   ~ 0
D46
Text Label 8375 7700 2    60   ~ 0
D47
Text Label 7025 7600 0    60   ~ 0
D48
Text Label 8375 7600 2    60   ~ 0
D49
Wire Wire Line
	8375 7600 8075 7600
Wire Wire Line
	7275 7600 7025 7600
Wire Wire Line
	8375 7700 8075 7700
Wire Wire Line
	7275 7700 7025 7700
Wire Wire Line
	8375 7800 8075 7800
Wire Wire Line
	7275 7800 7025 7800
Wire Wire Line
	8375 7900 8075 7900
Wire Wire Line
	7275 7900 7025 7900
Text Label 8400 8300 2    60   ~ 0
D38
Text Label 8375 8000 2    39   ~ 0
I2C_SCL
Text Label 7025 8000 0    39   ~ 0
I2C_SDA
Wire Wire Line
	8400 8300 8075 8300
Wire Wire Line
	8075 8000 8375 8000
Wire Wire Line
	7025 8000 7275 8000
$Comp
L GND #PWR071
U 1 1 56F5B5F5
P 6725 8125
F 0 "#PWR071" H 6725 8125 30  0001 C CNN
F 1 "GND" H 6725 8055 30  0001 C CNN
F 2 "" H 6725 8125 60  0000 C CNN
F 3 "" H 6725 8125 60  0000 C CNN
	1    6725 8125
	1    0    0    -1  
$EndComp
Wire Wire Line
	6725 8125 6725 8100
Wire Wire Line
	6725 8100 7275 8100
$Comp
L GND #PWR072
U 1 1 56F5B6B7
P 8600 8200
F 0 "#PWR072" H 8600 8200 30  0001 C CNN
F 1 "GND" H 8600 8130 30  0001 C CNN
F 2 "" H 8600 8200 60  0000 C CNN
F 3 "" H 8600 8200 60  0000 C CNN
	1    8600 8200
	1    0    0    -1  
$EndComp
Wire Wire Line
	8600 8100 8075 8100
Wire Wire Line
	8600 8200 8600 8100
Wire Wire Line
	10000 8550 10350 8550
$Comp
L +5V #PWR073
U 1 1 56D09B27
P 10000 8550
F 0 "#PWR073" H 10000 8640 20  0001 C CNN
F 1 "+5V" H 10000 8640 30  0000 C CNN
F 2 "" H 10000 8550 60  0000 C CNN
F 3 "" H 10000 8550 60  0000 C CNN
	1    10000 8550
	1    0    0    -1  
$EndComp
Wire Wire Line
	7025 8500 7275 8500
Wire Wire Line
	8425 8500 8075 8500
Text Label 8425 8500 2    60   ~ 0
GND_24
Text Label 7025 8500 0    60   ~ 0
24V
Text Label 7025 8200 0    60   ~ 0
485_B
Text Label 8400 8200 2    60   ~ 0
485_A
Wire Wire Line
	8400 8200 8075 8200
Wire Wire Line
	7025 8200 7275 8200
Text Label 11400 6350 2    60   ~ 0
D40
Text Label 10100 6350 0    60   ~ 0
D41
Wire Wire Line
	11400 6350 11150 6350
Wire Wire Line
	10350 6350 10100 6350
Text Label 17300 4150 0    60   ~ 0
S1_485_TX
Text Label 17300 3750 0    60   ~ 0
S1_485_RX
Text Label 10100 6450 0    60   ~ 0
D37
Text Label 11400 6450 2    60   ~ 0
D36
Text Label 10100 6550 0    60   ~ 0
D35
Text Label 11400 6550 2    60   ~ 0
D34
Text Label 10100 6650 0    60   ~ 0
D33
Text Label 11400 6650 2    60   ~ 0
D32
Text Label 10100 6750 0    60   ~ 0
D31
Text Label 11400 6750 2    60   ~ 0
D30
Wire Wire Line
	11400 6750 11150 6750
Wire Wire Line
	10350 6750 10100 6750
Wire Wire Line
	11400 6650 11150 6650
Wire Wire Line
	10350 6650 10100 6650
Wire Wire Line
	11400 6550 11150 6550
Wire Wire Line
	10350 6550 10100 6550
Wire Wire Line
	11400 6450 11150 6450
Wire Wire Line
	10350 6450 10100 6450
Text Label 10100 7150 0    60   ~ 0
D73
Text Label 11150 7150 0    60   ~ 0
D74
Text Label 10100 6950 0    60   ~ 0
D70
Text Label 11775 6950 2    60   ~ 0
D71
Text Label 10100 7050 0    60   ~ 0
D72
Text Label 9625 6850 0    60   ~ 0
S2_RXD
Text Label 11475 6850 2    60   ~ 0
S2_TXD
Text Label 9625 6950 0    60   ~ 0
S2_RTS
Text Label 11150 6950 0    60   ~ 0
S2_CTS
Text Label 9625 7050 0    60   ~ 0
S2_DTR
Wire Wire Line
	10350 7150 10100 7150
Wire Wire Line
	11400 7150 11150 7150
Wire Wire Line
	9625 7050 10350 7050
Wire Wire Line
	11150 6950 11775 6950
Wire Wire Line
	9625 6950 10350 6950
Wire Wire Line
	11150 6850 11475 6850
Wire Wire Line
	9625 6850 10350 6850
$Comp
L GND #PWR074
U 1 1 56F52C67
P 11675 7150
F 0 "#PWR074" H 11675 7150 30  0001 C CNN
F 1 "GND" H 11675 7080 30  0001 C CNN
F 2 "" H 11675 7150 60  0000 C CNN
F 3 "" H 11675 7150 60  0000 C CNN
	1    11675 7150
	1    0    0    -1  
$EndComp
Wire Wire Line
	11675 7050 11150 7050
Wire Wire Line
	11675 7150 11675 7050
Text Label 10100 7250 0    60   ~ 0
D39
Wire Wire Line
	10350 7250 10100 7250
Text Label 10100 7650 0    60   ~ 0
D22
Text Label 11400 7550 2    60   ~ 0
D23
Text Label 10100 7550 0    60   ~ 0
D24
Text Label 11400 7450 2    60   ~ 0
D25
Text Label 10100 7450 0    60   ~ 0
D26
Text Label 11400 7350 2    60   ~ 0
D27
Text Label 10100 7350 0    60   ~ 0
D28
Text Label 11400 7250 2    60   ~ 0
D29
Wire Wire Line
	10350 7650 10100 7650
Wire Wire Line
	11400 7550 11150 7550
Wire Wire Line
	10350 7550 10100 7550
Wire Wire Line
	11400 7450 11150 7450
Wire Wire Line
	10350 7450 10100 7450
Wire Wire Line
	11400 7350 11150 7350
Wire Wire Line
	10350 7350 10100 7350
Wire Wire Line
	11400 7250 11150 7250
Text Label 11400 7650 2    60   ~ 0
D75
Wire Wire Line
	11400 7650 11150 7650
Text Label 10100 7750 0    60   ~ 0
A15
Text Label 11400 7750 2    60   ~ 0
A14
Text Label 10100 7850 0    60   ~ 0
A13
Text Label 11400 7850 2    60   ~ 0
A12
Text Label 10100 7950 0    60   ~ 0
A11
Text Label 11400 7950 2    60   ~ 0
A10
Text Label 10100 8050 0    60   ~ 0
A9
Text Label 11400 8050 2    60   ~ 0
A8
Wire Wire Line
	11400 8050 11150 8050
Wire Wire Line
	10350 8050 10100 8050
Wire Wire Line
	11400 7950 11150 7950
Wire Wire Line
	10350 7950 10100 7950
Wire Wire Line
	11400 7850 11150 7850
Wire Wire Line
	10350 7850 10100 7850
Wire Wire Line
	11400 7750 11150 7750
Wire Wire Line
	10350 7750 10100 7750
Text Label 11400 8450 2    60   ~ 0
A0
Text Label 10100 8450 0    60   ~ 0
A1
Text Label 11400 8350 2    60   ~ 0
A2
Text Label 10100 8350 0    60   ~ 0
A3
Text Label 11400 8250 2    60   ~ 0
A4
Text Label 10100 8250 0    60   ~ 0
A5
Text Label 11400 8150 2    60   ~ 0
A6
Text Label 10100 8150 0    60   ~ 0
A7
Wire Wire Line
	10100 8150 10350 8150
Wire Wire Line
	11150 8150 11400 8150
Wire Wire Line
	10100 8250 10350 8250
Wire Wire Line
	11150 8250 11400 8250
Wire Wire Line
	10100 8350 10350 8350
Wire Wire Line
	11150 8350 11400 8350
Wire Wire Line
	10100 8450 10350 8450
Wire Wire Line
	11150 8450 11400 8450
NoConn ~ 7275 8300
$Comp
L R_SMD0805 R2
U 1 1 56F58B72
P 14350 3350
F 0 "R2" V 14547 3350 50  0000 C CNN
F 1 "500R" V 14455 3350 50  0000 C CNN
F 2 "Resistors_SMD:R_0805_HandSoldering" H 14350 3350 60  0001 C CNN
F 3 "" H 14350 3350 60  0001 C CNN
	1    14350 3350
	0    -1   -1   0   
$EndComp
$Comp
L Led D2
U 1 1 56F590A9
P 14050 3650
F 0 "D2" H 14050 3750 50  0000 C CNN
F 1 "TX_Led" H 14050 3550 50  0000 C CNN
F 2 "LEDs:LED-1206" H 14050 3650 60  0001 C CNN
F 3 "" H 14050 3650 60  0001 C CNN
	1    14050 3650
	-1   0    0    1   
$EndComp
$Comp
L D_Schottky D4
U 1 1 56F5A68A
P 20100 4300
F 0 "D4" H 20100 4400 40  0000 C CNN
F 1 "Transorb" H 20100 4200 40  0000 C CNN
F 2 "" H 20100 4300 60  0001 C CNN
F 3 "" H 20100 4300 60  0001 C CNN
	1    20100 4300
	0    -1   -1   0   
$EndComp
$Comp
L Bridge BR1
U 1 1 56F5A81D
P 18900 4675
F 0 "BR1" H 18945 4706 39  0000 L CNN
F 1 "Bridge" H 18945 4637 31  0000 L CNN
F 2 "Pins_and_Brides_Felix:Bridge_1x2mm" H 19125 4575 21  0001 C CNN
F 3 "" H 18930 4695 60  0000 C CNN
	1    18900 4675
	1    0    0    -1  
$EndComp
Text Notes 20625 3375 0    60   ~ 0
CHECK PTC!
$Comp
L R_SMD0805 R6
U 1 1 56F5BDC1
P 13400 7100
F 0 "R6" V 13597 7100 50  0000 C CNN
F 1 "300R" V 13505 7100 50  0000 C CNN
F 2 "Resistors_SMD:R_0805_HandSoldering" H 13400 7100 60  0001 C CNN
F 3 "" H 13400 7100 60  0001 C CNN
	1    13400 7100
	0    -1   -1   0   
$EndComp
$Comp
L R_SMD0805 R7
U 1 1 56F5C25B
P 13700 7100
F 0 "R7" V 13897 7100 50  0000 C CNN
F 1 "12k" V 13805 7100 50  0000 C CNN
F 2 "Resistors_SMD:R_0805_HandSoldering" H 13700 7100 60  0001 C CNN
F 3 "" H 13700 7100 60  0001 C CNN
	1    13700 7100
	0    -1   -1   0   
$EndComp
$Comp
L R_SMD0805 R16
U 1 1 56F5CC52
P 11700 11050
F 0 "R16" V 11897 11050 50  0000 C CNN
F 1 "10k" V 11805 11050 50  0000 C CNN
F 2 "Resistors_SMD:R_0805_HandSoldering" H 11700 11050 60  0001 C CNN
F 3 "" H 11700 11050 60  0001 C CNN
	1    11700 11050
	1    0    0    -1  
$EndComp
$Comp
L R_SMD0805 R13
U 1 1 56F5D91C
P 16350 9800
F 0 "R13" V 16547 9800 50  0000 C CNN
F 1 "10k" V 16455 9800 50  0000 C CNN
F 2 "Resistors_SMD:R_0805_HandSoldering" H 16350 9800 60  0001 C CNN
F 3 "" H 16350 9800 60  0001 C CNN
	1    16350 9800
	0    1    1    0   
$EndComp
$Comp
L R_SMD0805 R9
U 1 1 56F5E042
P 17550 8250
F 0 "R9" V 17747 8250 50  0000 C CNN
F 1 "1k" V 17655 8250 50  0000 C CNN
F 2 "Resistors_SMD:R_0805_HandSoldering" H 17550 8250 60  0001 C CNN
F 3 "" H 17550 8250 60  0001 C CNN
	1    17550 8250
	0    1    1    0   
$EndComp
$Comp
L R_SMD0805 R10
U 1 1 56F5E463
P 17550 8550
F 0 "R10" V 17747 8550 50  0000 C CNN
F 1 "1k" V 17655 8550 50  0000 C CNN
F 2 "Resistors_SMD:R_0805_HandSoldering" H 17550 8550 60  0001 C CNN
F 3 "" H 17550 8550 60  0001 C CNN
	1    17550 8550
	0    1    1    0   
$EndComp
$Comp
L R_SMD0805 R11
U 1 1 56F5E58A
P 17600 8950
F 0 "R11" V 17797 8950 50  0000 C CNN
F 1 "1k" V 17705 8950 50  0000 C CNN
F 2 "Resistors_SMD:R_0805_HandSoldering" H 17600 8950 60  0001 C CNN
F 3 "" H 17600 8950 60  0001 C CNN
	1    17600 8950
	0    1    1    0   
$EndComp
$Comp
L R_SMD0805 R12
U 1 1 56F5E6B0
P 17600 9250
F 0 "R12" V 17797 9250 50  0000 C CNN
F 1 "1k" V 17705 9250 50  0000 C CNN
F 2 "Resistors_SMD:R_0805_HandSoldering" H 17600 9250 60  0001 C CNN
F 3 "" H 17600 9250 60  0001 C CNN
	1    17600 9250
	0    1    1    0   
$EndComp
$Comp
L C_SMD0805 C19
U 1 1 56F5EA16
P 17950 7900
F 0 "C19" H 18000 8000 50  0000 L CNN
F 1 "22pF" H 18000 7800 50  0000 L CNN
F 2 "Capacitors_SMD:C_0805_HandSoldering" H 17950 7900 60  0001 C CNN
F 3 "" H 17950 7900 60  0001 C CNN
	1    17950 7900
	0    -1   -1   0   
$EndComp
$Comp
L R_SMD0805 R8
U 1 1 56F5ED81
P 17650 7700
F 0 "R8" V 17847 7700 50  0000 C CNN
F 1 "1M" V 17755 7700 50  0000 C CNN
F 2 "Resistors_SMD:R_0805_HandSoldering" H 17650 7700 60  0001 C CNN
F 3 "" H 17650 7700 60  0001 C CNN
	1    17650 7700
	-1   0    0    1   
$EndComp
$Comp
L Led D6
U 1 1 56F5F3F3
P 17300 8550
F 0 "D6" H 17300 8650 50  0000 C CNN
F 1 "RX" H 17300 8450 50  0000 C CNN
F 2 "LEDs:LED-1206" H 17300 8550 60  0001 C CNN
F 3 "" H 17300 8550 60  0001 C CNN
	1    17300 8550
	-1   0    0    1   
$EndComp
$Comp
L Led D7
U 1 1 56F5F8EC
P 17300 8950
F 0 "D7" H 17300 9050 50  0000 C CNN
F 1 "10/100" H 17300 8850 50  0000 C CNN
F 2 "LEDs:LED-1206" H 17300 8950 60  0001 C CNN
F 3 "" H 17300 8950 60  0001 C CNN
	1    17300 8950
	-1   0    0    1   
$EndComp
$Comp
L Led D8
U 1 1 56F5FAD9
P 17300 9250
F 0 "D8" H 17300 9350 50  0000 C CNN
F 1 "Link" H 17300 9150 50  0000 C CNN
F 2 "LEDs:LED-1206" H 17300 9250 60  0001 C CNN
F 3 "" H 17300 9250 60  0001 C CNN
	1    17300 9250
	-1   0    0    1   
$EndComp
$Comp
L Bridge BR2
U 1 1 56F60359
P 20275 9150
F 0 "BR2" V 20130 9150 39  0000 C CNN
F 1 "Bridge" V 20199 9150 31  0000 C CNN
F 2 "Pins_and_Brides_Felix:Bridge_1x2mm" H 20500 9050 21  0001 C CNN
F 3 "" H 20305 9170 60  0000 C CNN
	1    20275 9150
	0    1    1    0   
$EndComp
$Comp
L CP C21
U 1 1 56F60557
P 19100 8900
F 0 "C21" H 19188 8946 50  0000 L CNN
F 1 "33uF" H 19188 8854 50  0000 L CNN
F 2 "" H 19100 8900 60  0001 C CNN
F 3 "" H 19100 8900 60  0000 C CNN
	1    19100 8900
	1    0    0    -1  
$EndComp
$Comp
L C_SMD0805 C22
U 1 1 56F60D59
P 19450 8900
F 0 "C22" H 19500 9000 50  0000 L CNN
F 1 "100nF" H 19500 8800 50  0000 L CNN
F 2 "Capacitors_SMD:C_0805_HandSoldering" H 19450 8900 60  0001 C CNN
F 3 "" H 19450 8900 60  0001 C CNN
	1    19450 8900
	1    0    0    -1  
$EndComp
$Comp
L C_SMD0805 C23
U 1 1 56F61308
P 19800 8900
F 0 "C23" H 19850 9000 50  0000 L CNN
F 1 "100nF" H 19850 8800 50  0000 L CNN
F 2 "Capacitors_SMD:C_0805_HandSoldering" H 19800 8900 60  0001 C CNN
F 3 "" H 19800 8900 60  0001 C CNN
	1    19800 8900
	1    0    0    -1  
$EndComp
$Comp
L C_SMD0805 C25
U 1 1 56F61431
P 21050 8900
F 0 "C25" H 21100 9000 50  0000 L CNN
F 1 "100nF" H 21100 8800 50  0000 L CNN
F 2 "Capacitors_SMD:C_0805_HandSoldering" H 21050 8900 60  0001 C CNN
F 3 "" H 21050 8900 60  0001 C CNN
	1    21050 8900
	1    0    0    -1  
$EndComp
$Comp
L C_SMD0805 C26
U 1 1 56F61568
P 21400 8900
F 0 "C26" H 21450 9000 50  0000 L CNN
F 1 "100nF" H 21450 8800 50  0000 L CNN
F 2 "Capacitors_SMD:C_0805_HandSoldering" H 21400 8900 60  0001 C CNN
F 3 "" H 21400 8900 60  0001 C CNN
	1    21400 8900
	1    0    0    -1  
$EndComp
$Comp
L CP C24
U 1 1 56F616E9
P 20700 8900
F 0 "C24" H 20788 8946 50  0000 L CNN
F 1 "33uF" H 20788 8854 50  0000 L CNN
F 2 "" H 20700 8900 60  0001 C CNN
F 3 "" H 20700 8900 60  0000 C CNN
	1    20700 8900
	1    0    0    -1  
$EndComp
$Comp
L C_SMD0805 C14
U 1 1 56F61B7A
P 19250 7475
F 0 "C14" H 19300 7575 50  0000 L CNN
F 1 "100nF" H 19300 7375 50  0000 L CNN
F 2 "Capacitors_SMD:C_0805_HandSoldering" H 19250 7475 60  0001 C CNN
F 3 "" H 19250 7475 60  0001 C CNN
	1    19250 7475
	1    0    0    -1  
$EndComp
$Comp
L C_SMD0805 C16
U 1 1 56F61D5F
P 20750 7475
F 0 "C16" H 20800 7575 50  0000 L CNN
F 1 "100nF" H 20800 7375 50  0000 L CNN
F 2 "Capacitors_SMD:C_0805_HandSoldering" H 20750 7475 60  0001 C CNN
F 3 "" H 20750 7475 60  0001 C CNN
	1    20750 7475
	1    0    0    -1  
$EndComp
$Comp
L CP C15
U 1 1 56F6233D
P 19650 7475
F 0 "C15" H 19738 7521 50  0000 L CNN
F 1 "10uF_Tant" H 19738 7429 50  0000 L CNN
F 2 "" H 19650 7475 60  0001 C CNN
F 3 "" H 19650 7475 60  0000 C CNN
	1    19650 7475
	1    0    0    -1  
$EndComp
$Comp
L C_SMD0805 C30
U 1 1 56F62952
P 14925 12400
F 0 "C30" V 14695 12400 50  0000 C CNN
F 1 "100nF" V 14787 12400 50  0000 C CNN
F 2 "Capacitors_SMD:C_0805_HandSoldering" H 14925 12400 60  0001 C CNN
F 3 "" H 14925 12400 60  0001 C CNN
	1    14925 12400
	0    1    1    0   
$EndComp
$Comp
L C_SMD0805 C33
U 1 1 56F62E39
P 18500 13550
F 0 "C33" H 18550 13650 50  0000 L CNN
F 1 "100nF" H 18550 13450 50  0000 L CNN
F 2 "Capacitors_SMD:C_0805_HandSoldering" H 18500 13550 60  0001 C CNN
F 3 "" H 18500 13550 60  0001 C CNN
	1    18500 13550
	1    0    0    -1  
$EndComp
$Comp
L CP C34
U 1 1 56F63A27
P 19000 13550
F 0 "C34" H 19088 13596 50  0000 L CNN
F 1 "100uF" H 19088 13504 50  0000 L CNN
F 2 "Capacitors_SMD:C_0805_HandSoldering" H 19000 13550 60  0001 C CNN
F 3 "" H 19000 13550 60  0000 C CNN
	1    19000 13550
	1    0    0    -1  
$EndComp
$Comp
L Bridge BR3
U 1 1 56F63EE2
P 18300 13900
F 0 "BR3" V 18155 13900 39  0000 C CNN
F 1 "Bridge" V 18224 13900 31  0000 C CNN
F 2 "Pins_and_Brides_Felix:Bridge_1x2mm" H 18525 13800 21  0001 C CNN
F 3 "" H 18330 13920 60  0000 C CNN
	1    18300 13900
	0    1    1    0   
$EndComp
$Comp
L CP C35
U 1 1 56F64AAA
P 21050 13700
F 0 "C35" H 21138 13746 50  0000 L CNN
F 1 "1000uF" H 21138 13654 50  0000 L CNN
F 2 "" H 21050 13700 60  0001 C CNN
F 3 "" H 21050 13700 60  0000 C CNN
	1    21050 13700
	1    0    0    -1  
$EndComp
$Comp
L C_SMD0805 C36
U 1 1 56F655F6
P 21600 13750
F 0 "C36" H 21650 13850 50  0000 L CNN
F 1 "100nF" H 21650 13650 50  0000 L CNN
F 2 "Capacitors_SMD:C_0805_HandSoldering" H 21600 13750 60  0001 C CNN
F 3 "" H 21600 13750 60  0001 C CNN
	1    21600 13750
	1    0    0    -1  
$EndComp
$Comp
L R_SMD0805 R22
U 1 1 56F659EC
P 19600 14450
F 0 "R22" V 19797 14450 50  0000 C CNN
F 1 "500R" V 19705 14450 50  0000 C CNN
F 2 "Resistors_SMD:R_0805_HandSoldering" H 19600 14450 60  0001 C CNN
F 3 "" H 19600 14450 60  0001 C CNN
	1    19600 14450
	0    1    1    0   
$EndComp
$Comp
L R_SMD0805 R14
U 1 1 56F665DF
P 3300 11050
F 0 "R14" V 3497 11050 50  0000 C CNN
F 1 "49R9" V 3405 11050 50  0000 C CNN
F 2 "Resistors_SMD:R_0805_HandSoldering" H 3300 11050 60  0001 C CNN
F 3 "" H 3300 11050 60  0001 C CNN
	1    3300 11050
	0    1    1    0   
$EndComp
$Comp
L R_SMD0805 R15
U 1 1 56F66B41
P 4000 11050
F 0 "R15" V 4197 11050 50  0000 C CNN
F 1 "49R9" V 4105 11050 50  0000 C CNN
F 2 "Resistors_SMD:R_0805_HandSoldering" H 4000 11050 60  0001 C CNN
F 3 "" H 4000 11050 60  0001 C CNN
	1    4000 11050
	0    1    1    0   
$EndComp
$Comp
L R_SMD0805 R17
U 1 1 56F66D8B
P 3200 12250
F 0 "R17" V 3397 12250 50  0000 C CNN
F 1 "49R9" V 3305 12250 50  0000 C CNN
F 2 "Resistors_SMD:R_0805_HandSoldering" H 3200 12250 60  0001 C CNN
F 3 "" H 3200 12250 60  0001 C CNN
	1    3200 12250
	0    1    1    0   
$EndComp
$Comp
L R_SMD0805 R18
U 1 1 56F66F20
P 3825 12250
F 0 "R18" V 4022 12250 50  0000 C CNN
F 1 "49R9" V 3930 12250 50  0000 C CNN
F 2 "Resistors_SMD:R_0805_HandSoldering" H 3825 12250 60  0001 C CNN
F 3 "" H 3825 12250 60  0001 C CNN
	1    3825 12250
	0    1    1    0   
$EndComp
$Comp
L R_SMD0805 R20
U 1 1 56F6711B
P 3050 12975
F 0 "R20" V 3247 12975 50  0000 C CNN
F 1 "1k" V 3155 12975 50  0000 C CNN
F 2 "Resistors_SMD:R_0805_HandSoldering" H 3050 12975 60  0001 C CNN
F 3 "" H 3050 12975 60  0001 C CNN
	1    3050 12975
	0    1    1    0   
$EndComp
$Comp
L R_SMD0805 R21
U 1 1 56F674F0
P 3050 13150
F 0 "R21" V 3247 13150 50  0000 C CNN
F 1 "1k" V 3155 13150 50  0000 C CNN
F 2 "Resistors_SMD:R_0805_HandSoldering" H 3050 13150 60  0001 C CNN
F 3 "" H 3050 13150 60  0001 C CNN
	1    3050 13150
	0    1    1    0   
$EndComp
$Comp
L C_SMD0805 C27
U 1 1 56F67CE2
P 11250 10850
F 0 "C27" H 11300 10950 50  0000 L CNN
F 1 "100nF" H 11300 10750 50  0000 L CNN
F 2 "Capacitors_SMD:C_0805_HandSoldering" H 11250 10850 60  0001 C CNN
F 3 "" H 11250 10850 60  0001 C CNN
	1    11250 10850
	1    0    0    -1  
$EndComp
$Comp
L C_SMD0805 C28
U 1 1 56F682EB
P 2800 11350
F 0 "C28" H 2850 11450 50  0000 L CNN
F 1 "100nF" H 2850 11250 50  0000 L CNN
F 2 "Capacitors_SMD:C_0805_HandSoldering" H 2800 11350 60  0001 C CNN
F 3 "" H 2800 11350 60  0001 C CNN
	1    2800 11350
	1    0    0    -1  
$EndComp
$Comp
L C_SMD0805 C29
U 1 1 56F68723
P 3650 11400
F 0 "C29" H 3700 11500 50  0000 L CNN
F 1 "100nF" H 3700 11300 50  0000 L CNN
F 2 "Capacitors_SMD:C_0805_HandSoldering" H 3650 11400 60  0001 C CNN
F 3 "" H 3650 11400 60  0001 C CNN
	1    3650 11400
	1    0    0    -1  
$EndComp
$Comp
L C_SMD0805 C31
U 1 1 56F68915
P 3450 12500
F 0 "C31" H 3500 12600 50  0000 L CNN
F 1 "100nF" H 3500 12400 50  0000 L CNN
F 2 "Capacitors_SMD:C_0805_HandSoldering" H 3450 12500 60  0001 C CNN
F 3 "" H 3450 12500 60  0001 C CNN
	1    3450 12500
	1    0    0    -1  
$EndComp
$Comp
L C_SMD0805 C9
U 1 1 56F69024
P 19600 3350
F 0 "C9" H 19650 3450 50  0000 L CNN
F 1 "100nF" H 19650 3250 50  0000 L CNN
F 2 "Capacitors_SMD:C_0805_HandSoldering" H 19600 3350 60  0001 C CNN
F 3 "" H 19600 3350 60  0001 C CNN
	1    19600 3350
	1    0    0    -1  
$EndComp
$Comp
L C_SMD0805 C8
U 1 1 56F692E1
P 14050 3050
F 0 "C8" H 14100 3150 50  0000 L CNN
F 1 "100nF" H 14100 2950 50  0000 L CNN
F 2 "Capacitors_SMD:C_0805_HandSoldering" H 14050 3050 60  0001 C CNN
F 3 "" H 14050 3050 60  0001 C CNN
	1    14050 3050
	0    1    1    0   
$EndComp
$Comp
L C_SMD0805 C12
U 1 1 56F696B7
P 11100 4100
F 0 "C12" H 11150 4200 50  0000 L CNN
F 1 "100nF" H 11150 4000 50  0000 L CNN
F 2 "Capacitors_SMD:C_0805_HandSoldering" H 11100 4100 60  0001 C CNN
F 3 "" H 11100 4100 60  0001 C CNN
	1    11100 4100
	1    0    0    -1  
$EndComp
$Comp
L C_SMD0805 C13
U 1 1 56F699BC
P 11550 4100
F 0 "C13" H 11600 4200 50  0000 L CNN
F 1 "100nF" H 11600 4000 50  0000 L CNN
F 2 "Capacitors_SMD:C_0805_HandSoldering" H 11550 4100 60  0001 C CNN
F 3 "" H 11550 4100 60  0001 C CNN
	1    11550 4100
	1    0    0    -1  
$EndComp
$Comp
L C_SMD0805 C1
U 1 1 56F69FA5
P 3600 1575
F 0 "C1" V 3370 1575 50  0000 C CNN
F 1 "100nF" V 3462 1575 50  0000 C CNN
F 2 "Capacitors_SMD:C_0805_HandSoldering" H 3600 1575 60  0001 C CNN
F 3 "" H 3600 1575 60  0001 C CNN
	1    3600 1575
	0    1    1    0   
$EndComp
$Comp
L C_SMD0805 C3
U 1 1 56F6A1E6
P 3600 1775
F 0 "C3" V 3370 1775 50  0000 C CNN
F 1 "100nF" V 3462 1775 50  0000 C CNN
F 2 "Capacitors_SMD:C_0805_HandSoldering" H 3600 1775 60  0001 C CNN
F 3 "" H 3600 1775 60  0001 C CNN
	1    3600 1775
	0    1    1    0   
$EndComp
$Comp
L C_SMD0805 C4
U 1 1 56F6A305
P 3600 1975
F 0 "C4" V 3370 1975 50  0000 C CNN
F 1 "100nF" V 3462 1975 50  0000 C CNN
F 2 "Capacitors_SMD:C_0805_HandSoldering" H 3600 1975 60  0001 C CNN
F 3 "" H 3600 1975 60  0001 C CNN
	1    3600 1975
	0    1    1    0   
$EndComp
$Comp
L C_SMD0805 C5
U 1 1 56F6A425
P 3600 2175
F 0 "C5" V 3370 2175 50  0000 C CNN
F 1 "100nF" V 3462 2175 50  0000 C CNN
F 2 "Capacitors_SMD:C_0805_HandSoldering" H 3600 2175 60  0001 C CNN
F 3 "" H 3600 2175 60  0001 C CNN
	1    3600 2175
	0    1    1    0   
$EndComp
$Comp
L C_SMD0805 C6
U 1 1 56F6A54C
P 3600 2375
F 0 "C6" V 3370 2375 50  0000 C CNN
F 1 "100nF" V 3462 2375 50  0000 C CNN
F 2 "Capacitors_SMD:C_0805_HandSoldering" H 3600 2375 60  0001 C CNN
F 3 "" H 3600 2375 60  0001 C CNN
	1    3600 2375
	0    1    1    0   
$EndComp
$Comp
L C_SMD0805 C7
U 1 1 56F6A7E2
P 2175 3025
F 0 "C7" V 1945 3025 50  0000 C CNN
F 1 "100nF" V 2037 3025 50  0000 C CNN
F 2 "Capacitors_SMD:C_0805_HandSoldering" H 2175 3025 60  0001 C CNN
F 3 "" H 2175 3025 60  0001 C CNN
	1    2175 3025
	0    1    1    0   
$EndComp
$Comp
L C_SMD0805 C10
U 1 1 56F6BBEA
P 2175 3400
F 0 "C10" V 1945 3400 50  0000 C CNN
F 1 "22p" V 2037 3400 50  0000 C CNN
F 2 "Capacitors_SMD:C_0805_HandSoldering" H 2175 3400 60  0001 C CNN
F 3 "" H 2175 3400 60  0001 C CNN
	1    2175 3400
	0    1    1    0   
$EndComp
$Comp
L C_SMD0805 C11
U 1 1 56F6C12A
P 2175 3700
F 0 "C11" V 1945 3700 50  0000 C CNN
F 1 "22p" V 2037 3700 50  0000 C CNN
F 2 "Capacitors_SMD:C_0805_HandSoldering" H 2175 3700 60  0001 C CNN
F 3 "" H 2175 3700 60  0001 C CNN
	1    2175 3700
	0    1    1    0   
$EndComp
$Comp
L C_SMD0805 C20
U 1 1 56F6C43E
P 2825 8400
F 0 "C20" H 2917 8354 50  0000 L CNN
F 1 "100nF" H 2917 8446 50  0000 L CNN
F 2 "Capacitors_SMD:C_0805_HandSoldering" H 2825 8400 60  0001 C CNN
F 3 "" H 2825 8400 60  0001 C CNN
	1    2825 8400
	-1   0    0    1   
$EndComp
$Comp
L Crystal Y1
U 1 1 56F6CD55
P 2475 3550
F 0 "Y1" V 2429 3638 50  0000 L CNN
F 1 "Crystal" V 2521 3638 50  0000 L CNN
F 2 "" H 2475 3550 60  0001 C CNN
F 3 "" H 2475 3550 60  0000 C CNN
	1    2475 3550
	0    1    1    0   
$EndComp
Wire Wire Line
	2475 3650 2475 3700
Wire Wire Line
	2475 3450 2475 3400
$Comp
L R_SMD0805 R1
U 1 1 56F6F358
P 2425 2800
F 0 "R1" V 2622 2800 50  0000 C CNN
F 1 "10k" V 2530 2800 50  0000 C CNN
F 2 "Resistors_SMD:R_0805_HandSoldering" H 2425 2800 60  0001 C CNN
F 3 "" H 2425 2800 60  0001 C CNN
	1    2425 2800
	1    0    0    -1  
$EndComp
NoConn ~ 5875 6300
NoConn ~ 5875 6400
$Comp
L R_SMD0805 R4
U 1 1 56F709E3
P 20600 3700
F 0 "R4" V 20797 3700 50  0000 C CNN
F 1 "PTC" V 20705 3700 50  0000 C CNN
F 2 "Resistors_SMD:R_0805_HandSoldering" H 20600 3700 60  0001 C CNN
F 3 "" H 20600 3700 60  0001 C CNN
	1    20600 3700
	0    -1   -1   0   
$EndComp
$Comp
L R_SMD0805 R5
U 1 1 56F70CE2
P 20600 4200
F 0 "R5" V 20797 4200 50  0000 C CNN
F 1 "PTC" V 20705 4200 50  0000 C CNN
F 2 "Resistors_SMD:R_0805_HandSoldering" H 20600 4200 60  0001 C CNN
F 3 "" H 20600 4200 60  0001 C CNN
	1    20600 4200
	0    -1   -1   0   
$EndComp
NoConn ~ 28275 575 
$Comp
L TS2940 U7
U 1 1 56F5678B
P 20200 7300
F 0 "U7" H 20200 7637 60  0000 C CNN
F 1 "TS2940" H 20200 7531 60  0000 C CNN
F 2 "" H 20200 7300 60  0001 C CNN
F 3 "" H 20200 7300 60  0000 C CNN
	1    20200 7300
	1    0    0    -1  
$EndComp
$Comp
L CP C17
U 1 1 56F56CFE
P 21200 7475
F 0 "C17" H 21288 7521 50  0000 L CNN
F 1 "10uF_Tant" H 21288 7429 50  0000 L CNN
F 2 "" H 21200 7475 60  0001 C CNN
F 3 "" H 21200 7475 60  0000 C CNN
	1    21200 7475
	1    0    0    -1  
$EndComp
Wire Wire Line
	13875 12825 14350 12825
Wire Wire Line
	14150 12675 14350 12675
Connection ~ 14150 12675
Wire Wire Line
	15025 12400 15325 12400
Wire Wire Line
	15325 12400 15325 12500
Wire Wire Line
	15325 12500 15450 12500
Connection ~ 15450 12500
Wire Wire Line
	14825 12400 14150 12400
Wire Wire Line
	14150 12400 14150 12700
$EndSCHEMATC
